gmap	TRINITY_DN217511_c2_g3_i3	78	1	C9781625	6	+	+	OK	1898-6393	93.2792511700468	99.9688084840923	298960	orient(a+/s+) align: 1898(1)-4174(2355)>GT....AG<4263(2356)-4346(2439)>GT....AG<4630(2440)-4734(2544)>GT....AG<4851(2545)-4959(2653)>GT....AG<5746(2654)-5897(2805)>GT....AG<5979(2806)-6393(3205)	
gmap	TRINITY_DN218551_c1_g6_i1	821	71	chr1	1	+	?	OK	113160344-113161276	91	100	85358	orient(a+/s?) align: 113160344(1)-113161276(938)	
gmap	TRINITY_DN194055_c1_g1_i2	1422	127	chr1	1	+	?	OK	157469212-157469771	96	91.6949152542373	51936	orient(a+/s?) align: 157469212(1)-157469771(541)	
gmap	TRINITY_DN221233_c2_g12_i1	1256	115	chr3	1	-	?	OK	41272305-41273045	91	99.0728476821192	68068	orient(a-/s?) align: 41272305(748)-41273045(1)	
gmap	TRINITY_DN232004_c1_g2_i1	1235	112	chr4	2	+	-	OK	84143585-84144153	83.9318996415771	93.1552587646077	46834	orient(a+/s-) align: 84143585(1)-84143883(299)>CT....AC<84143937(300)-84144153(558)	
gmap	TRINITY_DN168241_c0_g1_i1	1498	132	chr5	1	+	?	OK	14607054-14607567	92	99.4174757281553	47104	orient(a+/s?) align: 14607054(1)-14607567(512)	
gmap	TRINITY_DN214070_c0_g1_i1	562	47	chr7	3	-	-	OK	26602370-26603617	93.423645320197	93.2618683001531	56895	orient(a-/s-) align: 26602370(609)-26602642(336)>CT....AC<26602736(335)-26602868(198)>CT....AC<26603421(197)-26603617(1)	
gmap	TRINITY_DN178023_c0_g1_i1	1597	138	chr9	1	+	?	OK	58911116-58911669	89	96.0502692998205	47615	orient(a+/s?) align: 58911116(23)-58911669(557)	
gmap	TRINITY_DN162077_c0_g1_i1	1684	147	scaffold1.3500	1	+	?	OK	61554-62187	92	99.4126284875183	62284	orient(a+/s?) align: 61554(5)-62187(681)	
gmap	TRINITY_DN225537_c5_g1_i2	526	43	scaffold106727	1	+	?	OK	5845-6388	90	100	48960	orient(a+/s?) align: 5845(1)-6388(544)	
gmap	TRINITY_DN225537_c5_g1_i1	525	44	scaffold106727	1	+	?	OK	5871-6388	90	98.8549618320611	46620	orient(a+/s?) align: 5871(7)-6388(524)	
gmap	TRINITY_DN232212_c2_g9_i3	823	69	scaffold106727	2	+	+	OK	1488-4156	90.2921348314607	96.7391304347826	48216	orient(a+/s+) align: 1488(2)-1513(27)>GT....AG<3646(28)-4156(535)	
gmap	TRINITY_DN232212_c3_g3_i7	825	70	scaffold106727	1	+	?	OK	6503-7197	85	95.7983193277311	58140	orient(a+/s?) align: 6503(31)-7197(714)	
gmap	TRINITY_DN232212_c3_g7_i2	829	72	scaffold106727	1	+	?	OK	7040-7675	83	99.6835443037975	52290	orient(a+/s?) align: 7040(3)-7675(632)	
gmap	TRINITY_DN232212_c3_g3_i11	828	73	scaffold106727	2	+	-	OK	5721-7941	84.4108729743858	98.8119834710744	161478	orient(a+/s-) align: 5721(21)-5982(282)>CT....AC<6267(283)-7941(1933)	
gmap	TRINITY_DN173951_c0_g1_i1	1575	158	scaffold2.3817	1	+	?	OK	15494-15882	83	81.0810810810811	37350	orient(a+/s?) align: 15494(106)-15882(555)	
gmap	TRINITY_DN253098_c0_g1_i1	623	52	scaffold9.1209	1	+	?	OK	22188-22788	94	100	59220	orient(a+/s?) align: 22188(1)-22788(630)	
gmap	TRINITY_DN195943_c0_g1_i1	1412	125	scaffold9.915	2	-	-	OK	75939-79054	91.1079460269865	93.4173669467787	60769	orient(a-/s-) align: 75939(699)-76601(41)>CT....AC<79047(40)-79054(33)	
gmap	TRINITY_DN206397_c0_g5_i3	1180	109	scaffoldMt.7	1	-	?	OK	10409-11981	98	100	153076	orient(a-/s?) align: 10409(1562)-11981(1)	
gmap	TRINITY_DN214963_c3_g2_i1	125	2	chr1	1	-	?	OK	375846-376355	91	97.1929824561404	50414	orient(a-/s?) align: 375846(556)-376355(3)	
gmap	TRINITY_DN231742_c4_g10_i3	161	20	chr1	1	+	?	OK	317562251-317562760	85	79.7191887675507	43435	orient(a+/s?) align: 317562251(67)-317562760(577)	
gmap	TRINITY_DN229689_c2_g5_i4	463	38	chr1	2	+	+	OK	217859059-217868569	95.6898395721925	74.2063492063492	71576	orient(a+/s+) align: 217859059(43)-217859546(532)>GT....AG<217868308(533)-217868569(790)	
gmap	TRINITY_DN218551_c1_g6_i1	821	90	chr1	1	+	?	OK	184583429-184584361	91	100	85358	orient(a+/s?) align: 184583429(1)-184584361(938)	
gmap	TRINITY_DN236878_c0_g1_i1	1225	157	chr1	1	+	?	OK	105532240-105532755	89	89.4736842105263	45390	orient(a+/s?) align: 105532240(1)-105532755(510)	
gmap	TRINITY_DN199704_c0_g1_i1	1599	215	chr1	4	-	+	OK	314701444-314709880	95.6967312348668	94.2922374429224	158091	orient(a-/s+) align: 314701444(1674)-314701663(1463)>GT....AG<314702004(1462)-314702155(1319)>GT....AG<314702509(1318)-314703715(116)>GT....AG<314709788(115)-314709880(23)	
gmap	TRINITY_DN231949_c1_g1_i1	1240	164	chr10	1	-	?	OK	29814793-29815933	89	98.7951807228916	102172	orient(a-/s?) align: 29814793(1162)-29815933(15)	
gmap	TRINITY_DN221233_c2_g12_i1	1256	166	chr3	1	-	?	OK	54234684-54235425	91	99.0728476821192	68068	orient(a-/s?) align: 54234684(748)-54235425(1)	
gmap	TRINITY_DN232212_c3_g3_i7	825	91	chr4	1	+	?	OK	4426061-4426750	87	96.218487394958	59769	orient(a+/s?) align: 4426061(28)-4426750(714)	
gmap	TRINITY_DN232212_c2_g9_i3	823	93	chr4	2	+	+	OK	4420929-4423795	91.438202247191	96.7391304347826	48828	orient(a+/s+) align: 4420929(2)-4420954(27)>GT....AG<4423285(28)-4423795(535)	
gmap	TRINITY_DN232212_c3_g7_i2	829	95	chr4	1	+	?	OK	4426593-4427228	83	99.6835443037975	52290	orient(a+/s?) align: 4426593(3)-4427228(632)	
gmap	TRINITY_DN232212_c3_g3_i11	828	98	chr4	2	+	-	OK	4425354-4427494	85.2739153162572	98.8119834710744	163129	orient(a+/s-) align: 4425354(21)-4425615(282)>CT....AC<4425828(283)-4427494(1933)	
gmap	TRINITY_DN206397_c0_g5_i3	1180	151	chr4	1	-	?	OK	205289202-205290664	97	93.0217669654289	140941	orient(a-/s?) align: 205289202(1562)-205290664(110)	
gmap	TRINITY_DN221027_c0_g1_i8	1287	177	chr4	1	+	?	OK	248719152-248719612	84	71.342383107089	39732	orient(a+/s?) align: 248719152(71)-248719612(543)	
gmap	TRINITY_DN228482_c0_g2_i1	457	49	chr5	1	-	?	OK	202717197-202717827	81	92.6592797783934	54189	orient(a-/s?) align: 202717197(722)-202717827(54)	
gmap	TRINITY_DN202904_c0_g2_i1	797	87	chr5	2	-	-	OK	16066078-16067049	91.5166051660517	94.7552447552448	49602	orient(a-/s-) align: 16066078(542)-16066355(263)>CT....GC<16066793(262)-16067049(1)	
gmap	TRINITY_DN201507_c1_g2_i1	1262	165	chr5	2	+	+	OK	199772600-199779310	90.4868421052632	100	68770	orient(a+/s+) align: 199772600(1)-199772636(37)>GT....AG<199778589(38)-199779310(760)	
gmap	TRINITY_DN168241_c0_g1_i1	1498	196	chr5	1	+	?	OK	17678181-17678694	92	99.4174757281553	47104	orient(a+/s?) align: 17678181(1)-17678694(512)	
gmap	TRINITY_DN237045_c0_g1_i1	620	63	chr6	1	+	?	OK	8389072-8389704	90	92.2727272727273	54810	orient(a+/s?) align: 8389072(3)-8389704(611)	
gmap	TRINITY_DN214070_c0_g1_i1	562	56	chr7	3	-	-	OK	41678240-41679487	93.423645320197	93.2618683001531	56895	orient(a-/s-) align: 41678240(609)-41678512(336)>CT....AC<41678606(335)-41678738(198)>CT....AC<41679291(197)-41679487(1)	
gmap	TRINITY_DN197139_c0_g1_i2	1408	201	chr7	1	-	?	OK	179593829-179594754	82	94.9304174950298	78310	orient(a-/s?) align: 179593829(1006)-179594754(52)	
gmap	TRINITY_DN225812_c2_g1_i1	1107	136	chr8	1	+	?	OK	179442366-179442965	81	89.0625	46170	orient(a+/s?) align: 179442366(25)-179442965(594)	
gmap	TRINITY_DN23773_c0_g2_i1	1367	176	chr9	1	-	?	OK	3325824-3326312	87	100	44109	orient(a-/s?) align: 3325824(507)-3326312(1)	
gmap	TRINITY_DN195943_c0_g1_i1	1412	185	chr9	1	-	?	OK	58539126-58539801	91	94.1176470588235	61152	orient(a-/s?) align: 58539126(699)-58539801(28)	
gmap	TRINITY_DN178023_c0_g1_i1	1597	211	chr9	1	-	?	OK	124742022-124742575	89	96.0502692998205	47615	orient(a-/s?) align: 124742022(557)-124742575(23)	
gmap	TRINITY_DN217511_c2_g3_i3	78	7	CM007694.1	6	-	-	OK	12769954-12774202	96.313468013468	92.6388022457891	286051	orient(a-/s-) align: 12769954(3205)-12770368(2806)>CT....AC<12770454(2805)-12770605(2654)>CT....AC<12771299(2653)-12771407(2545)>CT....AC<12771523(2544)-12771627(2440)>CT....AC<12771911(2439)-12771994(2356)>CT....AC<12772083(2355)-12774202(236)	
gmap	TRINITY_DN231742_c4_g10_i3	161	13	CM007694.1	2	-	+	OK	9770000-9770590	85.4705882352941	79.5631825273011	43590	orient(a-/s+) align: 9770000(577)-9770028(548)>GT....AG<9770114(547)-9770590(68)	
gmap	TRINITY_DN211725_c1_g1_i1	447	51	CM007694.1	1	+	?	OK	325387-326067	91	91.6981132075472	66339	orient(a+/s?) align: 325387(1)-326067(729)	
gmap	TRINITY_DN229689_c2_g5_i4	463	57	CM007694.1	2	+	+	OK	227810689-227817313	95.6898395721925	74.2063492063492	71576	orient(a+/s+) align: 227810689(43)-227811176(532)>GT....AG<227817052(533)-227817313(790)	
gmap	TRINITY_DN218551_c1_g6_i1	821	101	CM007694.1	1	+	?	OK	193877770-193878702	91	100	85358	orient(a+/s?) align: 193877770(1)-193878702(938)	
gmap	TRINITY_DN218551_c1_g6_i3	822	110	CM007694.1	1	+	?	OK	193877770-193878593	88	81.7907444668008	71544	orient(a+/s?) align: 193877770(1)-193878593(813)	
gmap	TRINITY_DN228620_c2_g1_i1	1279	217	CM007694.1	1	+	?	OK	331826383-331827099	82	82.4175824175824	61500	orient(a+/s?) align: 331826383(84)-331827099(833)	
gmap	TRINITY_DN104017_c0_g1_i1	1544	223	CM007694.1	1	-	?	OK	355865-356529	91	84.8484848484848	63700	orient(a-/s?) align: 355865(706)-356529(7)	
gmap	TRINITY_DN199704_c0_g1_i1	1599	237	CM007694.1	2	-	-	OK	331579893-331581702	96.8424705065926	82.2488584474886	139550	orient(a-/s-) align: 331579893(1463)-331580039(1325)>CT....AC<331580398(1324)-331581702(23)	
gmap	TRINITY_DN199704_c0_g1_i2	1600	242	CM007694.1	2	-	-	OK	331579893-331581702	96.8424705065926	80.6379406827084	139550	orient(a-/s-) align: 331579893(1463)-331580039(1325)>CT....AC<331580398(1324)-331581702(23)	
gmap	TRINITY_DN173198_c0_g1_i1	1660	250	CM007694.1	2	-	-	OK	18651515-18652381	84.8798586572438	85.6710393541877	72063	orient(a-/s-) align: 18651515(921)-18651622(820)>CT....AC<18651643(819)-18652381(73)	
gmap	TRINITY_DN226500_c1_g3_i9	364	45	CM007695.1	2	-	-	OK	155171619-155173013	83.5844155844156	97.7777777777778	51488	orient(a-/s-) align: 155171619(616)-155171822(418)>CT....AC<155172637(417)-155173013(1)	
gmap	TRINITY_DN221233_c2_g12_i1	1256	173	CM007696.1	1	-	?	OK	58105753-58106494	91	99.0728476821192	68068	orient(a-/s?) align: 58105753(748)-58106494(1)	
gmap	TRINITY_DN232212_c2_g9_i3	823	102	CM007697.1	2	+	+	OK	5193151-5212320	91.438202247191	96.7391304347826	48828	orient(a+/s+) align: 5193151(2)-5193176(27)>GT....AG<5211810(28)-5212320(535)	
gmap	TRINITY_DN232212_c3_g7_i2	829	103	CM007697.1	1	+	?	OK	5217929-5218564	83	99.6835443037975	52290	orient(a+/s?) align: 5217929(3)-5218564(632)	
gmap	TRINITY_DN232212_c3_g3_i7	825	104	CM007697.1	2	+	-	OK	5214598-5218086	86.2270742358079	96.218487394958	59238	orient(a+/s-) align: 5214598(28)-5215006(433)>CT....GC<5217806(434)-5218086(714)	
gmap	TRINITY_DN232212_c3_g3_i11	828	109	CM007697.1	3	+	-	OK	5213891-5218830	84.739675901725	98.8119834710744	162107	orient(a+/s-) align: 5213891(21)-5214152(282)>CT....AC<5214365(283)-5215006(911)>CT....GC<5217806(912)-5218830(1933)	
gmap	TRINITY_DN158854_c0_g1_i1	1465	205	CM007697.1	2	+	+	OK	132177670-132178474	82.5803278688525	100	50374	orient(a+/s+) align: 132177670(1)-132178105(428)>GT....AG<132178291(429)-132178474(610)	
gmap	TRINITY_DN125420_c0_g1_i1	1619	230	CM007697.1	1	-	?	OK	186801649-186802015	82	75.9398496240601	33128	orient(a-/s?) align: 186801649(404)-186802015(1)	
gmap	TRINITY_DN230373_c3_g1_i14	159	4	CM007698.1	1	-	?	OK	226261448-226263886	99	99.1060544494108	241461	orient(a-/s?) align: 226261448(2461)-226263886(23)	
gmap	TRINITY_DN230373_c3_g1_i15	160	6	CM007698.1	1	-	?	OK	226261448-226262713	99	97.5346687211094	125334	orient(a-/s?) align: 226261448(1298)-226262713(33)	
gmap	TRINITY_DN228482_c0_g2_i1	457	52	CM007698.1	1	-	?	OK	215684882-215685516	82	93.3518005540166	55268	orient(a-/s?) align: 215684882(722)-215685516(49)	
gmap	TRINITY_DN202904_c0_g2_i1	797	121	CM007698.1	2	-	-	OK	18439318-18440187	91.1936218678815	76.7482517482517	40034	orient(a-/s-) align: 18439318(439)-18439492(263)>CT....GC<18439930(262)-18440187(1)	
gmap	TRINITY_DN34148_c0_g2_i1	1364	188	CM007698.1	1	-	?	OK	25199629-25200261	80	97.2929936305732	48880	orient(a-/s?) align: 25199629(628)-25200261(18)	
gmap	TRINITY_DN194055_c1_g1_i2	1422	197	CM007698.1	1	+	?	OK	51322917-51323476	96	91.6949152542373	51936	orient(a+/s?) align: 51322917(1)-51323476(541)	
gmap	TRINITY_DN168241_c0_g1_i1	1498	208	CM007698.1	1	+	?	OK	19978118-19978631	92	99.4174757281553	47104	orient(a+/s?) align: 19978118(1)-19978631(512)	
gmap	TRINITY_DN224013_c11_g2_i5	337	49	CM007699.1	1	+	?	OK	85338140-85338500	80	80.4347826086957	32560	orient(a+/s?) align: 85338140(8)-85338500(414)	
gmap	TRINITY_DN214070_c0_g1_i1	562	67	CM007700.1	3	-	-	OK	44631295-44632542	93.423645320197	93.2618683001531	56895	orient(a-/s-) align: 44631295(609)-44631567(336)>CT....AC<44631661(335)-44631793(198)>CT....AC<44632346(197)-44632542(1)	
gmap	TRINITY_DN208969_c0_g1_i3	1076	146	CM007700.1	5	-	-	OK	188072111-188074367	94.6122754491018	99.7759522031367	126402	orient(a-/s-) align: 188072111(1339)-188072192(1258)>CT....AC<188072623(1257)-188072714(1166)>CT....AC<188072807(1165)-188073488(484)>CT....AC<188073800(483)-188073963(320)>CT....AC<188074052(319)-188074367(4)	
gmap	TRINITY_DN208969_c0_g1_i1	1075	147	CM007700.1	2	-	-	OK	188073854-188074367	95.5164319248826	85.2	40690	orient(a-/s-) align: 188073854(429)-188073963(320)>CT....AC<188074052(319)-188074367(4)	
gmap	TRINITY_DN206397_c0_g5_i3	1180	161	CM007700.1	1	+	?	OK	31697011-31698577	97	100	151514	orient(a+/s?) align: 31697011(1)-31698577(1562)	
gmap	TRINITY_DN197139_c0_g1_i2	1408	203	CM007700.1	1	-	?	OK	187465213-187466136	83	94.9304174950298	79265	orient(a-/s?) align: 187465213(1006)-187466136(52)	
gmap	TRINITY_DN202486_c1_g7_i1	219	11	CM007701.1	1	-	?	OK	172125050-172125580	81	100	43740	orient(a-/s?) align: 172125050(540)-172125580(1)	
gmap	TRINITY_DN214097_c0_g3_i1	560	72	CM007701.1	2	+	-	OK	128990282-128991704	81.1788321167883	70.7096774193548	44486	orient(a+/s-) align: 128990282(216)-128990372(305)>CT....GC<128991228(306)-128991704(763)	
gmap	TRINITY_DN225812_c2_g1_i1	1107	150	CM007701.1	1	+	?	OK	184641575-184642165	83	89.0625	47310	orient(a+/s?) align: 184641575(25)-184642165(594)	
gmap	TRINITY_DN33373_c0_g2_i1	1383	190	CM007701.1	1	+	?	OK	147158345-147158778	80	91.8560606060606	38800	orient(a+/s?) align: 147158345(18)-147158778(502)	
gmap	TRINITY_DN227052_c6_g2_i1	384	43	CM007702.1	1	+	?	OK	131222914-131223452	91	90.5263157894737	46956	orient(a+/s?) align: 131222914(9)-131223452(524)	
gmap	TRINITY_DN23773_c0_g2_i1	1367	189	CM007702.1	1	-	?	OK	4669229-4669709	88	100	44616	orient(a-/s?) align: 4669229(507)-4669709(1)	
gmap	TRINITY_DN195943_c0_g1_i1	1412	196	CM007702.1	2	-	-	OK	64402648-64405763	91.1079460269865	93.4173669467787	60769	orient(a-/s-) align: 64402648(699)-64403310(41)>CT....AC<64405756(40)-64405763(33)	
gmap	TRINITY_DN178023_c0_g1_i1	1597	224	CM007702.1	1	-	?	OK	131751415-131751968	89	96.0502692998205	47615	orient(a-/s?) align: 131751415(557)-131751968(23)	
gmap	TRINITY_DN217511_c2_g3_i3	78	6	CM007704.1	6	-	-	OK	13807059-13811307	96.313468013468	92.6388022457891	286051	orient(a-/s-) align: 13807059(3205)-13807473(2806)>CT....AC<13807559(2805)-13807710(2654)>CT....AC<13808404(2653)-13808512(2545)>CT....AC<13808628(2544)-13808732(2440)>CT....AC<13809016(2439)-13809099(2356)>CT....AC<13809188(2355)-13811307(236)	
gmap	TRINITY_DN231742_c4_g10_i3	161	29	CM007704.1	2	-	+	OK	11038942-11039532	85.4705882352941	79.5631825273011	43590	orient(a-/s+) align: 11038942(577)-11038970(548)>GT....AG<11039056(547)-11039532(68)	
gmap	TRINITY_DN211725_c1_g1_i1	447	47	CM007704.1	1	+	?	OK	353052-353838	98	98.2389937106918	76538	orient(a+/s?) align: 353052(1)-353838(781)	
gmap	TRINITY_DN218551_c1_g6_i1	821	103	CM007704.1	2	+	-	OK	191646527-191647557	91.1982942430704	100	85544	orient(a+/s-) align: 191646527(1)-191646893(376)>CT....AC<191646997(377)-191647557(938)	
gmap	TRINITY_DN206397_c0_g5_i3	1180	159	CM007704.1	1	+	?	OK	177291500-177293072	97	100	151514	orient(a+/s?) align: 177291500(1)-177293072(1562)	
gmap	TRINITY_DN221659_c3_g7_i1	1343	189	CM007704.1	1	-	?	OK	233093742-233094192	84	90.188679245283	40152	orient(a-/s?) align: 233093742(478)-233094192(1)	
gmap	TRINITY_DN173198_c0_g1_i2	1661	236	CM007704.1	2	-	-	OK	18748686-18749615	85.646288209607	93.469387755102	78452	orient(a-/s-) align: 18748686(916)-18748800(809)>CT....AC<18748821(808)-18749615(1)	
gmap	TRINITY_DN173198_c0_g1_i1	1660	238	CM007704.1	2	-	-	OK	18748686-18749563	85.6210526315789	86.27648839556	73206	orient(a-/s-) align: 18748686(927)-18748800(820)>CT....AC<18748821(819)-18749563(73)	
gmap	TRINITY_DN226500_c1_g3_i9	364	38	CM007705.1	2	-	-	OK	151145047-151146455	83.5844155844156	97.7777777777778	51488	orient(a-/s-) align: 151145047(616)-151145250(418)>CT....AC<151146079(417)-151146455(1)	
gmap	TRINITY_DN230502_c0_g4_i10	685	84	CM007705.1	1	-	?	OK	248682022-248683319	94	81.4745972738538	123610	orient(a-/s?) align: 248682022(1614)-248683319(300)	
gmap	TRINITY_DN173951_c0_g1_i1	1575	217	CM007705.1	1	+	?	OK	253760385-253760855	89	91.8918918918919	45390	orient(a+/s?) align: 253760385(46)-253760855(555)	
gmap	TRINITY_DN221233_c2_g12_i1	1256	180	CM007706.1	1	-	?	OK	56774609-56775242	90	84.635761589404	57510	orient(a-/s?) align: 56774609(682)-56775242(44)	
gmap	TRINITY_DN230373_c3_g1_i14	159	13	CM007708.1	1	-	?	OK	214295241-214297251	99	81.7147501015847	199089	orient(a-/s?) align: 214295241(2461)-214297251(451)	
gmap	TRINITY_DN228482_c0_g2_i1	457	49	CM007708.1	1	-	?	OK	209305336-209305970	82	93.3518005540166	55268	orient(a-/s?) align: 209305336(722)-209305970(49)	
gmap	TRINITY_DN202904_c0_g2_i1	797	97	CM007708.1	2	-	-	OK	16932920-16933891	91.5166051660517	94.7552447552448	49602	orient(a-/s-) align: 16932920(542)-16933197(263)>CT....GC<16933635(262)-16933891(1)	
gmap	TRINITY_DN168241_c0_g1_i1	1498	207	CM007708.1	1	+	?	OK	18540003-18540516	92	99.4174757281553	47104	orient(a+/s?) align: 18540003(1)-18540516(512)	
gmap	TRINITY_DN230373_c3_g1_i15	160	4	CM007709.1	1	-	?	OK	159926238-159927503	99	97.5346687211094	125334	orient(a-/s?) align: 159926238(1298)-159927503(33)	
gmap	TRINITY_DN214070_c0_g1_i1	562	68	CM007710.1	3	-	-	OK	43579346-43580573	92.9704433497537	93.2618683001531	56619	orient(a-/s-) align: 43579346(609)-43579617(336)>CT....AC<43579711(335)-43579839(198)>CT....AC<43580377(197)-43580573(1)	
gmap	TRINITY_DN92763_c0_g1_i1	1393	194	CM007711.1	1	-	?	OK	78778779-78779301	92	98.6842105263158	48300	orient(a-/s?) align: 78778779(525)-78779301(1)	
gmap	TRINITY_DN227052_c6_g2_i1	384	35	CM007712.1	1	+	?	OK	127954961-127955499	91	90.5263157894737	46956	orient(a+/s?) align: 127954961(9)-127955499(524)	
gmap	TRINITY_DN23773_c0_g2_i1	1367	191	CM007712.1	2	-	-	OK	4431748-4432553	87.8934911242604	100	44562	orient(a-/s-) align: 4431748(507)-4431827(428)>CT....AC<4432152(427)-4432553(1)	
gmap	TRINITY_DN195943_c0_g1_i1	1412	196	CM007712.1	2	-	-	OK	60065666-60068781	91.1079460269865	93.4173669467787	60769	orient(a-/s-) align: 60065666(699)-60066328(41)>CT....AC<60068774(40)-60068781(33)	
gmap	TRINITY_DN178023_c0_g1_i1	1597	221	CM007712.1	1	-	?	OK	128474265-128474818	89	96.0502692998205	47615	orient(a-/s?) align: 128474265(557)-128474818(23)	
gmap	TRINITY_DN214963_c3_g2_i1	125	1	1	1	-	?	OK	951777-952286	91	97.1929824561404	50414	orient(a-/s?) align: 951777(556)-952286(3)	
gmap	TRINITY_DN217511_c2_g3_i3	78	2	1	6	-	-	OK	12855029-12859365	96.2675202156334	92.5764192139738	285722	orient(a-/s-) align: 12855029(3206)-12855441(2806)>CT....AC<12855535(2805)-12855686(2654)>CT....AC<12856466(2653)-12856574(2545)>CT....AC<12856678(2544)-12856782(2440)>CT....AC<12857075(2439)-12857158(2356)>CT....AC<12857246(2355)-12859365(239)	
gmap	TRINITY_DN231742_c4_g10_i3	161	42	1	2	-	-	OK	10305570-10306156	84.9686274509804	79.5631825273011	43334	orient(a-/s-) align: 10305570(577)-10305607(540)>CT....GC<10305692(539)-10306156(68)	
gmap	TRINITY_DN229689_c2_g5_i4	463	45	1	2	+	+	OK	213911531-213918154	95.6898395721925	74.2063492063492	71576	orient(a+/s+) align: 213911531(43)-213912017(532)>GT....AG<213917893(533)-213918154(790)	
gmap	TRINITY_DN253098_c0_g1_i1	623	81	1	1	+	?	OK	84381251-84381851	94	100	59220	orient(a+/s?) align: 84381251(1)-84381851(630)	
gmap	TRINITY_DN218551_c1_g6_i1	821	109	1	2	+	-	OK	183043808-183045454	90.1471215351812	100	84558	orient(a+/s-) align: 183043808(1)-183044209(400)>CT....AC<183044917(401)-183045454(938)	
gmap	TRINITY_DN104017_c0_g1_i1	1544	213	1	1	-	?	OK	963265-964067	92	100	75900	orient(a-/s?) align: 963265(825)-964067(1)	
gmap	TRINITY_DN162077_c0_g1_i1	1684	227	2	1	-	?	OK	162599685-162600318	92	99.4126284875183	62284	orient(a-/s?) align: 162599685(681)-162600318(5)	
gmap	TRINITY_DN222180_c2_g6_i6	1204	165	3	3	+	-	OK	34128886-34131242	84.9857299670692	99.3456924754635	77422	orient(a+/s-) align: 34128886(1)-34129107(218)>CT....AC<34129397(219)-34129912(719)>CT....GC<34131053(720)-34131242(911)	
gmap	TRINITY_DN221233_c2_g12_i1	1256	177	3	1	+	?	OK	39147670-39148361	86	96.5562913907285	62694	orient(a+/s?) align: 39147670(20)-39148361(748)	
gmap	TRINITY_DN227327_c4_g2_i2	249	16	4	1	+	?	OK	200876504-200876966	87	87.012987012987	40803	orient(a+/s?) align: 200876504(71)-200876966(539)	
gmap	TRINITY_DN225537_c5_g1_i1	525	61	4	1	+	?	OK	4008926-4009443	90	98.8549618320611	46620	orient(a+/s?) align: 4008926(7)-4009443(524)	
gmap	TRINITY_DN225537_c5_g1_i2	526	63	4	1	+	?	OK	4008900-4009443	90	100	48960	orient(a+/s?) align: 4008900(1)-4009443(544)	
gmap	TRINITY_DN232212_c3_g3_i7	825	104	4	1	+	?	OK	4009558-4010252	85	95.7983193277311	58140	orient(a+/s?) align: 4009558(31)-4010252(714)	
gmap	TRINITY_DN232212_c3_g7_i2	829	105	4	1	+	?	OK	4010095-4010730	83	99.6835443037975	52290	orient(a+/s?) align: 4010095(3)-4010730(632)	
gmap	TRINITY_DN232212_c2_g9_i3	823	106	4	2	+	+	OK	4004556-4007211	90.2921348314607	96.7391304347826	48216	orient(a+/s+) align: 4004556(2)-4004581(27)>GT....AG<4006701(28)-4007211(535)	
gmap	TRINITY_DN232212_c3_g3_i11	828	108	4	2	+	-	OK	4008776-4010996	84.4108729743858	98.8119834710744	161478	orient(a+/s-) align: 4008776(21)-4009037(282)>CT....AC<4009322(283)-4010996(1933)	
gmap	TRINITY_DN232004_c1_g2_i1	1235	170	4	2	+	-	OK	151510392-151510960	83.9318996415771	93.1552587646077	46834	orient(a+/s-) align: 151510392(1)-151510690(299)>CT....AC<151510744(300)-151510960(558)	
gmap	TRINITY_DN230373_c3_g1_i15	160	5	5	1	+	?	OK	15111210-15112220	99	77.8890600924499	100089	orient(a+/s?) align: 15111210(288)-15112220(1298)	
gmap	TRINITY_DN228482_c0_g2_i1	457	52	5	1	-	?	OK	194156266-194156895	81	92.6592797783934	54189	orient(a-/s?) align: 194156266(722)-194156895(54)	
gmap	TRINITY_DN168241_c0_g1_i1	1498	204	5	1	+	?	OK	15998070-15998601	89	99.4174757281553	45568	orient(a+/s?) align: 15998070(1)-15998601(512)	
gmap	TRINITY_DN224013_c11_g2_i5	337	39	6	1	+	?	OK	82209135-82209495	80	80.4347826086957	32560	orient(a+/s?) align: 82209135(8)-82209495(414)	
gmap	TRINITY_DN203249_c0_g2_i2	889	125	6	2	+	+	OK	141809982-141810525	87.7027027027027	80.14440433213	38940	orient(a+/s+) align: 141809982(105)-141810113(216)>AT....AC<141810188(217)-141810525(548)	
gmap	TRINITY_DN214070_c0_g1_i1	562	70	7	3	-	-	OK	21768698-21769940	92.9704433497537	93.2618683001531	56619	orient(a-/s-) align: 21768698(609)-21768969(336)>CT....AC<21769063(335)-21769191(198)>CT....AC<21769744(197)-21769940(1)	
gmap	TRINITY_DN197139_c0_g1_i2	1408	206	7	1	-	?	OK	145046210-145047135	82	94.9304174950298	78310	orient(a-/s?) align: 145046210(1006)-145047135(52)	
gmap	TRINITY_DN228948_c0_g2_i1	603	78	8	1	+	?	OK	180033933-180034448	90	83.7359098228663	46800	orient(a+/s?) align: 180033933(1)-180034448(520)	
gmap	TRINITY_DN225812_c2_g1_i1	1107	164	8	1	+	?	OK	173721511-173722043	82	80.625	42312	orient(a+/s?) align: 173721511(25)-173722043(540)	
gmap	TRINITY_DN92763_c0_g1_i1	1393	188	8	1	-	?	OK	75886316-75886838	93	98.6842105263158	48825	orient(a-/s?) align: 75886316(525)-75886838(1)	
gmap	TRINITY_DN227052_c6_g2_i1	384	53	9	1	+	?	OK	88853530-88854036	93	90.5263157894737	47988	orient(a+/s?) align: 88853530(9)-88854036(524)	
gmap	TRINITY_DN195943_c0_g1_i1	1412	191	9	2	-	-	OK	29839295-29842410	91.1079460269865	93.4173669467787	60769	orient(a-/s-) align: 29839295(699)-29839957(41)>CT....AC<29842403(40)-29842410(33)	
gmap	TRINITY_DN178023_c0_g1_i1	1597	218	9	1	-	?	OK	89411620-89412173	89	96.0502692998205	47615	orient(a-/s?) align: 89411620(557)-89412173(23)	
gmap	TRINITY_DN229689_c2_g5_i4	463	42	chr01	2	+	+	OK	208962407-208969073	95.6898395721925	74.2063492063492	71576	orient(a+/s+) align: 208962407(43)-208962894(532)>GT....AG<208968812(533)-208969073(790)	
gmap	TRINITY_DN218551_c1_g6_i1	821	89	chr01	1	+	?	OK	176719671-176720600	92	100	86296	orient(a+/s?) align: 176719671(1)-176720600(938)	
gmap	TRINITY_DN201962_c0_g1_i2	1138	134	chr01	1	-	?	OK	3608573-3609155	85	97.9933110367893	49810	orient(a-/s?) align: 3608573(598)-3609155(13)	
gmap	TRINITY_DN104017_c0_g1_i1	1544	192	chr01	1	+	?	OK	218040-218842	92	100	75900	orient(a+/s?) align: 218040(1)-218842(825)	
gmap	TRINITY_DN227327_c4_g2_i2	249	15	chr04	1	+	?	OK	193977308-193977770	87	87.012987012987	40803	orient(a+/s?) align: 193977308(71)-193977770(539)	
gmap	TRINITY_DN232212_c3_g3_i7	825	90	chr04	1	+	?	OK	4162081-4162770	86	96.218487394958	59082	orient(a+/s?) align: 4162081(28)-4162770(714)	
gmap	TRINITY_DN232212_c2_g9_i3	823	91	chr04	2	+	+	OK	4157157-4159815	91.2434456928839	96.7391304347826	48724	orient(a+/s+) align: 4157157(2)-4157182(27)>GT....AG<4159305(28)-4159815(535)	
gmap	TRINITY_DN232212_c3_g7_i2	829	95	chr04	1	+	?	OK	4162613-4163251	82	99.6835443037975	51660	orient(a+/s?) align: 4162613(3)-4163251(632)	
gmap	TRINITY_DN232212_c3_g3_i11	828	96	chr04	2	+	-	OK	4161374-4163517	84.4108729743858	98.8119834710744	161478	orient(a+/s-) align: 4161374(21)-4161635(282)>CT....AC<4161848(283)-4163517(1933)	
gmap	TRINITY_DN232004_c1_g2_i1	1235	151	chr04	2	+	-	OK	145502561-145503129	83.9318996415771	93.1552587646077	46834	orient(a+/s-) align: 145502561(1)-145502859(299)>CT....AC<145502913(300)-145503129(558)	
gmap	TRINITY_DN225641_c1_g4_i7	1325	164	chr04	1	-	?	OK	127003226-127003600	83	70.6642066420664	31789	orient(a-/s?) align: 127003226(420)-127003600(38)	
gmap	TRINITY_DN168091_c0_g2_i2	1620	225	chr04	1	+	?	OK	186247710-186248346	84	98.5795454545455	58296	orient(a+/s?) align: 186247710(11)-186248346(704)	
gmap	TRINITY_DN230373_c3_g1_i15	160	4	chr05	1	-	?	OK	194648546-194649811	99	97.5346687211094	125334	orient(a-/s?) align: 194648546(1298)-194649811(33)	
gmap	TRINITY_DN230373_c3_g1_i14	159	16	chr05	1	-	?	OK	194648546-194650556	99	81.7147501015847	199089	orient(a-/s?) align: 194648546(2461)-194650556(451)	
gmap	TRINITY_DN228482_c0_g2_i1	457	41	chr05	1	-	?	OK	189300000-189300634	82	93.3518005540166	55268	orient(a-/s?) align: 189300000(722)-189300634(49)	
gmap	TRINITY_DN202904_c0_g2_i1	797	88	chr05	2	-	-	OK	15345958-15346827	91.1936218678815	76.7482517482517	40034	orient(a-/s-) align: 15345958(439)-15346132(263)>CT....GC<15346570(262)-15346827(1)	
gmap	TRINITY_DN168241_c0_g1_i1	1498	181	chr05	1	-	?	OK	17370226-17370742	92	99.4174757281553	47104	orient(a-/s?) align: 17370226(512)-17370742(1)	
gmap	TRINITY_DN203249_c0_g2_i2	889	107	chr06	2	+	+	OK	139623419-139623962	87.7027027027027	80.14440433213	38940	orient(a+/s+) align: 139623419(105)-139623550(216)>AT....AC<139623625(217)-139623962(548)	
gmap	TRINITY_DN214070_c0_g1_i1	562	60	chr07	3	-	-	OK	37597710-37598952	92.9704433497537	93.2618683001531	56619	orient(a-/s-) align: 37597710(609)-37597981(336)>CT....AC<37598075(335)-37598203(198)>CT....AC<37598756(197)-37598952(1)	
gmap	TRINITY_DN197139_c0_g1_i2	1408	176	chr07	1	+	?	OK	170062729-170063666	82	94.9304174950298	78310	orient(a+/s?) align: 170062729(52)-170063666(1006)	
gmap	TRINITY_DN184033_c0_g1_i1	1607	206	chr07	1	-	?	OK	168296087-168296578	94	100	47094	orient(a-/s?) align: 168296087(501)-168296578(1)	
gmap	TRINITY_DN228948_c0_g2_i1	603	68	chr08	2	+	-	OK	171124036-171124921	89.5230769230769	83.7359098228663	46552	orient(a+/s-) align: 171124036(1)-171124234(198)>CT....GC<171124601(199)-171124921(520)	
gmap	TRINITY_DN92763_c0_g1_i1	1393	167	chr08	1	-	?	OK	72786271-72786793	93	98.6842105263158	48825	orient(a-/s?) align: 72786271(525)-72786793(1)	
gmap	TRINITY_DN195943_c0_g1_i1	1412	169	chr09	2	-	-	OK	56150774-56153877	91.1079460269865	93.4173669467787	60769	orient(a-/s-) align: 56150774(699)-56151438(41)>CT....AC<56153870(40)-56153877(33)	
gmap	TRINITY_DN178023_c0_g1_i1	1597	203	chr09	1	-	?	OK	122135621-122136174	89	96.0502692998205	47615	orient(a-/s?) align: 122135621(557)-122136174(23)	
gmap	TRINITY_DN231742_c4_g10_i3	161	20	scaffold28519	1	+	?	OK	121092-121598	83	79.2511700468019	42164	orient(a+/s?) align: 121092(67)-121598(574)	
gmap	TRINITY_DN221233_c2_g12_i1	1256	156	scaffold50513	1	-	?	OK	49593-50333	91	99.0728476821192	68068	orient(a-/s?) align: 49593(748)-50333(1)	
gmap	TRINITY_DN214963_c3_g2_i1	125	4	CM004348.2	2	-	+	OK	398707-399406	93.3303249097473	97.1929824561404	51705	orient(a-/s+) align: 398707(556)-399023(208)>GT....AG<399200(207)-399406(3)	
gmap	TRINITY_DN211725_c1_g1_i1	447	43	CM004348.2	1	+	?	OK	368751-369494	92	98.2389937106918	71852	orient(a+/s?) align: 368751(1)-369494(781)	
gmap	TRINITY_DN229689_c2_g5_i4	463	49	CM004348.2	2	-	-	OK	209558472-209571322	95.3449197860963	74.2063492063492	71318	orient(a-/s-) align: 209558472(790)-209558731(533)>CT....AC<209570836(532)-209571322(43)	
gmap	TRINITY_DN231742_c4_g10_i3	161	54	CM004348.2	1	+	?	OK	309120134-309120643	84	79.7191887675507	42924	orient(a+/s?) align: 309120134(67)-309120643(577)	
gmap	TRINITY_DN218551_c1_g6_i1	821	88	CM004348.2	1	+	?	OK	177332910-177333839	92	100	86296	orient(a+/s?) align: 177332910(1)-177333839(938)	
gmap	TRINITY_DN201962_c0_g1_i2	1138	145	CM004348.2	1	+	?	OK	3735601-3736015	86	70.7357859531773	36378	orient(a+/s?) align: 3735601(13)-3736015(435)	
gmap	TRINITY_DN236878_c0_g1_i1	1225	152	CM004348.2	1	+	?	OK	101413525-101414100	91	100	51870	orient(a+/s?) align: 101413525(1)-101414100(570)	
gmap	TRINITY_DN221659_c3_g7_i1	1343	165	CM004348.2	1	-	?	OK	215904895-215905345	84	90.188679245283	40152	orient(a-/s?) align: 215904895(478)-215905345(1)	
gmap	TRINITY_DN74790_c0_g1_i1	1400	177	CM004348.2	1	-	?	OK	401219-401753	87	85.2897473997028	49938	orient(a-/s?) align: 401219(574)-401753(1)	
gmap	TRINITY_DN225537_c5_g1_i1	525	62	CM004351.2	1	+	?	OK	3625710-3626227	90	98.8549618320611	46620	orient(a+/s?) align: 3625710(7)-3626227(524)	
gmap	TRINITY_DN225537_c5_g1_i2	526	64	CM004351.2	1	+	?	OK	3625684-3626227	90	100	48960	orient(a+/s?) align: 3625684(1)-3626227(544)	
gmap	TRINITY_DN232212_c2_g9_i3	823	89	CM004351.2	2	+	+	OK	3621340-3623995	90.2921348314607	96.7391304347826	48216	orient(a+/s+) align: 3621340(2)-3621365(27)>GT....AG<3623485(28)-3623995(535)	
gmap	TRINITY_DN232212_c3_g3_i7	825	91	CM004351.2	1	+	?	OK	3626342-3627036	85	95.7983193277311	58140	orient(a+/s?) align: 3626342(31)-3627036(714)	
gmap	TRINITY_DN232212_c3_g7_i2	829	95	CM004351.2	1	+	?	OK	3626879-3627514	83	99.6835443037975	52290	orient(a+/s?) align: 3626879(3)-3627514(632)	
gmap	TRINITY_DN232212_c3_g3_i11	828	99	CM004351.2	2	+	-	OK	3625560-3627780	84.4108729743858	98.8119834710744	161478	orient(a+/s-) align: 3625560(21)-3625821(282)>CT....AC<3626106(283)-3627780(1933)	
gmap	TRINITY_DN232004_c1_g2_i1	1235	153	CM004351.2	2	+	-	OK	151899836-151900404	83.9318996415771	93.1552587646077	46834	orient(a+/s-) align: 151899836(1)-151900134(299)>CT....AC<151900188(300)-151900404(558)	
gmap	TRINITY_DN230373_c3_g1_i15	160	6	CM004352.2	1	-	?	OK	199806620-199807885	99	97.5346687211094	125334	orient(a-/s?) align: 199806620(1298)-199807885(33)	
gmap	TRINITY_DN230373_c3_g1_i14	159	7	CM004352.2	1	-	?	OK	199806620-199809058	99	99.1060544494108	241461	orient(a-/s?) align: 199806620(2461)-199809058(23)	
gmap	TRINITY_DN228482_c0_g2_i1	457	53	CM004352.2	1	-	?	OK	195499829-195500458	81	92.6592797783934	54189	orient(a-/s?) align: 195499829(722)-195500458(54)	
gmap	TRINITY_DN34148_c0_g2_i1	1364	170	CM004352.2	1	-	?	OK	22667649-22668284	80	97.2929936305732	48880	orient(a-/s?) align: 22667649(628)-22668284(18)	
gmap	TRINITY_DN168241_c0_g1_i1	1498	186	CM004352.2	1	+	?	OK	17448061-17448575	92	99.4174757281553	47104	orient(a+/s?) align: 17448061(1)-17448575(512)	
gmap	TRINITY_DN224013_c11_g2_i5	337	44	CM004353.2	1	+	?	OK	76348585-76348945	80	80.4347826086957	32560	orient(a+/s?) align: 76348585(8)-76348945(414)	
gmap	TRINITY_DN204123_c0_g1_i1	573	70	CM004353.2	2	-	-	OK	158047084-158048465	80.2999035679846	98.8560533841754	83271	orient(a-/s-) align: 158047084(1049)-158047576(573)>CT....AC<158047961(572)-158048465(13)	
gmap	TRINITY_DN203249_c0_g2_i2	889	110	CM004353.2	2	+	+	OK	142768129-142768672	87.7027027027027	80.14440433213	38940	orient(a+/s+) align: 142768129(105)-142768260(216)>AT....AC<142768335(217)-142768672(548)	
gmap	TRINITY_DN214070_c0_g1_i1	562	68	CM004354.2	3	-	-	OK	40328529-40329776	93.423645320197	93.2618683001531	56895	orient(a-/s-) align: 40328529(609)-40328801(336)>CT....AC<40328895(335)-40329027(198)>CT....AC<40329580(197)-40329776(1)	
gmap	TRINITY_DN197139_c0_g1_i2	1408	188	CM004354.2	1	-	?	OK	174748627-174749556	82	94.9304174950298	78310	orient(a-/s?) align: 174748627(1006)-174749556(52)	
gmap	TRINITY_DN202486_c1_g7_i1	219	11	CM004355.2	1	-	?	OK	161095347-161095877	81	100	43740	orient(a-/s?) align: 161095347(540)-161095877(1)	
gmap	TRINITY_DN253098_c0_g1_i1	623	74	CM004355.2	1	+	?	OK	32499963-32500563	94	100	59220	orient(a+/s?) align: 32499963(1)-32500563(630)	
gmap	TRINITY_DN92763_c0_g1_i1	1393	172	CM004355.2	1	-	?	OK	74313758-74314280	93	98.6842105263158	48825	orient(a-/s?) align: 74313758(525)-74314280(1)	
gmap	TRINITY_DN162077_c0_g1_i1	1684	210	CM004355.2	1	+	?	OK	32599030-32599663	92	99.4126284875183	62284	orient(a+/s?) align: 32599030(5)-32599663(681)	
gmap	TRINITY_DN227052_c6_g2_i1	384	30	CM004356.2	1	+	?	OK	119598565-119599071	93	90.5263157894737	47988	orient(a+/s?) align: 119598565(9)-119599071(524)	
gmap	TRINITY_DN23773_c0_g2_i1	1367	169	CM004356.2	1	-	?	OK	3469312-3469800	87	100	44109	orient(a-/s?) align: 3469312(507)-3469800(1)	
gmap	TRINITY_DN195943_c0_g1_i1	1412	176	CM004356.2	2	-	-	OK	55806102-55809217	91.1079460269865	93.4173669467787	60769	orient(a-/s-) align: 55806102(699)-55806764(41)>CT....AC<55809210(40)-55809217(33)	
gmap	TRINITY_DN178023_c0_g1_i1	1597	198	CM004356.2	1	-	?	OK	120001155-120001708	89	96.0502692998205	47615	orient(a-/s?) align: 120001155(557)-120001708(23)	
