#prog	acc	cluster_link_id	align_id	scaffold	num_segs	aligned_orient	spliced_orient	alignment_valid	coord_span	avg_per_ID	per_len_aligned	score	alignment	validation_comment
gmap	TRINITY_DN4283_c0_g1_i1	3	2	1	1	-	?	OK	951771-952280	91	98.7522281639929	50414	orient(a-/s?) align: 951771(554)-952280(1)	
gmap	TRINITY_DN18623_c0_g1_i1	15	3	1	1	-	?	ERROR	30067959-30068208	87	45.48802946593	21489	orient(a-/s?) align: 30067959(525)-30068208(279)	Only 45.48802946593 % is aligned, less than the 70 required.
gmap	TRINITY_DN101602_c1_g1_i1	110	12	1	1	-	?	ERROR	175143345-175143597	98	47.4671669793621	24794	orient(a-/s?) align: 175143345(253)-175143597(1)	Only 47.4671669793621 % is aligned, less than the 70 required.
gmap	TRINITY_DN162610_c0_g1_i1	354	35	1	1	-	?	ERROR	186787471-186787838	75	68.1102362204724	25950	orient(a-/s?) align: 186787471(508)-186787838(163)	Only 68.1102362204724 % is aligned, less than the 70 required.
gmap	TRINITY_DN166591_c0_g1_i2	383	39	1	1	+	?	OK	109189884-109190487	92	93.0124223602485	55108	orient(a+/s?) align: 109189884(46)-109190487(644)	
gmap	TRINITY_DN166630_c1_g1_i1	384	40	1	1	+	?	ERROR	130727566-130727829	83	49.3307839388145	21414	orient(a+/s?) align: 130727566(10)-130727829(267)	Only 49.3307839388145 % is aligned, less than the 70 required.
gmap	TRINITY_DN171502_c0_g1_i2	422	43	1	3	+	?	ERROR	88899672-88900244	87.9644268774704	98.443579766537	0	orient(a+/s?) align: 88899672(1)-88900123(458)>CT....ct<88900126(461)-88900132(467)>tt....gt<88900171(474)-88900244(514)	Incontiguous alignmentSplice site validations failed
gmap	TRINITY_DN172149_c0_g3_i1	427	47	1	1	-	?	ERROR	132419028-132419318	76	68.958742632613	26676	orient(a-/s?) align: 132419028(509)-132419318(159)	Only 68.958742632613 % is aligned, less than the 70 required.
gmap	TRINITY_DN172726_c0_g3_i2	432	50	1	2	+	-	OK	302241513-302246244	90.1506849315068	90.7960199004975	98715	orient(a+/s-) align: 302241513(1)-302242156(675)>CT....AC<302245821(676)-302246244(1095)	
gmap	TRINITY_DN176564_c0_g3_i1	494	53	1	2	+	-	OK	103695472-103709981	97.3844221105528	77.431906614786	38759	orient(a+/s-) align: 103695472(1)-103695623(153)>CT....AC<103709742(154)-103709981(398)	
gmap	TRINITY_DN180002_c0_g2_i1	547	60	1	1	+	?	ERROR	224926988-224927423	78	77.3788150807899	33618	orient(a+/s?) align: 224926988(127)-224927423(557)	Only 78 % identity on average, less than the 80 required.
gmap	TRINITY_DN180002_c0_g1_i1	546	62	1	1	+	?	ERROR	224926988-224927423	78	78.2214156079855	33618	orient(a+/s?) align: 224926988(121)-224927423(551)	Only 78 % identity on average, less than the 80 required.
gmap	TRINITY_DN167087_c0_g2_i1	386	64	1	2	-	?	ERROR	189581216-189581492	83.1440677966102	12.3819517313746	0	orient(a-/s?) align: 189581216(453)-189581242(427)>cc....AG<189581284(397)-189581492(189)	Incontiguous alignmentSplice site validations failed
gmap	TRINITY_DN181823_c0_g3_i1	555	65	1	2	+	-	OK	210995158-210996889	82.5866050808314	82.4761904761905	35760	orient(a+/s-) align: 210995158(1)-210995530(365)>CT....AC<210996819(366)-210996889(433)	
gmap	TRINITY_DN184726_c1_g4_i2	598	70	1	1	+	?	ERROR	175640791-175641188	96	63.9871382636656	38208	orient(a+/s?) align: 175640791(225)-175641188(622)	Only 63.9871382636656 % is aligned, less than the 70 required.
gmap	TRINITY_DN187395_c0_g1_i3	642	71	1	1	+	?	ERROR	63666204-63666476	96	40.6432748538012	26688	orient(a+/s?) align: 63666204(405)-63666476(682)	Only 40.6432748538012 % is aligned, less than the 70 required.
gmap	TRINITY_DN187395_c0_g1_i4	643	73	1	1	+	?	ERROR	63666204-63666476	96	38.3448275862069	26688	orient(a+/s?) align: 63666204(446)-63666476(723)	Only 38.3448275862069 % is aligned, less than the 70 required.
gmap	TRINITY_DN180329_c0_g3_i1	548	78	1	1	-	?	ERROR	310559554-310559641	82	10.0113765642776	7216	orient(a-/s?) align: 310559554(837)-310559641(750)	Only 10.0113765642776 % is aligned, less than the 70 required.
gmap	TRINITY_DN183053_c1_g1_i1	573	82	1	2	-	?	ERROR	222854972-222855995	85.6857142857143	18.796992481203	0	orient(a-/s?) align: 222854972(513)-222855152(347)>CT....AG<222855988(336)-222855995(329)	Incontiguous alignmentSplice site validations failed
gmap	TRINITY_DN193108_c1_g1_i1	783	85	1	1	+	?	ERROR	27525671-27525715	95	7.9646017699115	4275	orient(a+/s?) align: 27525671(487)-27525715(531)	Only 7.9646017699115 % is aligned, less than the 70 required.
gmap	TRINITY_DN193934_c0_g1_i2	808	89	1	1	-	?	ERROR	157317728-157317822	92	17.3674588665448	8740	orient(a-/s?) align: 157317728(531)-157317822(437)	Only 17.3674588665448 % is aligned, less than the 70 required.
gmap	TRINITY_DN196990_c0_g1_i4	880	96	1	4	+	?	ERROR	232420004-232421204	84.6077922077922	77.6731674512441	0	orient(a+/s?) align: 232420004(170)-232420198(373)>ca....AT<232420205(380)-232420218(393)>GT....gg<232420259(408)-232420275(424)>ta....AG<232420279(428)-232421204(1347)	Incontiguous alignmentSplice site validations failed
gmap	TRINITY_DN196317_c4_g1_i1	865	99	1	1	+	?	ERROR	310673129-310673248	96	11.9641076769691	11520	orient(a+/s?) align: 310673129(2)-310673248(121)	Only 11.9641076769691 % is aligned, less than the 70 required.
gmap	TRINITY_DN196990_c0_g1_i1	879	100	1	4	+	?	ERROR	232420004-232421204	83.8087719298246	77.445652173913	0	orient(a+/s?) align: 232420004(170)-232420198(373)>ca....AT<232420205(380)-232420218(393)>GT....gg<232420259(408)-232420275(424)>ta....AG<232420279(428)-232421204(1332)	Incontiguous alignmentSplice site validations failed
gmap	TRINITY_DN198011_c0_g3_i4	922	102	1	3	-	-	ERROR	79538168-79542860	92.0972222222222	69.6774193548387	39786	orient(a-/s-) align: 79538168(612)-79538304(481)>CT....AC<79538433(480)-79538604(307)>CT....AC<79542736(306)-79542860(181)	Only 69.6774193548387 % is aligned, less than the 70 required.
gmap	TRINITY_DN201712_c2_g2_i2	1044	123	1	2	+	?	ERROR	302051254-302053794	79.2316076294278	66.3652802893309	0	orient(a+/s?) align: 302051254(165)-302051367(277)>ta....gg<302053562(298)-302053794(551)	Incontiguous alignmentSplice site validations failed
gmap	TRINITY_DN202013_c0_g2_i2	1055	124	1	4	+	?	ERROR	263043223-263062374	87.0869565217391	47.3616473616474	0	orient(a+/s?) align: 263043223(1)-263043299(83)>ta....ga<263052865(84)-263053133(349)>tt....ca<263054482(350)-263054491(359)>tg....tt<263062366(360)-263062374(368)	Splice site validations failed
gmap	TRINITY_DN201820_c0_g2_i1	1048	127	1	1	+	?	ERROR	251726187-251726276	94	12.6050420168067	8460	orient(a+/s?) align: 251726187(625)-251726276(714)	Only 12.6050420168067 % is aligned, less than the 70 required.
gmap	TRINITY_DN200866_c0_g1_i1	1006	135	1	1	-	?	ERROR	102477911-102477983	95	8.79518072289157	6935	orient(a-/s?) align: 102477911(73)-102477983(1)	Only 8.79518072289157 % is aligned, less than the 70 required.
gmap	TRINITY_DN203758_c1_g1_i6	1138	144	1	1	-	?	ERROR	196261194-196261381	78	31.9526627218935	16848	orient(a-/s?) align: 196261194(605)-196261381(390)	Only 31.9526627218935 % is aligned, less than the 70 required.
gmap	TRINITY_DN203500_c2_g3_i1	1109	146	1	2	-	?	ERROR	79163963-79164142	72.2323943661972	22.9032258064516	0	orient(a-/s?) align: 79163963(417)-79164045(311)>tg....ga<79164100(286)-79164142(252)	Incontiguous alignmentSplice site validations failed
gmap	TRINITY_DN202013_c0_g2_i1	1054	150	1	2	+	+	ERROR	263053151-263053695	88.3977272727273	25.7611241217799	38895	orient(a+/s+) align: 263053151(504)-263053351(708)>GT....AG<263053469(709)-263053695(943)	Only 25.7611241217799 % is aligned, less than the 70 required.
gmap	TRINITY_DN204655_c0_g1_i9	1209	152	1	1	+	?	OK	10757876-10758624	88	81.5931108719053	66704	orient(a+/s?) align: 10757876(1)-10758624(758)	
gmap	TRINITY_DN204655_c0_g1_i9	1209	153	1	1	+	?	ERROR	10757868-10758033	83	18.4068891280947	14193	orient(a+/s?) align: 10757868(759)-10758033(929)	Only 18.4068891280947 % is aligned, less than the 70 required.
gmap	TRINITY_DN202013_c0_g2_i3	1056	154	1	2	+	+	ERROR	263053151-263053695	88.3977272727273	26.3947210557888	38895	orient(a+/s+) align: 263053151(504)-263053351(708)>GT....AG<263053469(709)-263053695(943)	Only 26.3947210557888 % is aligned, less than the 70 required.
gmap	TRINITY_DN200866_c0_g1_i12	1007	160	1	1	-	?	ERROR	102477911-102477983	95	4.72491909385113	6935	orient(a-/s?) align: 102477911(73)-102477983(1)	Only 4.72491909385113 % is aligned, less than the 70 required.
gmap	TRINITY_DN200866_c0_g1_i13	1008	161	1	1	-	?	ERROR	102477911-102477983	95	4.68850353243417	6935	orient(a-/s?) align: 102477911(73)-102477983(1)	Only 4.68850353243417 % is aligned, less than the 70 required.
gmap	TRINITY_DN204349_c6_g5_i1	1186	163	1	2	-	-	ERROR	163801407-163801886	76.4025974025974	85.7142857142857	35298	orient(a-/s-) align: 163801407(462)-163801804(73)>CT....AC<163801816(72)-163801886(1)	Intron length is less than the minimum intron length allowed (11 < 20, determined between 163801804 and 163801816

gmap	TRINITY_DN206704_c0_g2_i3	1336	169	1	2	+	?	ERROR	32098659-32099302	82	60.8288770053476	0	orient(a+/s?) align: 32098659(267)-32098890(474)>tc....tt<32099037(475)-32099302(721)	Splice site validations failed
gmap	TRINITY_DN206552_c3_g2_i1	1333	173	1	1	+	?	ERROR	264155856-264156042	86	32.8097731239092	16168	orient(a+/s?) align: 264155856(386)-264156042(573)	Only 32.8097731239092 % is aligned, less than the 70 required.
gmap	TRINITY_DN207903_c5_g1_i2	1408	180	1	6	-	?	ERROR	173007709-173013765	80.7466487935657	95.5185659411012	0	orient(a-/s?) align: 173007709(771)-173007903(535)>ga....ca<173008127(517)-173008134(510)>ag....ct<173008141(503)-173008229(419)>CT....AC<173008303(418)-173008400(318)>CT....AC<173013278(317)-173013394(195)>AT....ct<173013578(194)-173013765(3)	Incontiguous alignmentSplice site validations failed
gmap	TRINITY_DN208548_c2_g1_i1	1457	184	1	3	+	?	ERROR	44794526-44795577	87.7124681933842	100	0	orient(a+/s?) align: 44794526(1)-44794743(226)>GT....AG<44794758(227)-44795021(487)>ta....tt<44795272(488)-44795577(786)	Splice site validations failed
gmap	TRINITY_DN208114_c3_g11_i1	1435	185	1	1	+	?	ERROR	186212646-186213027	79	60.9022556390977	31995	orient(a+/s?) align: 186212646(8)-186213027(412)	Only 60.9022556390977 % is aligned, less than the 70 required.
gmap	TRINITY_DN208064_c3_g4_i1	1432	189	1	1	-	?	ERROR	49327746-49327809	95	3.99002493765586	6080	orient(a-/s?) align: 49327746(64)-49327809(1)	Only 3.99002493765586 % is aligned, less than the 70 required.
gmap	TRINITY_DN208506_c0_g3_i1	1449	192	1	1	-	?	ERROR	253294912-253294976	92	12.3574144486692	5980	orient(a-/s?) align: 253294912(458)-253294976(394)	Only 12.3574144486692 % is aligned, less than the 70 required.
gmap	TRINITY_DN209430_c4_g8_i9	1529	201	1	2	-	-	ERROR	236422052-236422285	94	28.3553875236295	14100	orient(a-/s-) align: 236422052(152)-236422150(54)>CT....GC<236422235(53)-236422285(3)	Only 28.3553875236295 % is aligned, less than the 70 required.
gmap	TRINITY_DN209430_c4_g8_i9	1529	202	1	1	+	?	ERROR	296777809-296778010	84	37.9962192816635	16884	orient(a+/s?) align: 296777809(153)-296778010(353)	Only 37.9962192816635 % is aligned, less than the 70 required.
gmap	TRINITY_DN210080_c0_g3_i3	1591	231	1	1	+	?	ERROR	79493388-79493466	89	8.99653979238754	6942	orient(a+/s?) align: 79493388(745)-79493466(822)	Only 8.99653979238754 % is aligned, less than the 70 required.
gmap	TRINITY_DN208580_c2_g18_i3	1462	235	1	1	+	?	ERROR	114592384-114592606	92	41.1552346570397	20976	orient(a+/s?) align: 114592384(225)-114592606(452)	Only 41.1552346570397 % is aligned, less than the 70 required.
gmap	TRINITY_DN211253_c9_g9_i2	1676	239	1	1	-	?	ERROR	39388238-39388302	95	5.97976080956762	6175	orient(a-/s?) align: 39388238(1087)-39388302(1023)	Only 5.97976080956762 % is aligned, less than the 70 required.
gmap	TRINITY_DN211886_c6_g6_i1	1742	243	1	3	+	-	OK	291365774-291367085	85.5330979699912	99.3859649122807	96909	orient(a+/s-) align: 291365774(7)-291366423(719)>CT....AC<291366554(720)-291366775(938)>CT....AC<291366886(939)-291367085(1139)	
gmap	TRINITY_DN211886_c6_g6_i3	1743	244	1	2	+	-	OK	291365774-291366728	85.6053811659193	99.2213570634038	76360	orient(a+/s-) align: 291365774(7)-291366423(719)>CT....AC<291366554(720)-291366728(898)	
gmap	TRINITY_DN212038_c4_g1_i2	1755	261	1	1	+	?	ERROR	13768245-13768502	87	26.7876200640342	21837	orient(a+/s?) align: 13768245(635)-13768502(885)	Only 26.7876200640342 % is aligned, less than the 70 required.
gmap	TRINITY_DN206123_c4_g1_i4	1293	263	1	1	+	?	ERROR	124946757-124946834	91	2.07281424395429	7098	orient(a+/s?) align: 124946757(662)-124946834(739)	Only 2.07281424395429 % is aligned, less than the 70 required.
gmap	TRINITY_DN212157_c1_g1_i1	1777	264	1	4	-	?	ERROR	115823428-115823813	79.3757763975155	43.9890710382514	0	orient(a-/s?) align: 115823428(381)-115823605(215)>ag....GC<115823614(206)-115823621(199)>gg....ga<115823639(181)-115823645(175)>tt....ta<115823678(160)-115823813(21)	Incontiguous alignmentSplice site validations failed
gmap	TRINITY_DN212461_c1_g5_i2	1826	267	1	1	+	?	ERROR	290119855-290120047	86	31.4475873544093	16254	orient(a+/s?) align: 290119855(1)-290120047(189)	Only 31.4475873544093 % is aligned, less than the 70 required.
gmap	TRINITY_DN212461_c1_g5_i2	1826	268	1	1	+	?	ERROR	290119675-290120089	91	68.0532445923461	37219	orient(a+/s?) align: 290119675(190)-290120089(598)	Only 68.0532445923461 % is aligned, less than the 70 required.
gmap	TRINITY_DN208335_c4_g9_i1	1443	271	1	7	-	?	ERROR	8759103-8764151	67.8168168168168	19.5537287140341	0	orient(a-/s?) align: 8759103(520)-8759110(513)>ca....aa<8761114(508)-8761114(508)>aa....aa<8763810(502)-8764020(244)>ag....gg<8764024(240)-8764031(233)>cg....ga<8764035(229)-8764040(224)>tt....ct<8764074(218)-8764080(212)>gg....GC<8764108(196)-8764151(153)	Incontiguous alignmentSplice site validations failed
gmap	TRINITY_DN213913_c0_g6_i1	1952	282	1	2	-	-	ERROR	17000550-17001711	88.1632653061225	61.0591900311526	34560	orient(a-/s-) align: 17000550(642)-17000581(611)>CT....GC<17001355(610)-17001711(251)	Only 61.0591900311526 % is aligned, less than the 70 required.
gmap	TRINITY_DN213807_c0_g6_i2	1936	285	1	2	-	+	OK	286881570-286882463	87.7464788732394	75.4427390791027	56070	orient(a-/s+) align: 286881570(845)-286882131(288)>AT....AC<286882383(287)-286882463(207)	
gmap	TRINITY_DN213807_c0_g6_i1	1935	289	1	3	-	?	ERROR	286881521-286882463	90.2191358024691	74.9132947976879	0	orient(a-/s?) align: 286881521(865)-286881720(666)>aa....AG<286881761(654)-286882131(288)>AT....AC<286882383(287)-286882463(207)	Incontiguous alignmentSplice site validations failed
gmap	TRINITY_DN214034_c5_g1_i2	1957	290	1	1	-	?	ERROR	92094504-92094626	90	21.880650994575	10890	orient(a-/s?) align: 92094504(121)-92094626(1)	Only 21.880650994575 % is aligned, less than the 70 required.
gmap	TRINITY_DN213647_c6_g3_i1	1930	299	1	1	+	?	ERROR	70007418-70007474	48	15.2307692307692	4752	orient(a+/s?) align: 70007418(263)-70007474(361)	Only 15.2307692307692 % is aligned, less than the 70 required.
gmap	TRINITY_DN214846_c3_g6_i3	2032	317	1	4	+	?	ERROR	294311340-294313983	76.9242424242424	24.4670991658943	0	orient(a+/s?) align: 294311340(58)-294311408(125)>ac....AC<294312499(126)-294312528(155)>ga....AG<294312552(169)-294312569(184)>GT....AG<294313841(185)-294313983(334)	Incontiguous alignmentSplice site validations failed
gmap	TRINITY_DN217165_c1_g6_i2	2210	329	1	1	+	?	OK	264238603-264239130	86	96.25	46354	orient(a+/s?) align: 264238603(17)-264239130(555)	
gmap	TRINITY_DN217078_c2_g4_i8	2203	331	1	4	-	-	ERROR	310561939-310563223	95.1428571428571	48.4615384615385	23976	orient(a-/s-) align: 310561939(520)-310562051(405)>CT....AC<310562145(404)-310562173(376)>CT....AC<310562618(375)-310562707(286)>CT....AC<310563207(285)-310563223(269)	Only 48.4615384615385 % is aligned, less than the 70 required.
gmap	TRINITY_DN211021_c7_g8_i1	1658	357	1	1	+	?	ERROR	211357526-211357551	56	2.83636363636364	2184	orient(a+/s?) align: 211357526(149)-211357551(187)	Only 2.83636363636364 % is aligned, less than the 70 required.
gmap	TRINITY_DN210787_c1_g4_i7	1640	363	1	1	-	?	ERROR	180589413-180590153	79	24.7679045092838	59013	orient(a-/s?) align: 180589413(1021)-180590153(275)	Only 24.7679045092838 % is aligned, less than the 70 required.
#prog	acc	cluster_link_id	align_id	scaffold	num_segs	aligned_orient	spliced_orient	alignment_valid	coord_span	avg_per_ID	per_len_aligned	score	alignment	validation_comment
gmap	TRINITY_DN83714_c0_g1_i1	61	7	10	1	+	?	ERROR	15285067-15285198	95	25.4335260115607	12540	orient(a+/s?) align: 15285067(159)-15285198(290)	Only 25.4335260115607 % is aligned, less than the 70 required.
gmap	TRINITY_DN812_c0_g1_i1	1	13	10	1	-	?	ERROR	66033164-66033367	81	28.2670454545455	16119	orient(a-/s?) align: 66033164(408)-66033367(210)	Only 28.2670454545455 % is aligned, less than the 70 required.
gmap	TRINITY_DN84518_c0_g1_i1	65	17	10	1	+	?	ERROR	131324590-131324653	87	9.31586608442504	5568	orient(a+/s?) align: 131324590(1)-131324653(64)	Only 9.31586608442504 % is aligned, less than the 70 required.
gmap	TRINITY_DN126426_c0_g2_i3	153	30	10	2	+	+	ERROR	100076597-100094865	81.5560975609756	26.3157894736842	16719	orient(a+/s+) align: 100076597(72)-100076602(77)>GT....AG<100094666(78)-100094865(276)	Only 26.3157894736842 % is aligned, less than the 70 required.
gmap	TRINITY_DN190016_c2_g1_i1	702	92	10	2	-	?	ERROR	14837200-14837365	87.983606557377	2.5237898220935	0	orient(a-/s?) align: 14837200(1434)-14837225(1409)>ga....AC<14837331(1386)-14837365(1352)	Incontiguous alignmentSplice site validations failed
gmap	TRINITY_DN196255_c0_g1_i1	864	98	10	2	-	?	ERROR	93774318-93786435	95.6129032258064	11.6834170854271	0	orient(a-/s?) align: 93774318(796)-93774376(738)>cc....AT<93786402(737)-93786435(704)	Splice site validations failed
gmap	TRINITY_DN200749_c0_g1_i5	996	109	10	1	-	?	ERROR	114739999-114740145	80	15.6652360515021	11680	orient(a-/s?) align: 114739999(928)-114740145(783)	Only 15.6652360515021 % is aligned, less than the 70 required.
gmap	TRINITY_DN200749_c0_g1_i4	995	114	10	1	-	?	ERROR	114739999-114740145	80	14.3700787401575	11680	orient(a-/s?) align: 114739999(1012)-114740145(867)	Only 14.3700787401575 % is aligned, less than the 70 required.
gmap	TRINITY_DN190016_c2_g1_i3	703	118	10	2	-	?	ERROR	14837200-14837365	87.983606557377	2.13212163579168	0	orient(a-/s?) align: 14837200(1878)-14837225(1853)>ga....AC<14837331(1830)-14837365(1796)	Incontiguous alignmentSplice site validations failed
gmap	TRINITY_DN206351_c2_g5_i4	1315	175	10	1	-	?	ERROR	388549-388965	99	10.7032854209446	41283	orient(a-/s?) align: 388549(3761)-388965(3345)	Only 10.7032854209446 % is aligned, less than the 70 required.
gmap	TRINITY_DN207719_c0_g1_i1	1401	179	10	1	-	?	ERROR	104980151-104980472	91	56.4912280701754	29302	orient(a-/s?) align: 104980151(570)-104980472(249)	Only 56.4912280701754 % is aligned, less than the 70 required.
gmap	TRINITY_DN208574_c0_g7_i1	1461	194	10	1	+	?	ERROR	139816458-139816686	94	30.8510638297872	21808	orient(a+/s?) align: 139816458(457)-139816686(688)	Only 30.8510638297872 % is aligned, less than the 70 required.
gmap	TRINITY_DN211378_c1_g1_i12	1688	238	10	1	-	?	OK	81867123-81867544	96	84.4311377245509	40608	orient(a-/s?) align: 81867123(501)-81867544(79)	
gmap	TRINITY_DN210127_c6_g1_i2	1597	248	10	7	-	?	ERROR	91742584-91768700	93.7868252516011	51.6296646197449	0	orient(a-/s?) align: 91742584(1776)-91742591(1769)>CT....ta<91750457(1766)-91750478(1750)>cc....tt<91758931(1726)-91758944(1700)>AT....AT<91762667(1696)-91762680(1683)>AT....cc<91762687(1676)-91762788(1571)>CT....AC<91766676(1570)-91766772(1476)>CT....AC<91767884(1475)-91768700(650)	Incontiguous alignmentSplice site validations failed
gmap	TRINITY_DN210127_c6_g1_i1	1596	253	10	7	-	?	ERROR	91742584-91768700	93.7868252516011	51.5080113100848	0	orient(a-/s?) align: 91742584(1781)-91742591(1774)>CT....ta<91750457(1771)-91750478(1755)>cc....tt<91758931(1731)-91758944(1705)>AT....AT<91762667(1701)-91762680(1688)>AT....cc<91762687(1681)-91762788(1576)>CT....AC<91766676(1575)-91766772(1481)>CT....AC<91767884(1480)-91768700(655)	Incontiguous alignmentSplice site validations failed
gmap	TRINITY_DN210780_c0_g1_i2	1637	260	10	1	+	?	ERROR	98910989-98911037	89	2.05020920502092	4361	orient(a+/s?) align: 98910989(833)-98911037(881)	Only 2.05020920502092 % is aligned, less than the 70 required.
gmap	TRINITY_DN213428_c6_g3_i7	1919	292	10	1	-	?	ERROR	136248753-136248955	81	38.4210526315789	17739	orient(a-/s?) align: 136248753(264)-136248955(46)	Only 38.4210526315789 % is aligned, less than the 70 required.
gmap	TRINITY_DN210780_c0_g1_i3	1638	305	10	1	+	?	ERROR	98905522-98905580	89	1.79932906373894	5251	orient(a+/s?) align: 98905522(587)-98905580(645)	Only 1.79932906373894 % is aligned, less than the 70 required.
gmap	TRINITY_DN215060_c1_g3_i1	2052	314	10	1	+	?	ERROR	56340575-56340997	73	36.5950676213206	33580	orient(a+/s?) align: 56340575(2)-56340997(461)	Only 36.5950676213206 % is aligned, less than the 70 required.
gmap	TRINITY_DN215706_c3_g2_i1	2113	332	10	3	-	?	ERROR	19482881-19484193	88.1308411214953	30.7471264367816	0	orient(a-/s?) align: 19482881(576)-19482957(497)>CT....AC<19483187(496)-19483230(453)>ca....cg<19484102(452)-19484193(363)	Splice site validations failed
gmap	TRINITY_DN210780_c0_g1_i1	1636	334	10	1	+	?	ERROR	98905522-98905580	89	1.7465956187093	5251	orient(a+/s?) align: 98905522(587)-98905580(645)	Only 1.7465956187093 % is aligned, less than the 70 required.
gmap	TRINITY_DN217604_c7_g14_i3	2252	344	10	1	+	?	OK	2811177-2811674	88	99.6039603960396	44264	orient(a+/s?) align: 2811177(1)-2811674(503)	
gmap	TRINITY_DN217197_c10_g1_i1	2213	346	10	1	+	?	OK	386450-388421	95	73.3333333333333	183920	orient(a+/s?) align: 386450(446)-388421(2381)	
gmap	TRINITY_DN215148_c0_g1_i3	2060	350	10	1	-	?	ERROR	106825515-106825547	96	2.66558966074313	3168	orient(a-/s?) align: 106825515(501)-106825547(469)	Only 2.66558966074313 % is aligned, less than the 70 required.
gmap	TRINITY_DN217134_c2_g1_i2	2207	356	10	2	-	-	ERROR	14841604-14841866	80.2588235294118	6.67189952904239	13644	orient(a-/s-) align: 14841604(895)-14841711(789)>CT....AC<14841804(788)-14841866(726)	Only 6.67189952904239 % is aligned, less than the 70 required.
gmap	TRINITY_DN217134_c2_g1_i1	2206	359	10	2	-	-	ERROR	14841604-14841866	80.2588235294118	10.5655686761964	13644	orient(a-/s-) align: 14841604(598)-14841711(492)>CT....AC<14841804(491)-14841866(429)	Only 10.5655686761964 % is aligned, less than the 70 required.
gmap	TRINITY_DN217134_c2_g1_i3	2208	362	10	4	-	?	ERROR	14841604-14841882	82.685534591195	4.59670424978317	0	orient(a-/s?) align: 14841604(1806)-14841711(1700)>CT....AC<14841804(1699)-14841839(1664)>AT....cg<14841857(1646)-14841866(1637)>ca....aa<14841877(1626)-14841882(1621)	Incontiguous alignmentSplice site validations failed
#prog	acc	cluster_link_id	align_id	scaffold	num_segs	aligned_orient	spliced_orient	alignment_valid	coord_span	avg_per_ID	per_len_aligned	score	alignment	validation_comment
gmap	TRINITY_DN15471_c0_g1_i1	12	1	2	1	-	?	OK	47861758-47862366	92	100	56120	orient(a-/s?) align: 47861758(610)-47862366(1)	
gmap	TRINITY_DN86950_c0_g2_i1	71	6	2	1	+	?	ERROR	163531001-163531708	77	98.9441930618401	50512	orient(a+/s?) align: 163531001(1)-163531708(656)	Only 77 % identity on average, less than the 80 required.
gmap	TRINITY_DN48662_c0_g1_i1	37	9	2	1	-	?	ERROR	183347570-183347926	74	77.0459081836327	28564	orient(a-/s?) align: 183347570(494)-183347926(109)	Only 74 % identity on average, less than the 80 required.
gmap	TRINITY_DN36498_c0_g1_i1	30	20	2	1	+	?	ERROR	181746704-181746994	82	46.1788617886179	23288	orient(a+/s?) align: 181746704(18)-181746994(301)	Only 46.1788617886179 % is aligned, less than the 70 required.
gmap	TRINITY_DN146057_c0_g1_i2	245	25	2	1	-	?	ERROR	198776226-198776402	79	23.0656934306569	12482	orient(a-/s?) align: 198776226(625)-198776402(468)	Only 23.0656934306569 % is aligned, less than the 70 required.
gmap	TRINITY_DN140059_c0_g1_i1	212	26	2	1	+	?	ERROR	188248521-188248598	97	8.87372013651877	7566	orient(a+/s?) align: 188248521(802)-188248598(879)	Only 8.87372013651877 % is aligned, less than the 70 required.
gmap	TRINITY_DN157526_c0_g1_i1	311	32	2	4	-	?	ERROR	222189285-222191054	86.5587734241908	94.9838187702265	0	orient(a-/s?) align: 222189285(617)-222189482(424)>ga....gg<222189521(404)-222189860(92)>ca....tt<222189866(86)-222189880(72)>AT....tt<222190986(65)-222191054(1)	Incontiguous alignmentSplice site validations failed
gmap	TRINITY_DN173104_c0_g1_i1	439	49	2	1	-	?	ERROR	181276804-181277219	71	73.7931034482759	30388	orient(a-/s?) align: 181276804(445)-181277219(18)	Only 71 % identity on average, less than the 80 required.
gmap	TRINITY_DN175782_c0_g2_i1	483	57	2	1	+	?	ERROR	217170827-217170915	84	14.8086522462562	7476	orient(a+/s?) align: 217170827(383)-217170915(471)	Only 14.8086522462562 % is aligned, less than the 70 required.
gmap	TRINITY_DN176756_c0_g1_i1	496	61	2	2	+	+	OK	204622317-204623537	88.7622080679405	86.1060329067642	83614	orient(a+/s+) align: 204622317(49)-204622776(547)>GT....AG<204623082(548)-204623537(990)	
gmap	TRINITY_DN184280_c0_g2_i4	592	75	2	2	+	?	ERROR	12833839-12834670	71.2584795321637	62.545720555962	0	orient(a+/s?) align: 12833839(311)-12834117(603)>ga....tt<12834154(629)-12834670(1190)	Incontiguous alignmentSplice site validations failed
gmap	TRINITY_DN192114_c0_g1_i1	755	86	2	1	-	?	OK	17966934-17967634	89	88.7667887667888	64703	orient(a-/s?) align: 17966934(727)-17967634(1)	
gmap	TRINITY_DN193934_c1_g2_i1	809	93	2	1	-	?	ERROR	14946330-14946544	84	38.4191176470588	17556	orient(a-/s?) align: 14946330(522)-14946544(314)	Only 38.4191176470588 % is aligned, less than the 70 required.
gmap	TRINITY_DN200749_c0_g1_i5	996	108	2	3	+	?	ERROR	48147442-48149172	84.0611183355007	82.5107296137339	0	orient(a+/s?) align: 48147442(14)-48147494(66)>GT....AG<48148389(67)-48148558(227)>cc....ct<48148615(228)-48149172(782)	Splice site validations failed
gmap	TRINITY_DN200749_c0_g1_i1	993	111	2	4	+	?	ERROR	162941258-162941931	78.413407821229	75.2100840336134	0	orient(a+/s?) align: 162941258(1)-162941567(312)>CT....AC<162941621(313)-162941672(366)>ac....AC<162941675(369)-162941681(375)>GT....gg<162941768(390)-162941931(553)	Incontiguous alignmentSplice site validations failed
gmap	TRINITY_DN200749_c0_g1_i1	993	112	2	1	+	?	ERROR	48148266-48148413	76	22.5490196078431	12236	orient(a+/s?) align: 48148266(554)-48148413(714)	Only 22.5490196078431 % is aligned, less than the 70 required.
gmap	TRINITY_DN200749_c0_g1_i4	995	113	2	2	+	-	OK	48148250-48149172	81.4780600461894	85.2362204724409	70560	orient(a+/s-) align: 48148250(1)-48148559(312)>CT....AC<48148613(313)-48149172(866)	
gmap	TRINITY_DN200749_c0_g1_i2	994	119	2	5	+	?	ERROR	48147442-48148932	82.3316455696202	68.5763888888889	0	orient(a+/s?) align: 48147442(14)-48147494(66)>GT....AG<48148446(67)-48148558(173)>cc....ct<48148615(174)-48148664(228)>ac....AC<48148667(231)-48148673(237)>GT....gg<48148760(252)-48148932(424)	Incontiguous alignmentSplice site validations failed
gmap	TRINITY_DN200749_c0_g1_i2	994	120	2	1	+	?	ERROR	48148275-48148413	74	26.3888888888889	11248	orient(a+/s?) align: 48148275(425)-48148413(576)	Only 26.3888888888889 % is aligned, less than the 70 required.
gmap	TRINITY_DN201604_c6_g4_i1	1042	130	2	1	+	?	ERROR	209120130-209120185	91	5.23364485981308	5096	orient(a+/s?) align: 209120130(616)-209120185(671)	Only 5.23364485981308 % is aligned, less than the 70 required.
gmap	TRINITY_DN202871_c1_g2_i12	1089	131	2	2	+	+	ERROR	118499073-118499384	90.448275862069	20.4946996466431	20984	orient(a+/s+) align: 118499073(424)-118499272(623)>GT....AG<118499353(624)-118499384(655)	Only 20.4946996466431 % is aligned, less than the 70 required.
gmap	TRINITY_DN203430_c2_g3_i1	1111	133	2	1	-	?	ERROR	154600666-154600926	84	49.3457943925234	22176	orient(a-/s?) align: 154600666(265)-154600926(2)	Only 49.3457943925234 % is aligned, less than the 70 required.
gmap	TRINITY_DN202871_c1_g2_i1	1087	134	2	2	+	+	ERROR	118499065-118499384	89.6016597510373	25.7754010695187	21594	orient(a+/s+) align: 118499065(218)-118499272(426)>GT....AG<118499353(427)-118499384(458)	Only 25.7754010695187 % is aligned, less than the 70 required.
gmap	TRINITY_DN203491_c0_g2_i13	1115	141	2	1	-	?	ERROR	106044498-106044522	92	1.51791135397693	2300	orient(a-/s?) align: 106044498(1435)-106044522(1411)	Only 1.51791135397693 % is aligned, less than the 70 required.
gmap	TRINITY_DN203491_c0_g2_i9	1114	143	2	1	-	?	ERROR	106044498-106044522	92	1.44759698899826	2300	orient(a-/s?) align: 106044498(1435)-106044522(1411)	Only 1.44759698899826 % is aligned, less than the 70 required.
gmap	TRINITY_DN204362_c8_g7_i3	1190	162	2	2	-	?	ERROR	225004560-225005121	77.8379446640316	93.5304990757856	0	orient(a-/s?) align: 225004560(541)-225004964(142)>tg....ca<225005016(141)-225005121(36)	Splice site validations failed
gmap	TRINITY_DN202871_c1_g2_i11	1088	171	2	2	+	+	ERROR	118499073-118499384	90.448275862069	16.3726182074806	20984	orient(a+/s+) align: 118499073(709)-118499272(908)>GT....AG<118499353(909)-118499384(940)	Only 16.3726182074806 % is aligned, less than the 70 required.
gmap	TRINITY_DN206066_c0_g1_i5	1288	174	2	2	-	?	ERROR	79837039-79843414	80.9090909090909	3.31825037707391	0	orient(a-/s?) align: 79837039(517)-79837045(511)>ga....tc<79843397(508)-79843414(494)	Incontiguous alignmentSplice site validations failed
gmap	TRINITY_DN204563_c1_g1_i3	1204	187	2	1	+	?	ERROR	187056011-187056113	81	12.453300124533	8100	orient(a+/s?) align: 187056011(6)-187056113(105)	Only 12.453300124533 % is aligned, less than the 70 required.
gmap	TRINITY_DN208802_c1_g2_i3	1473	188	2	1	-	?	ERROR	71345533-71345722	85	35.3369763205829	16490	orient(a-/s?) align: 71345533(317)-71345722(124)	Only 35.3369763205829 % is aligned, less than the 70 required.
gmap	TRINITY_DN209580_c1_g2_i1	1536	209	2	3	+	?	ERROR	9609279-9611012	88.8639705882353	34.3001261034048	0	orient(a+/s?) align: 9609279(1)-9609462(183)>aa....AT<9610276(184)-9610293(201)>GT....AG<9610942(202)-9611012(272)	Splice site validations failed
gmap	TRINITY_DN209580_c1_g2_i1	1536	210	2	2	+	?	ERROR	9609004-9611309	88.1529680365297	55.2332912988651	0	orient(a+/s?) align: 9609004(273)-9609373(643)>GC....ga<9611243(644)-9611309(710)	Splice site validations failed
gmap	TRINITY_DN209721_c2_g1_i1	1560	214	2	1	-	?	ERROR	19451071-19451190	95	18.2370820668693	11400	orient(a-/s?) align: 19451071(120)-19451190(1)	Only 18.2370820668693 % is aligned, less than the 70 required.
gmap	TRINITY_DN210300_c0_g3_i4	1606	227	2	2	+	+	ERROR	196523841-196524104	83.1848341232227	37.4113475177305	17552	orient(a+/s+) align: 196523841(302)-196523896(357)>GT....AG<196523973(358)-196524104(512)	Only 37.4113475177305 % is aligned, less than the 70 required.
gmap	TRINITY_DN211591_c6_g10_i1	1717	247	2	2	-	+	ERROR	187746536-187748143	85.953488372093	32.5141776937618	14784	orient(a-/s+) align: 187746536(293)-187746556(273)>GT....AG<187747983(272)-187748143(122)	Only 32.5141776937618 % is aligned, less than the 70 required.
gmap	TRINITY_DN211809_c7_g1_i7	1740	249	2	1	+	?	ERROR	141426554-141426987	73	62.200956937799	28470	orient(a+/s?) align: 141426554(53)-141426987(442)	Only 62.200956937799 % is aligned, less than the 70 required.
gmap	TRINITY_DN212046_c4_g1_i3	1771	270	2	1	-	?	ERROR	201115307-201115427	83	16.4540816326531	10707	orient(a-/s?) align: 201115307(201)-201115427(73)	Only 16.4540816326531 % is aligned, less than the 70 required.
gmap	TRINITY_DN212905_c0_g1_i1	1861	272	2	1	-	?	ERROR	215733227-215733919	78	99.7198879551821	55536	orient(a-/s?) align: 215733227(712)-215733919(1)	Only 78 % identity on average, less than the 80 required.
gmap	TRINITY_DN212915_c3_g2_i12	1867	291	2	1	+	?	ERROR	97246052-97246142	89	4.71849865951743	7832	orient(a+/s?) align: 97246052(508)-97246142(595)	Only 4.71849865951743 % is aligned, less than the 70 required.
gmap	TRINITY_DN214520_c0_g7_i9	1992	293	2	2	-	-	ERROR	220908105-220909252	88.8438356164384	39.760348583878	32428	orient(a-/s-) align: 220908105(918)-220908255(765)>CT....AC<220909026(764)-220909252(554)	Only 39.760348583878 % is aligned, less than the 70 required.
gmap	TRINITY_DN214520_c0_g7_i13	1995	294	2	2	-	-	ERROR	220908105-220909249	88.8508287292818	39.7802197802198	32164	orient(a-/s-) align: 220908105(910)-220908255(757)>CT....AC<220909026(756)-220909249(549)	Only 39.7802197802198 % is aligned, less than the 70 required.
gmap	TRINITY_DN214520_c0_g7_i12	1994	295	2	2	-	-	ERROR	220908105-220909249	88.8508287292818	41.9953596287703	32164	orient(a-/s-) align: 220908105(862)-220908255(709)>CT....AC<220909026(708)-220909249(501)	Only 41.9953596287703 % is aligned, less than the 70 required.
gmap	TRINITY_DN214520_c0_g7_i8	1991	296	2	2	-	-	ERROR	220908105-220909252	90	36.5708622398414	33210	orient(a-/s-) align: 220908105(1009)-220908255(856)>CT....AC<220909026(855)-220909252(641)	Only 36.5708622398414 % is aligned, less than the 70 required.
gmap	TRINITY_DN214520_c0_g7_i10	1993	297	2	2	-	-	ERROR	220908105-220909252	90	38.2383419689119	33210	orient(a-/s-) align: 220908105(965)-220908255(812)>CT....AC<220909026(811)-220909252(597)	Only 38.2383419689119 % is aligned, less than the 70 required.
gmap	TRINITY_DN212046_c4_g1_i1	1770	298	2	5	-	?	ERROR	201113947-201115423	76.629746835443	39.6984924623116	0	orient(a-/s?) align: 201113947(796)-201114018(725)>ta....ga<201114786(724)-201114791(719)>tt....gt<201115026(707)-201115235(493)>ag....AG<201115238(490)-201115253(475)>ag....AG<201115417(471)-201115423(465)	Incontiguous alignmentSplice site validations failed
gmap	TRINITY_DN214682_c2_g1_i2	2011	300	2	1	+	?	ERROR	86547711-86548098	88	46.7120181405896	36256	orient(a+/s?) align: 86547711(22)-86548098(433)	Only 46.7120181405896 % is aligned, less than the 70 required.
gmap	TRINITY_DN214138_c3_g15_i2	1963	303	2	1	-	?	ERROR	5174140-5174251	78	13.6939010356732	9282	orient(a-/s?) align: 5174140(379)-5174251(261)	Only 13.6939010356732 % is aligned, less than the 70 required.
gmap	TRINITY_DN215669_c1_g1_i2	2112	316	2	1	-	?	ERROR	209176928-209177270	85	47.1724137931034	29070	orient(a-/s?) align: 209176928(342)-209177270(1)	Only 47.1724137931034 % is aligned, less than the 70 required.
gmap	TRINITY_DN215660_c0_g4_i4	2110	321	2	1	+	?	ERROR	169468395-169468661	87	19.9386503067485	22620	orient(a+/s?) align: 169468395(252)-169468661(511)	Only 19.9386503067485 % is aligned, less than the 70 required.
gmap	TRINITY_DN215526_c4_g3_i1	2107	322	2	2	-	?	ERROR	224237536-224247125	74.9714285714286	35.4251012145749	0	orient(a-/s?) align: 224237536(364)-224237585(313)>ta....AT<224246890(307)-224247125(10)	Incontiguous alignmentSplice site validations failed
gmap	TRINITY_DN215660_c0_g4_i5	2111	323	2	1	+	?	ERROR	169468395-169468661	87	19.7119029567854	22620	orient(a+/s?) align: 169468395(252)-169468661(511)	Only 19.7119029567854 % is aligned, less than the 70 required.
gmap	TRINITY_DN217630_c5_g7_i5	2253	345	2	2	-	?	ERROR	142728706-142741726	90.0091743119266	20.6831119544592	0	orient(a-/s?) align: 142728706(496)-142728804(398)>cg....ct<142741717(390)-142741726(381)	Incontiguous alignmentSplice site validations failed
gmap	TRINITY_DN217587_c17_g2_i2	2251	352	2	1	+	?	ERROR	60878204-60878568	87	45.1814768460576	31407	orient(a+/s?) align: 60878204(381)-60878568(741)	Only 45.1814768460576 % is aligned, less than the 70 required.
#prog	acc	cluster_link_id	align_id	scaffold	num_segs	aligned_orient	spliced_orient	alignment_valid	coord_span	avg_per_ID	per_len_aligned	score	alignment	validation_comment
gmap	TRINITY_DN65582_c0_g1_i1	42	4	3	1	+	?	ERROR	162616638-162616702	90	10.82910321489	5760	orient(a+/s?) align: 162616638(6)-162616702(69)	Only 10.82910321489 % is aligned, less than the 70 required.
gmap	TRINITY_DN45772_c0_g2_i1	32	10	3	1	-	?	ERROR	159761252-159761569	70	50.2958579881657	23800	orient(a-/s?) align: 159761252(389)-159761569(50)	Only 50.2958579881657 % is aligned, less than the 70 required.
gmap	TRINITY_DN176144_c0_g1_i2	485	69	3	1	-	?	ERROR	8668516-8668679	85	10.379746835443	13940	orient(a-/s?) align: 8668516(322)-8668679(159)	Only 10.379746835443 % is aligned, less than the 70 required.
gmap	TRINITY_DN190560_c0_g1_i1	711	79	3	1	+	?	OK	96906641-96907069	93	82.3984526112186	39618	orient(a+/s?) align: 96906641(2)-96907069(427)	
gmap	TRINITY_DN190560_c0_g1_i1	711	80	3	1	-	?	ERROR	162813104-162813193	92	17.4081237911025	8280	orient(a-/s?) align: 162813104(517)-162813193(428)	Only 17.4081237911025 % is aligned, less than the 70 required.
gmap	TRINITY_DN192114_c0_g1_i1	755	87	3	1	+	?	ERROR	81271522-81271619	89	11.1111111111111	8099	orient(a+/s?) align: 81271522(728)-81271619(818)	Only 11.1111111111111 % is aligned, less than the 70 required.
gmap	TRINITY_DN193146_c1_g2_i4	786	88	3	1	+	?	ERROR	19125270-19125627	70	43.0666666666667	22610	orient(a+/s?) align: 19125270(25)-19125627(347)	Only 43.0666666666667 % is aligned, less than the 70 required.
gmap	TRINITY_DN189593_c0_g1_i1	688	104	3	1	-	?	ERROR	13365511-13365575	84	11.9266055045872	5460	orient(a-/s?) align: 13365511(462)-13365575(398)	Only 11.9266055045872 % is aligned, less than the 70 required.
gmap	TRINITY_DN199197_c1_g4_i8	952	121	3	2	-	-	ERROR	70613007-70613239	87.2935779816514	20.1665124884366	19030	orient(a-/s-) align: 70613007(218)-70613068(157)>CT....AC<70613081(156)-70613239(1)	Intron length is less than the minimum intron length allowed (12 < 20, determined between 70613068 and 70613081

gmap	TRINITY_DN203642_c0_g2_i2	1132	137	3	1	-	?	ERROR	5654130-5654415	78	41.5492957746479	23010	orient(a-/s?) align: 5654130(340)-5654415(46)	Only 41.5492957746479 % is aligned, less than the 70 required.
gmap	TRINITY_DN203680_c1_g1_i3	1133	138	3	1	+	?	ERROR	143746469-143746727	69	51.25	19803	orient(a+/s?) align: 143746469(1)-143746727(287)	Only 51.25 % is aligned, less than the 70 required.
gmap	TRINITY_DN203883_c0_g1_i11	1148	142	3	1	-	?	ERROR	136995181-136995228	91	5.03672612801679	4368	orient(a-/s?) align: 136995181(258)-136995228(211)	Only 5.03672612801679 % is aligned, less than the 70 required.
gmap	TRINITY_DN203685_c3_g8_i1	1134	151	3	2	+	+	ERROR	201834172-201834475	80.358361774744	48.3498349834984	23545	orient(a+/s+) align: 201834172(96)-201834298(231)>GT....AG<201834319(232)-201834475(388)	Only 48.3498349834984 % is aligned, less than the 70 required.
gmap	TRINITY_DN204162_c1_g1_i5	1175	157	3	1	+	?	ERROR	2602887-2602955	85	15.9045725646123	6800	orient(a+/s?) align: 2602887(153)-2602955(232)	Only 15.9045725646123 % is aligned, less than the 70 required.
gmap	TRINITY_DN205964_c5_g3_i2	1280	165	3	1	+	?	ERROR	159583895-159584048	81	24.2718446601942	12150	orient(a+/s?) align: 159583895(469)-159584048(618)	Only 24.2718446601942 % is aligned, less than the 70 required.
gmap	TRINITY_DN206460_c4_g2_i4	1329	167	3	1	+	?	ERROR	141178018-141178283	84	51.5037593984962	23016	orient(a+/s?) align: 141178018(88)-141178283(361)	Only 51.5037593984962 % is aligned, less than the 70 required.
gmap	TRINITY_DN206132_c3_g7_i6	1294	172	3	1	+	?	ERROR	66604450-66604594	87	20.5164992826399	12441	orient(a+/s?) align: 66604450(1)-66604594(143)	Only 20.5164992826399 % is aligned, less than the 70 required.
gmap	TRINITY_DN206635_c0_g2_i4	1338	177	3	1	-	?	ERROR	128302359-128302715	80	45.7729468599034	30320	orient(a-/s?) align: 128302359(695)-128302715(317)	Only 45.7729468599034 % is aligned, less than the 70 required.
gmap	TRINITY_DN207485_c1_g2_i1	1380	183	3	1	-	?	ERROR	70609943-70610067	87	15.5107187894073	10701	orient(a-/s?) align: 70609943(142)-70610067(20)	Only 15.5107187894073 % is aligned, less than the 70 required.
gmap	TRINITY_DN206038_c2_g2_i2	1286	193	3	1	+	?	ERROR	176132218-176132487	82	28.1217208814271	21976	orient(a+/s?) align: 176132218(686)-176132487(953)	Only 28.1217208814271 % is aligned, less than the 70 required.
gmap	TRINITY_DN209471_c2_g6_i1	1530	199	3	2	+	?	ERROR	66889182-66891331	85.5882352941177	74.1433021806854	0	orient(a+/s?) align: 66889182(23)-66889423(266)>CT....cg<66891103(267)-66891331(498)	Splice site validations failed
gmap	TRINITY_DN209703_c1_g2_i1	1557	205	3	1	+	?	OK	34907753-34908196	90	91.6167664670659	41310	orient(a+/s?) align: 34907753(1)-34908196(459)	
gmap	TRINITY_DN210015_c0_g2_i2	1581	223	3	2	-	-	ERROR	164159169-164167389	82.953488372093	19.5454545454545	10701	orient(a-/s-) align: 164159169(153)-164159247(66)>CT....AC<164167349(65)-164167389(25)	Only 19.5454545454545 % is aligned, less than the 70 required.
gmap	TRINITY_DN210231_c2_g5_i1	1600	224	3	1	+	?	ERROR	173510988-173511290	92	32.0083682008368	28152	orient(a+/s?) align: 173510988(459)-173511290(764)	Only 32.0083682008368 % is aligned, less than the 70 required.
gmap	TRINITY_DN209905_c1_g12_i1	1574	225	3	1	+	?	ERROR	89723473-89723691	61	16.5158371040724	13359	orient(a+/s?) align: 89723473(244)-89723691(462)	Only 16.5158371040724 % is aligned, less than the 70 required.
gmap	TRINITY_DN210523_c4_g16_i1	1616	229	3	2	-	-	ERROR	208384036-208384689	78.4831460674157	87.6230661040788	48895	orient(a-/s-) align: 208384036(700)-208384163(569)>CT....AC<208384181(568)-208384689(78)	Intron length is less than the minimum intron length allowed (17 < 20, determined between 208384163 and 208384181

gmap	TRINITY_DN211684_c2_g2_i2	1718	242	3	3	+	?	ERROR	140888634-140889057	87.7182320441989	35.0096711798839	0	orient(a+/s?) align: 140888634(337)-140888672(375)>GT....gt<140888794(376)-140888894(476)>AT....gt<140889017(477)-140889057(517)	Splice site validations failed
gmap	TRINITY_DN210972_c0_g7_i6	1654	245	3	1	+	?	ERROR	178882503-178882862	93	23.718791064389	33573	orient(a+/s?) align: 178882503(378)-178882862(738)	Only 23.718791064389 % is aligned, less than the 70 required.
gmap	TRINITY_DN213913_c0_g6_i1	1952	281	3	1	-	?	ERROR	52228780-52229031	92	38.9408099688474	23000	orient(a-/s?) align: 52228780(250)-52229031(1)	Only 38.9408099688474 % is aligned, less than the 70 required.
gmap	TRINITY_DN213807_c0_g6_i2	1936	284	3	1	+	?	ERROR	199241797-199241887	92	10.7438016528926	8372	orient(a+/s?) align: 199241797(116)-199241887(206)	Only 10.7438016528926 % is aligned, less than the 70 required.
gmap	TRINITY_DN213807_c0_g6_i1	1935	288	3	1	+	?	ERROR	199241797-199241887	92	10.5202312138728	8372	orient(a+/s?) align: 199241797(116)-199241887(206)	Only 10.5202312138728 % is aligned, less than the 70 required.
#prog	acc	cluster_link_id	align_id	scaffold	num_segs	aligned_orient	spliced_orient	alignment_valid	coord_span	avg_per_ID	per_len_aligned	score	alignment	validation_comment
gmap	TRINITY_DN65582_c0_g1_i1	42	5	4	1	-	?	OK	248109715-248110232	97	88.3248730964467	50634	orient(a-/s?) align: 248109715(591)-248110232(70)	
gmap	TRINITY_DN14284_c0_g1_i1	11	8	4	1	+	?	ERROR	175453585-175453907	89	61.9318181818182	29103	orient(a+/s?) align: 175453585(1)-175453907(327)	Only 61.9318181818182 % is aligned, less than the 70 required.
gmap	TRINITY_DN122951_c0_g2_i1	149	15	4	1	-	?	ERROR	48828064-48828194	89	20.2808112324493	11570	orient(a-/s?) align: 48828064(253)-48828194(124)	Only 20.2808112324493 % is aligned, less than the 70 required.
gmap	TRINITY_DN117888_c0_g2_i1	141	24	4	1	-	?	ERROR	105896461-105896513	90	10.4536489151874	4770	orient(a-/s?) align: 105896461(272)-105896513(220)	Only 10.4536489151874 % is aligned, less than the 70 required.
gmap	TRINITY_DN133160_c0_g1_i1	193	28	4	1	+	?	ERROR	175993340-175993388	91	5.01022494887526	4459	orient(a+/s?) align: 175993340(733)-175993388(781)	Only 5.01022494887526 % is aligned, less than the 70 required.
gmap	TRINITY_DN160865_c0_g2_i1	344	37	4	1	-	?	ERROR	185966977-185967103	79	23.1666666666667	10981	orient(a-/s?) align: 185966977(600)-185967103(462)	Only 23.1666666666667 % is aligned, less than the 70 required.
gmap	TRINITY_DN158711_c0_g1_i1	317	41	4	2	+	-	ERROR	30808238-30808804	67.7559322033898	88.0597014925373	39976	orient(a+/s-) align: 30808238(35)-30808594(403)>CT....AC<30808626(404)-30808804(624)	Only 67.7559322033898 % identity on average, less than the 80 required.
gmap	TRINITY_DN169150_c0_g3_i1	401	42	4	1	-	?	ERROR	13040104-13040162	85	9.05044510385757	5185	orient(a-/s?) align: 13040104(589)-13040162(529)	Only 9.05044510385757 % is aligned, less than the 70 required.
gmap	TRINITY_DN128360_c0_g1_i2	167	44	4	1	+	?	ERROR	224549045-224549082	86	5.0531914893617	3268	orient(a+/s?) align: 224549045(461)-224549082(498)	Only 5.0531914893617 % is aligned, less than the 70 required.
gmap	TRINITY_DN158112_c0_g2_i1	312	46	4	2	-	?	ERROR	212892492-212898032	87.0689655172414	20.9537572254335	0	orient(a-/s?) align: 212892492(425)-212892621(296)>ta....cc<212898018(293)-212898032(279)	Incontiguous alignmentSplice site validations failed
gmap	TRINITY_DN177224_c0_g1_i1	501	54	4	1	-	?	ERROR	18334237-18334287	80	7.24409448818898	3680	orient(a-/s?) align: 18334237(46)-18334287(1)	Only 7.24409448818898 % is aligned, less than the 70 required.
gmap	TRINITY_DN168855_c1_g1_i1	399	55	4	1	+	?	ERROR	26350933-26351028	96	13.2963988919668	9216	orient(a+/s?) align: 26350933(627)-26351028(722)	Only 13.2963988919668 % is aligned, less than the 70 required.
gmap	TRINITY_DN178187_c0_g1_i1	512	58	4	2	+	+	ERROR	174238198-174238520	83.9475409836066	53.9823008849557	25604	orient(a+/s+) align: 174238198(55)-174238310(161)>GT....AG<174238326(162)-174238520(359)	Intron length is less than the minimum intron length allowed (15 < 20, determined between 174238310 and 174238326

gmap	TRINITY_DN84253_c0_g1_i1	62	63	4	1	-	?	ERROR	49351939-49352257	84	28.886844526219	26376	orient(a-/s?) align: 49351939(816)-49352257(503)	Only 28.886844526219 % is aligned, less than the 70 required.
gmap	TRINITY_DN183053_c1_g1_i2	574	84	4	1	-	?	ERROR	205911670-205911852	86	27.2	14620	orient(a-/s?) align: 205911670(207)-205911852(38)	Only 27.2 % is aligned, less than the 70 required.
gmap	TRINITY_DN196722_c1_g2_i1	877	101	4	2	-	?	ERROR	241074607-241082833	82.1970802919708	53.9370078740158	0	orient(a-/s?) align: 241074607(412)-241074621(391)>ca....AG<241082494(389)-241082833(1)	Incontiguous alignmentSplice site validations failed
gmap	TRINITY_DN193487_c1_g1_i2	791	107	4	2	-	?	ERROR	193631587-193631761	77.6708860759494	16.6315789473684	0	orient(a-/s?) align: 193631587(812)-193631741(666)>cc....ga<193631751(656)-193631761(646)	Incontiguous alignmentSplice site validations failed
gmap	TRINITY_DN201820_c0_g2_i1	1048	126	4	5	-	?	ERROR	1669623-1672210	86.3589743589744	81.9327731092437	0	orient(a-/s?) align: 1669623(624)-1669638(609)>AT....ca<1669798(607)-1669920(485)>tc....cc<1669924(481)-1669932(473)>ac....gt<1671474(470)-1671482(462)>CT....ta<1671798(452)-1672210(25)	Incontiguous alignmentSplice site validations failed
gmap	TRINITY_DN203500_c2_g3_i1	1109	145	4	1	-	?	ERROR	33253199-33253461	75	40.1612903225806	18675	orient(a-/s?) align: 33253199(251)-33253461(3)	Only 40.1612903225806 % is aligned, less than the 70 required.
gmap	TRINITY_DN203566_c0_g7_i4	1122	149	4	1	+	?	ERROR	161597675-161597800	80	9.38198064035741	10080	orient(a+/s?) align: 161597675(1165)-161597800(1290)	Only 9.38198064035741 % is aligned, less than the 70 required.
gmap	TRINITY_DN203566_c0_g7_i5	1123	176	4	1	+	?	ERROR	161597675-161597800	80	8.62422997946612	10080	orient(a+/s?) align: 161597675(1283)-161597800(1408)	Only 8.62422997946612 % is aligned, less than the 70 required.
gmap	TRINITY_DN206946_c2_g13_i7	1356	203	4	1	-	?	ERROR	69940137-69940619	80	12.203302373581	37840	orient(a-/s?) align: 69940137(516)-69940619(44)	Only 12.203302373581 % is aligned, less than the 70 required.
gmap	TRINITY_DN209170_c3_g4_i2	1499	204	4	11	+	?	ERROR	37494533-37543818	87.3020637898687	51.2993262752647	0	orient(a+/s?) align: 37494533(1)-37494965(433)>ga....AG<37495772(434)-37495779(441)>ca....ca<37503720(449)-37503729(458)>aa....tc<37511366(471)-37511378(478)>cc....GC<37516489(484)-37516496(491)>GC....gg<37516498(497)-37516506(505)>tg....tt<37525886(510)-37525887(529)>tg....gt<37531560(534)-37531565(539)>tg....GC<37531573(548)-37531580(555)>cc....ta<37538213(559)-37538222(568)>CT....GC<37543811(581)-37543818(593)	Incontiguous alignmentSplice site validations failed
gmap	TRINITY_DN209673_c3_g4_i2	1547	207	4	1	+	?	OK	200876048-200876901	83	73.8175675675676	72542	orient(a+/s?) align: 200876048(68)-200876901(941)	
gmap	TRINITY_DN209673_c3_g4_i4	1548	211	4	2	+	+	OK	200876048-200876901	81.7763496143959	71.5073529411765	63622	orient(a+/s+) align: 200876048(68)-200876258(295)>GT....AG<200876357(296)-200876901(845)	
gmap	TRINITY_DN209940_c1_g7_i7	1575	217	4	1	+	?	OK	49575034-49575507	83	85.4202401372213	41334	orient(a+/s?) align: 49575034(86)-49575507(583)	
gmap	TRINITY_DN209746_c2_g1_i3	1564	220	4	1	-	?	ERROR	98712158-98712628	81	22.7515583259127	41391	orient(a-/s?) align: 98712158(922)-98712628(412)	Only 22.7515583259127 % is aligned, less than the 70 required.
gmap	TRINITY_DN211375_c2_g3_i3	1687	233	4	1	+	?	OK	232067059-232067646	94	92.0731707317073	56776	orient(a+/s?) align: 232067059(1)-232067646(604)	
gmap	TRINITY_DN211375_c2_g3_i3	1687	234	4	1	+	?	ERROR	232066831-232066882	96	7.92682926829268	4992	orient(a+/s?) align: 232066831(605)-232066882(656)	Only 7.92682926829268 % is aligned, less than the 70 required.
gmap	TRINITY_DN212043_c4_g2_i13	1763	266	4	4	+	?	ERROR	12583292-12587653	76.2152641878669	20.596533655784	0	orient(a+/s?) align: 12583292(1)-12583554(219)>CT....ga<12587142(220)-12587236(310)>CT....AC<12587430(311)-12587569(450)>CT....AC<12587593(451)-12587653(511)	Splice site validations failed
gmap	TRINITY_DN213398_c4_g1_i1	1911	277	4	1	-	?	ERROR	154994510-154994853	80	64.1651031894934	27360	orient(a-/s?) align: 154994510(355)-154994853(14)	Only 64.1651031894934 % is aligned, less than the 70 required.
gmap	TRINITY_DN213533_c6_g2_i5	1924	283	4	1	+	?	ERROR	8927803-8927940	92	27.4900398406374	12696	orient(a+/s?) align: 8927803(4)-8927940(141)	Only 27.4900398406374 % is aligned, less than the 70 required.
gmap	TRINITY_DN215105_c1_g4_i2	2056	302	4	2	-	-	OK	4008444-4009514	85.9243243243243	98.273572377158	63584	orient(a-/s-) align: 4008444(753)-4008971(242)>CT....AC<4009287(241)-4009514(14)	
gmap	TRINITY_DN215117_c1_g1_i1	2066	304	4	1	-	?	ERROR	247277383-247277909	78	88.034188034188	40170	orient(a-/s?) align: 247277383(584)-247277909(70)	Only 78 % identity on average, less than the 80 required.
gmap	TRINITY_DN215271_c20_g2_i5	2086	311	4	2	+	?	ERROR	248107065-248111014	96.1896551724138	20.9386281588448	0	orient(a+/s?) align: 248107065(392)-248107075(402)>ag....GC<248110794(412)-248111014(632)	Incontiguous alignmentSplice site validations failed
gmap	TRINITY_DN215271_c20_g2_i5	2086	312	4	3	+	+	ERROR	248149589-248150169	93.5778364116095	34.2057761732852	35466	orient(a+/s+) align: 248149589(633)-248149732(764)>GT....AG<248149816(765)-248149973(922)>AT....AC<248150081(923)-248150169(1011)	Only 34.2057761732852 % is aligned, less than the 70 required.
gmap	TRINITY_DN215261_c1_g12_i3	2081	313	4	1	+	?	ERROR	45583696-45584135	86	35.5273592386994	38528	orient(a+/s?) align: 45583696(814)-45584135(1261)	Only 35.5273592386994 % is aligned, less than the 70 required.
gmap	TRINITY_DN215261_c1_g12_i5	2082	315	4	1	+	?	ERROR	45583696-45584135	86	35.4992076069731	38528	orient(a+/s?) align: 45583696(815)-45584135(1262)	Only 35.4992076069731 % is aligned, less than the 70 required.
gmap	TRINITY_DN216952_c1_g1_i4	2195	324	4	2	+	+	OK	4007238-4008655	91	99.438202247191	64428	orient(a+/s+) align: 4007238(4)-4007825(591)>GT....AG<4008539(592)-4008655(711)	
gmap	TRINITY_DN216952_c1_g2_i1	2194	325	4	2	+	+	OK	4007380-4008655	93.3639575971731	99.8236331569665	52844	orient(a+/s+) align: 4007380(1)-4007825(446)>GT....AG<4008539(447)-4008655(566)	
gmap	TRINITY_DN216952_c1_g1_i6	2196	326	4	1	+	?	OK	4007238-4007807	92	99.4764397905759	52440	orient(a+/s?) align: 4007238(4)-4007807(573)	
gmap	TRINITY_DN216952_c2_g2_i2	2197	328	4	2	+	+	OK	4004232-4007156	88	98.5130111524164	69960	orient(a+/s+) align: 4004232(13)-4004581(360)>GT....AG<4006701(361)-4007156(807)	
gmap	TRINITY_DN215105_c1_g4_i4	2057	330	4	2	-	-	ERROR	4008444-4009883	86.5493372606775	51.9709146574818	117534	orient(a-/s-) align: 4008444(2613)-4009060(2002)>CT....AC<4009134(2001)-4009883(1256)	Only 51.9709146574818 % is aligned, less than the 70 required.
gmap	TRINITY_DN217513_c4_g6_i1	2236	337	4	1	+	?	OK	4009827-4010496	84	100	55104	orient(a+/s?) align: 4009827(1)-4010496(656)	
gmap	TRINITY_DN217513_c4_g4_i3	2237	338	4	4	+	?	ERROR	4007816-4009666	88.584452975048	96.4814814814815	0	orient(a+/s?) align: 4007816(15)-4007825(24)>GT....AG<4008539(25)-4009456(945)>aa....aa<4009464(953)-4009476(965)>ta....AT<4009566(983)-4009666(1080)	Incontiguous alignmentSplice site validations failed
gmap	TRINITY_DN217513_c4_g4_i4	2238	339	4	2	+	+	OK	4007816-4011033	86.0558659217877	99.4444444444444	215656	orient(a+/s+) align: 4007816(15)-4007825(24)>GT....AG<4008539(25)-4011033(2520)	
gmap	TRINITY_DN217513_c4_g7_i1	2239	340	4	1	+	?	OK	4009853-4010496	84	99.3690851735016	52920	orient(a+/s?) align: 4009853(5)-4010496(634)	
gmap	TRINITY_DN217513_c4_g4_i5	2240	341	4	2	+	+	OK	4007816-4011073	86.0553359683795	99.4496855345912	217720	orient(a+/s+) align: 4007816(15)-4007825(24)>GT....AG<4008539(25)-4011073(2544)	
gmap	TRINITY_DN217513_c4_g4_i7	2242	342	4	1	+	?	OK	4008730-4009867	87	99.7363796133568	98745	orient(a+/s?) align: 4008730(1)-4009867(1135)	
gmap	TRINITY_DN217513_c4_g4_i6	2241	343	4	1	+	?	OK	4008665-4010919	86	99.9105945462673	192210	orient(a+/s?) align: 4008665(3)-4010919(2237)	
gmap	TRINITY_DN216180_c1_g4_i2	2143	354	4	1	+	?	ERROR	79303600-79303920	82	7.86683107274969	26158	orient(a+/s?) align: 79303600(2554)-79303920(2872)	Only 7.86683107274969 % is aligned, less than the 70 required.
gmap	TRINITY_DN216180_c1_g4_i1	2142	355	4	1	+	?	ERROR	79303600-79303920	82	7.40482822655525	26158	orient(a+/s?) align: 79303600(2807)-79303920(3125)	Only 7.40482822655525 % is aligned, less than the 70 required.
gmap	TRINITY_DN216180_c1_g4_i3	2144	358	4	2	+	-	ERROR	79303600-79303920	81.9933774834437	7.47894997523527	24762	orient(a+/s-) align: 79303600(2554)-79303844(2795)>CT....AC<79303861(2796)-79303920(2855)	Intron length is less than the minimum intron length allowed (16 < 20, determined between 79303844 and 79303861

#prog	acc	cluster_link_id	align_id	scaffold	num_segs	aligned_orient	spliced_orient	alignment_valid	coord_span	avg_per_ID	per_len_aligned	score	alignment	validation_comment
gmap	TRINITY_DN120752_c0_g1_i1	145	23	5	1	-	?	ERROR	179860112-179860274	85	34.2	14535	orient(a-/s?) align: 179860112(179)-179860274(9)	Only 34.2 % is aligned, less than the 70 required.
gmap	TRINITY_DN153321_c1_g2_i1	282	27	5	1	+	?	OK	206002950-206003735	84	93.4131736526946	65520	orient(a+/s?) align: 206002950(1)-206003735(780)	
gmap	TRINITY_DN161457_c0_g2_i4	347	34	5	2	-	+	ERROR	205560983-205562991	91.8819599109131	96.3519313304721	0	orient(a-/s+) align: 205560983(932)-205561817(88)>GT....AG<205562939(56)-205562991(4)	Incontiguous alignment
gmap	TRINITY_DN160865_c0_g2_i1	344	36	5	5	-	?	ERROR	149082241-149083110	82.4530120481928	69.1666666666667	0	orient(a-/s?) align: 149082241(461)-149082344(363)>aa....aa<149082798(361)-149082807(352)>ta....ca<149082825(334)-149082831(328)>CT....AC<149082850(324)-149082862(312)>ca....ca<149082870(304)-149083110(19)	Incontiguous alignmentSplice site validations failed
gmap	TRINITY_DN152558_c2_g1_i1	270	51	5	1	+	?	ERROR	21316192-21316264	93	13.8783269961977	6789	orient(a+/s?) align: 21316192(454)-21316264(526)	Only 13.8783269961977 % is aligned, less than the 70 required.
gmap	TRINITY_DN190709_c0_g1_i1	714	81	5	1	+	?	ERROR	148402845-148403206	81	66.4220183486239	29322	orient(a+/s?) align: 148402845(118)-148403206(479)	Only 66.4220183486239 % is aligned, less than the 70 required.
gmap	TRINITY_DN190709_c0_g1_i2	715	83	5	1	+	?	ERROR	148402845-148403316	81	60.2040816326531	38232	orient(a+/s?) align: 148402845(118)-148403316(589)	Only 60.2040816326531 % is aligned, less than the 70 required.
gmap	TRINITY_DN200906_c0_g1_i1	1010	116	5	1	-	?	OK	66699073-66699651	80	78.2268578878748	48000	orient(a-/s?) align: 66699073(711)-66699651(112)	
gmap	TRINITY_DN209673_c3_g4_i2	1547	208	5	1	-	?	ERROR	121226583-121226801	92	18.3277027027027	19964	orient(a-/s?) align: 121226583(1158)-121226801(942)	Only 18.3277027027027 % is aligned, less than the 70 required.
gmap	TRINITY_DN209673_c3_g4_i4	1548	212	5	1	-	?	ERROR	121226583-121226801	92	19.9448529411765	19964	orient(a-/s?) align: 121226583(1062)-121226801(846)	Only 19.9448529411765 % is aligned, less than the 70 required.
gmap	TRINITY_DN209746_c2_g1_i3	1564	221	5	1	-	?	ERROR	89577665-89577750	93	3.82902938557435	7998	orient(a-/s?) align: 89577665(1008)-89577750(923)	Only 3.82902938557435 % is aligned, less than the 70 required.
gmap	TRINITY_DN209488_c6_g2_i1	1531	226	5	1	-	?	ERROR	129430616-129430868	81	21.1648892534865	20898	orient(a-/s?) align: 129430616(1204)-129430868(947)	Only 21.1648892534865 % is aligned, less than the 70 required.
gmap	TRINITY_DN211785_c2_g1_i1	1736	257	5	3	-	?	ERROR	172124447-172148596	85.7407407407407	27.2040302267003	0	orient(a-/s?) align: 172124447(782)-172124508(721)>tt....tt<172132256(715)-172132263(708)>cc....ta<172148451(702)-172148596(557)	Incontiguous alignmentSplice site validations failed
gmap	TRINITY_DN213012_c7_g12_i3	1881	275	5	3	+	?	ERROR	876676-877589	79.1974522292994	79.6954314720812	0	orient(a+/s?) align: 876676(28)-876822(173)>tg....ca<877262(245)-877472(469)>GT....AG<877492(470)-877589(569)	Incontiguous alignmentSplice site validations failed
gmap	TRINITY_DN215476_c4_g7_i5	2097	308	5	1	+	?	OK	197411942-197413826	86	93.7906860290436	161078	orient(a+/s?) align: 197411942(125)-197413826(1997)	
gmap	TRINITY_DN215476_c4_g7_i7	2098	309	5	2	+	-	OK	197411942-197415583	83	91.095406360424	106987	orient(a+/s-) align: 197411942(125)-197413185(1345)>CT....AC<197415513(1346)-197415583(1413)	
gmap	TRINITY_DN215476_c4_g7_i4	2096	310	5	1	+	?	OK	197411942-197413784	84	92.9252383341696	155568	orient(a+/s?) align: 197411942(125)-197413784(1976)	
gmap	TRINITY_DN216313_c0_g3_i2	2151	318	5	1	-	?	OK	31154808-31156251	93	99.8613998613999	134013	orient(a-/s?) align: 31154808(1443)-31156251(3)	
gmap	TRINITY_DN216313_c0_g8_i1	2152	319	5	1	-	?	ERROR	31155999-31156251	92	49.8031496062992	23276	orient(a-/s?) align: 31155999(255)-31156251(3)	Only 49.8031496062992 % is aligned, less than the 70 required.
gmap	TRINITY_DN216313_c0_g8_i1	2152	320	5	1	-	?	ERROR	31155997-31156249	92	49.8031496062992	23276	orient(a-/s?) align: 31155997(508)-31156249(256)	Only 49.8031496062992 % is aligned, less than the 70 required.
gmap	TRINITY_DN216407_c4_g1_i1	2157	327	5	1	-	?	ERROR	183120883-183120928	91	5.36756126021004	4186	orient(a-/s?) align: 183120883(79)-183120928(34)	Only 5.36756126021004 % is aligned, less than the 70 required.
#prog	acc	cluster_link_id	align_id	scaffold	num_segs	aligned_orient	spliced_orient	alignment_valid	coord_span	avg_per_ID	per_len_aligned	score	alignment	validation_comment
gmap	TRINITY_DN128258_c1_g1_i1	166	21	6	2	-	?	ERROR	156310748-156311609	87.3059273422562	54.253112033195	0	orient(a-/s?) align: 156310748(958)-156311151(557)>cc....ct<156311487(556)-156311609(436)	Splice site validations failed
gmap	TRINITY_DN173546_c1_g1_i1	451	48	6	1	-	?	ERROR	35373144-35373181	94	5.79268292682927	3572	orient(a-/s?) align: 35373144(429)-35373181(392)	Only 5.79268292682927 % is aligned, less than the 70 required.
gmap	TRINITY_DN177483_c1_g2_i4	503	56	6	3	+	+	ERROR	141808504-141810714	92.6837606837607	68.2879377431907	32532	orient(a+/s+) align: 141808504(164)-141808584(245)>GT....AG<141809614(246)-141809723(356)>GT....AG<141810559(357)-141810714(514)	Only 68.2879377431907 % is aligned, less than the 70 required.
gmap	TRINITY_DN190997_c1_g1_i2	724	91	6	1	-	?	ERROR	130664299-130664406	93	17.3076923076923	10044	orient(a-/s?) align: 130664299(624)-130664406(517)	Only 17.3076923076923 % is aligned, less than the 70 required.
gmap	TRINITY_DN195804_c2_g3_i2	856	95	6	1	+	?	ERROR	106785647-106786025	71	59.5772787318362	32021	orient(a+/s?) align: 106785647(202)-106786025(652)	Only 59.5772787318362 % is aligned, less than the 70 required.
gmap	TRINITY_DN198431_c0_g3_i1	945	103	6	1	+	?	OK	162260153-162260671	92	100	47840	orient(a+/s?) align: 162260153(1)-162260671(520)	
gmap	TRINITY_DN197951_c0_g4_i1	919	106	6	1	+	?	ERROR	116650083-116650328	83	48.1132075471698	21165	orient(a+/s?) align: 116650083(199)-116650328(453)	Only 48.1132075471698 % is aligned, less than the 70 required.
gmap	TRINITY_DN200682_c1_g3_i1	988	129	6	1	-	?	ERROR	22139111-22139390	79	45.273631840796	21567	orient(a-/s?) align: 22139111(585)-22139390(313)	Only 45.273631840796 % is aligned, less than the 70 required.
gmap	TRINITY_DN202592_c0_g1_i5	1082	132	6	2	+	+	ERROR	121828008-121830904	77.7848575712144	92.4462924462924	103765	orient(a+/s+) align: 121828008(4)-121828767(746)>GC....AG<121830372(747)-121830904(1337)	Only 77.7848575712144 % identity on average, less than the 80 required.
gmap	TRINITY_DN203936_c2_g5_i7	1154	147	6	1	+	?	ERROR	67774089-67774537	86	42.6229508196721	38012	orient(a+/s?) align: 67774089(1)-67774537(442)	Only 42.6229508196721 % is aligned, less than the 70 required.
gmap	TRINITY_DN203936_c2_g5_i5	1153	156	6	1	+	?	ERROR	67774211-67774538	84	62.2309197651663	26712	orient(a+/s?) align: 67774211(155)-67774538(472)	Only 62.2309197651663 % is aligned, less than the 70 required.
gmap	TRINITY_DN205127_c0_g3_i1	1234	164	6	1	-	?	ERROR	146522704-146522931	79	44.106463878327	18328	orient(a-/s?) align: 146522704(483)-146522931(252)	Only 44.106463878327 % is aligned, less than the 70 required.
gmap	TRINITY_DN204950_c2_g6_i1	1220	170	6	1	+	?	ERROR	24833213-24833556	80	31.266149870801	29040	orient(a+/s?) align: 24833213(513)-24833556(875)	Only 31.266149870801 % is aligned, less than the 70 required.
gmap	TRINITY_DN208083_c0_g1_i2	1433	182	6	1	+	?	ERROR	15901218-15901279	100	12.0388349514563	6200	orient(a+/s?) align: 15901218(1)-15901279(62)	Only 12.0388349514563 % is aligned, less than the 70 required.
gmap	TRINITY_DN208097_c1_g6_i3	1434	206	6	1	+	?	ERROR	38592800-38592838	94	6.13207547169811	3666	orient(a+/s?) align: 38592800(597)-38592838(635)	Only 6.13207547169811 % is aligned, less than the 70 required.
gmap	TRINITY_DN210426_c2_g2_i1	1615	228	6	1	-	?	ERROR	165212065-165212625	70	36	42210	orient(a-/s?) align: 165212065(1166)-165212625(564)	Only 36 % is aligned, less than the 70 required.
gmap	TRINITY_DN211378_c1_g1_i12	1688	237	6	1	+	?	ERROR	15959152-15959229	94	15.5688622754491	7332	orient(a+/s?) align: 15959152(1)-15959229(78)	Only 15.5688622754491 % is aligned, less than the 70 required.
gmap	TRINITY_DN209182_c6_g3_i7	1501	256	6	6	+	?	ERROR	156058722-156093262	95.0746268656716	3.13230481533427	0	orient(a+/s?) align: 156058722(1088)-156058728(1094)>GT....AC<156058749(1114)-156058757(1122)>cg....tt<156062112(1125)-156062120(1133)>tg....cc<156078487(1142)-156078487(1142)>gg....ta<156086364(1146)-156086371(1153)>ca....ta<156093230(1154)-156093262(1186)	Incontiguous alignmentSplice site validations failed
gmap	TRINITY_DN211809_c8_g2_i7	1741	258	6	2	+	+	OK	117458702-117459367	81.7669172932331	82.9953198127925	43500	orient(a+/s+) align: 117458702(21)-117458930(255)>GT....AG<117459071(256)-117459367(552)	
gmap	TRINITY_DN211448_c2_g3_i1	1699	262	6	1	+	?	ERROR	100971911-100972025	82	19.9649737302977	9348	orient(a+/s?) align: 100971911(3)-100972025(116)	Only 19.9649737302977 % is aligned, less than the 70 required.
gmap	TRINITY_DN212526_c4_g2_i6	1830	273	6	1	-	?	ERROR	64706962-64707226	83	51.4734774066798	21746	orient(a-/s?) align: 64706962(314)-64707226(53)	Only 51.4734774066798 % is aligned, less than the 70 required.
gmap	TRINITY_DN212505_c5_g5_i1	1822	276	6	1	+	?	ERROR	70891520-70891568	61	8.43170320404722	3050	orient(a+/s?) align: 70891520(16)-70891568(65)	Only 8.43170320404722 % is aligned, less than the 70 required.
gmap	TRINITY_DN211965_c2_g1_i1	1748	349	6	1	-	?	ERROR	160089425-160089655	89	38.5761589403974	20737	orient(a-/s?) align: 160089425(599)-160089655(367)	Only 38.5761589403974 % is aligned, less than the 70 required.
gmap	TRINITY_DN217287_c3_g1_i1	2222	351	6	4	-	?	ERROR	57127018-57141032	85.7423208191126	65.2561247216036	0	orient(a-/s?) align: 57127018(598)-57127024(592)>cc....tg<57131461(587)-57131470(578)>aa....tc<57140473(575)-57140484(564)>ca....aa<57140491(557)-57141032(1)	Incontiguous alignmentSplice site validations failed
gmap	TRINITY_DN212732_c0_g2_i2	1854	361	6	1	+	?	ERROR	60915419-60915732	79	6.34373733279287	24727	orient(a+/s?) align: 60915419(3701)-60915732(4013)	Only 6.34373733279287 % is aligned, less than the 70 required.
#prog	acc	cluster_link_id	align_id	scaffold	num_segs	aligned_orient	spliced_orient	alignment_valid	coord_span	avg_per_ID	per_len_aligned	score	alignment	validation_comment
gmap	TRINITY_DN122951_c0_g2_i1	149	16	7	1	-	?	ERROR	80632079-80632426	79	59.9063962558502	30336	orient(a-/s?) align: 80632079(637)-80632426(254)	Only 59.9063962558502 % is aligned, less than the 70 required.
gmap	TRINITY_DN158112_c0_g2_i1	312	45	7	1	-	?	ERROR	84138957-84139069	84	16.3294797687861	9492	orient(a-/s?) align: 84138957(278)-84139069(166)	Only 16.3294797687861 % is aligned, less than the 70 required.
gmap	TRINITY_DN153737_c0_g1_i1	287	52	7	1	+	?	ERROR	46897553-46897693	81	21.141975308642	11097	orient(a+/s?) align: 46897553(376)-46897693(512)	Only 21.141975308642 % is aligned, less than the 70 required.
gmap	TRINITY_DN178799_c0_g1_i1	524	68	7	1	+	?	ERROR	68795133-68795211	98	11.0644257703081	7742	orient(a+/s?) align: 68795133(610)-68795211(688)	Only 11.0644257703081 % is aligned, less than the 70 required.
gmap	TRINITY_DN184008_c2_g6_i2	589	76	7	1	+	?	ERROR	135563518-135563558	97	5.60875512995896	3977	orient(a+/s?) align: 135563518(198)-135563558(238)	Only 5.60875512995896 % is aligned, less than the 70 required.
gmap	TRINITY_DN196332_c2_g6_i1	866	94	7	4	-	?	ERROR	142531828-142532818	73.7463556851312	97.3049645390071	0	orient(a-/s?) align: 142531828(705)-142532141(359)>CT....AC<142532334(358)-142532424(272)>ac....tc<142532434(262)-142532444(252)>ca....AC<142532581(241)-142532818(1)	Incontiguous alignmentSplice site validations failed
gmap	TRINITY_DN192550_c2_g1_i1	765	97	7	2	+	?	ERROR	23220519-23221434	82.6506024096386	29.5724465558195	0	orient(a+/s?) align: 23220519(49)-23220527(57)>GC....AC<23221217(58)-23221434(297)	Splice site validations failed
gmap	TRINITY_DN199309_c1_g1_i3	958	136	7	9	-	?	ERROR	109396867-109415819	95.8319226118501	53.4583063994829	0	orient(a-/s?) align: 109396867(846)-109396872(841)>ga....AG<109407006(838)-109407036(808)>GT....tg<109407260(807)-109407394(673)>CT....AC<109407645(672)-109407724(593)>CT....tg<109407797(592)-109408023(366)>CT....AC<109412028(365)-109412089(304)>CT....AC<109412172(303)-109412218(257)>CT....AC<109412304(256)-109412398(162)>CT....AC<109415676(161)-109415819(18)	Incontiguous alignmentSplice site validations failed
gmap	TRINITY_DN203527_c0_g1_i1	1121	140	7	1	+	?	ERROR	106776439-106776481	90	3.51882160392799	3870	orient(a+/s?) align: 106776439(514)-106776481(556)	Only 3.51882160392799 % is aligned, less than the 70 required.
gmap	TRINITY_DN204605_c0_g1_i9	1201	158	7	4	-	?	ERROR	8736961-8742220	95.0894308943089	23.0337078651685	0	orient(a-/s?) align: 8736961(133)-8737013(84)>CT....AC<8737161(79)-8737166(74)>GC....tc<8737206(69)-8737220(55)>ag....tc<8742168(52)-8742220(1)	Incontiguous alignmentSplice site validations failed
gmap	TRINITY_DN205127_c0_g6_i1	1235	159	7	1	-	?	ERROR	133521965-133522010	91	8.58208955223881	4186	orient(a-/s?) align: 133521965(239)-133522010(194)	Only 8.58208955223881 % is aligned, less than the 70 required.
gmap	TRINITY_DN199309_c1_g2_i1	959	168	7	5	-	?	ERROR	109407006-109412189	94.8422712933754	47.0675575352635	0	orient(a-/s?) align: 109407006(638)-109407036(608)>GT....tg<109407260(607)-109407394(473)>CT....AC<109407645(472)-109407724(393)>CT....tg<109407797(392)-109408023(166)>CT....AC<109412028(165)-109412189(5)	Splice site validations failed
gmap	TRINITY_DN208506_c0_g3_i1	1449	191	7	1	-	?	ERROR	40038146-40038387	77	51.1406844106464	20713	orient(a-/s?) align: 40038146(393)-40038387(125)	Only 51.1406844106464 % is aligned, less than the 70 required.
gmap	TRINITY_DN209721_c2_g1_i1	1560	215	7	1	-	?	OK	94713187-94713715	97	81.7629179331307	52186	orient(a-/s?) align: 94713187(658)-94713715(121)	
gmap	TRINITY_DN210093_c1_g4_i1	1592	218	7	3	+	?	ERROR	21288886-21291107	86.7898089171974	74.6434231378764	0	orient(a+/s?) align: 21288886(4)-21289021(139)>GT....AG<21290249(140)-21290289(180)>ga....cg<21290827(181)-21291107(474)	Splice site validations failed
gmap	TRINITY_DN209887_c0_g8_i5	1573	219	7	1	-	?	ERROR	29923432-29923451	100	3.32225913621263	2000	orient(a-/s?) align: 29923432(231)-29923451(212)	Only 3.32225913621263 % is aligned, less than the 70 required.
gmap	TRINITY_DN207750_c2_g2_i1	1404	232	7	1	-	?	ERROR	42590814-42591089	26	44.16	7176	orient(a-/s?) align: 42590814(312)-42591089(37)	Only 44.16 % is aligned, less than the 70 required.
gmap	TRINITY_DN208335_c4_g9_i2	1444	236	7	1	-	?	ERROR	57015430-57015723	72	14.9880668257757	22608	orient(a-/s?) align: 57015430(859)-57015723(546)	Only 14.9880668257757 % is aligned, less than the 70 required.
gmap	TRINITY_DN211931_c2_g1_i1	1745	251	7	1	+	?	ERROR	72502338-72502453	76	22.8007181328546	9652	orient(a+/s?) align: 72502338(1)-72502453(127)	Only 22.8007181328546 % is aligned, less than the 70 required.
gmap	TRINITY_DN212046_c4_g1_i3	1771	269	7	1	-	?	ERROR	124227287-124227358	93	9.18367346938776	6696	orient(a-/s?) align: 124227287(72)-124227358(1)	Only 9.18367346938776 % is aligned, less than the 70 required.
gmap	TRINITY_DN212590_c0_g2_i7	1838	279	7	1	+	?	ERROR	73578542-73578791	87	10.7758620689655	21750	orient(a+/s?) align: 73578542(1926)-73578791(2175)	Only 10.7758620689655 % is aligned, less than the 70 required.
gmap	TRINITY_DN212590_c0_g2_i8	1839	280	7	1	+	?	ERROR	73578542-73578791	87	10.3648424543947	21750	orient(a+/s?) align: 73578542(2018)-73578791(2267)	Only 10.3648424543947 % is aligned, less than the 70 required.
gmap	TRINITY_DN212590_c0_g2_i12	1843	286	7	1	+	?	ERROR	73578542-73578791	87	9.84251968503937	21750	orient(a+/s?) align: 73578542(2146)-73578791(2395)	Only 9.84251968503937 % is aligned, less than the 70 required.
gmap	TRINITY_DN213811_c4_g7_i2	1943	287	7	1	+	?	ERROR	51483849-51483954	91	19.6296296296296	9646	orient(a+/s?) align: 51483849(1)-51483954(106)	Only 19.6296296296296 % is aligned, less than the 70 required.
gmap	TRINITY_DN217649_c5_g9_i1	2254	353	7	1	+	?	ERROR	45478869-45479061	86	29.4561933534743	16770	orient(a+/s?) align: 45478869(382)-45479061(576)	Only 29.4561933534743 % is aligned, less than the 70 required.
gmap	TRINITY_DN217523_c1_g2_i4	2250	364	7	1	-	?	ERROR	147744739-147744839	85	1.79014533853244	8585	orient(a-/s?) align: 147744739(2153)-147744839(2053)	Only 1.79014533853244 % is aligned, less than the 70 required.
#prog	acc	cluster_link_id	align_id	scaffold	num_segs	aligned_orient	spliced_orient	alignment_valid	coord_span	avg_per_ID	per_len_aligned	score	alignment	validation_comment
gmap	TRINITY_DN107552_c0_g3_i1	123	19	8	1	+	?	ERROR	139279094-139279511	75	76.793893129771	37725	orient(a+/s?) align: 139279094(4)-139279511(506)	Only 75 % identity on average, less than the 80 required.
gmap	TRINITY_DN107552_c0_g2_i1	122	22	8	2	+	?	ERROR	139278819-139279511	77.4878048780488	76.9712140175219	0	orient(a+/s?) align: 139278819(2)-139278965(144)>cg....cg<139279131(179)-139279511(650)	Incontiguous alignmentSplice site validations failed
gmap	TRINITY_DN155197_c0_g1_i1	297	29	8	1	-	?	OK	65077850-65078588	96	100	69984	orient(a-/s?) align: 65077850(729)-65078588(1)	
gmap	TRINITY_DN157336_c0_g1_i1	309	31	8	2	+	?	ERROR	5045756-5047080	94.6013570822731	99.746192893401	0	orient(a+/s?) align: 5045756(4)-5046862(1088)>nn....ct<5046978(1089)-5047080(1182)	Splice site validations failed
gmap	TRINITY_DN150861_c0_g2_i1	264	33	8	1	-	?	ERROR	88394790-88394862	98	13.8257575757576	7154	orient(a-/s?) align: 88394790(73)-88394862(1)	Only 13.8257575757576 % is aligned, less than the 70 required.
gmap	TRINITY_DN175565_c1_g1_i1	481	59	8	1	+	?	ERROR	144861299-144861982	84	69.6098562628337	56952	orient(a+/s?) align: 144861299(297)-144861982(974)	Only 69.6098562628337 % is aligned, less than the 70 required.
gmap	TRINITY_DN182798_c0_g1_i1	570	74	8	1	+	?	ERROR	158951292-158951314	86	4.2910447761194	1978	orient(a+/s?) align: 158951292(22)-158951314(44)	Only 4.2910447761194 % is aligned, less than the 70 required.
gmap	TRINITY_DN170785_c0_g1_i3	411	77	8	5	+	?	ERROR	182231201-182244838	94.7441860465116	31.0469314079422	0	orient(a+/s?) align: 182231201(3)-182231344(146)>AT....ct<182242734(185)-182242745(192)>tt....ca<182244148(197)-182244154(203)>tt....AC<182244160(209)-182244165(214)>aa....AG<182244832(217)-182244838(223)	Incontiguous alignmentSplice site validations failed
gmap	TRINITY_DN193550_c1_g1_i5	795	90	8	3	+	?	ERROR	129649011-129671817	93.0617283950617	38.1176470588235	0	orient(a+/s?) align: 129649011(1)-129649293(281)>GT....AT<129651912(282)-129651921(291)>CT....tg<129671785(293)-129671817(325)	Incontiguous alignmentSplice site validations failed
gmap	TRINITY_DN200618_c2_g1_i1	987	117	8	1	-	?	ERROR	37756974-37757432	91	51.5016685205784	42133	orient(a-/s?) align: 37756974(899)-37757432(437)	Only 51.5016685205784 % is aligned, less than the 70 required.
gmap	TRINITY_DN204928_c1_g2_i1	1217	155	8	1	+	?	ERROR	9275728-9275778	84	7.16292134831461	4284	orient(a+/s?) align: 9275728(347)-9275778(397)	Only 7.16292134831461 % is aligned, less than the 70 required.
gmap	TRINITY_DN206008_c4_g1_i1	1284	166	8	1	+	?	OK	128228370-128229005	90	74.8820754716981	57150	orient(a+/s?) align: 128228370(3)-128229005(637)	
gmap	TRINITY_DN208114_c3_g11_i1	1435	186	8	1	+	?	ERROR	179528519-179528775	85	36.390977443609	20570	orient(a+/s?) align: 179528519(413)-179528775(654)	Only 36.390977443609 % is aligned, less than the 70 required.
gmap	TRINITY_DN208649_c2_g9_i2	1467	190	8	2	-	-	ERROR	47567505-47567863	95.7462686567164	37.4301675977654	19245	orient(a-/s-) align: 47567505(201)-47567567(139)>CT....AC<47567726(138)-47567863(1)	Only 37.4301675977654 % is aligned, less than the 70 required.
gmap	TRINITY_DN208688_c5_g2_i1	1468	195	8	1	-	?	ERROR	126199278-126199380	82	12.059765208111	9266	orient(a-/s?) align: 126199278(113)-126199380(1)	Only 12.059765208111 % is aligned, less than the 70 required.
gmap	TRINITY_DN208688_c5_g2_i1	1468	196	8	4	-	?	ERROR	126199286-126207240	84.636476426799	86.0192102454643	0	orient(a-/s?) align: 126199286(937)-126199424(797)>CT....AC<126199645(796)-126199818(608)>ca....AC<126205527(597)-126205902(194)>ca....cc<126207176(185)-126207240(114)	Incontiguous alignmentSplice site validations failed
gmap	TRINITY_DN209587_c5_g4_i5	1543	213	8	1	+	?	ERROR	123486739-123486966	84	38.3193277310924	19152	orient(a+/s?) align: 123486739(111)-123486966(338)	Only 38.3193277310924 % is aligned, less than the 70 required.
gmap	TRINITY_DN209587_c5_g4_i3	1542	216	8	1	+	?	ERROR	123486739-123486966	84	43.4285714285714	19152	orient(a+/s?) align: 123486739(111)-123486966(338)	Only 43.4285714285714 % is aligned, less than the 70 required.
gmap	TRINITY_DN210419_c0_g5_i8	1614	230	8	1	-	?	ERROR	117595707-117595877	84	30.5605786618445	14196	orient(a-/s?) align: 117595707(294)-117595877(126)	Only 30.5605786618445 % is aligned, less than the 70 required.
gmap	TRINITY_DN210972_c0_g7_i6	1654	246	8	1	-	?	ERROR	176131506-176132045	83	38.3048620236531	48389	orient(a-/s?) align: 176131506(1321)-176132045(739)	Only 38.3048620236531 % is aligned, less than the 70 required.
gmap	TRINITY_DN212401_c2_g3_i1	1817	274	8	2	-	-	ERROR	22119646-22120479	77.484076433121	27.2333044232437	24330	orient(a-/s-) align: 22119646(691)-22119862(438)>CT....AC<22120420(437)-22120479(378)	Only 27.2333044232437 % is aligned, less than the 70 required.
gmap	TRINITY_DN215467_c7_g4_i4	2094	335	8	1	+	?	ERROR	143892360-143892636	87	35.4430379746835	24360	orient(a+/s?) align: 143892360(295)-143892636(574)	Only 35.4430379746835 % is aligned, less than the 70 required.
gmap	TRINITY_DN216982_c9_g1_i3	2198	347	8	2	+	+	ERROR	164917936-164918476	82.6923076923077	43.6241610738255	0	orient(a+/s+) align: 164917936(397)-164918241(671)>GC....AG<164918427(677)-164918476(726)	Incontiguous alignment
#prog	acc	cluster_link_id	align_id	scaffold	num_segs	aligned_orient	spliced_orient	alignment_valid	coord_span	avg_per_ID	per_len_aligned	score	alignment	validation_comment
gmap	TRINITY_DN111599_c0_g1_i1	131	14	9	1	-	?	ERROR	5957883-5958001	85	20.2725724020443	10115	orient(a-/s?) align: 5957883(119)-5958001(1)	Only 20.2725724020443 % is aligned, less than the 70 required.
gmap	TRINITY_DN84518_c0_g1_i1	65	18	9	1	+	?	OK	65020024-65020611	83	90.684133915575	51709	orient(a+/s?) align: 65020024(65)-65020611(687)	
gmap	TRINITY_DN181823_c0_g3_i1	555	66	9	1	+	?	ERROR	4161121-4161211	94	17.5238095238095	8648	orient(a+/s?) align: 4161121(434)-4161211(525)	Only 17.5238095238095 % is aligned, less than the 70 required.
gmap	TRINITY_DN178799_c0_g1_i1	524	67	9	4	-	?	ERROR	115805598-115819772	89.4493006993007	80.1120448179272	0	orient(a-/s?) align: 115805598(609)-115805624(583)>ca....gg<115806289(582)-115806674(195)>CT....AC<115806788(194)-115806889(94)>AT....tg<115819711(93)-115819772(38)	Splice site validations failed
gmap	TRINITY_DN179759_c2_g2_i2	543	72	9	1	+	?	ERROR	120555539-120555656	82	13.3625410733844	10004	orient(a+/s?) align: 120555539(112)-120555656(233)	Only 13.3625410733844 % is aligned, less than the 70 required.
gmap	TRINITY_DN202554_c0_g5_i2	1080	139	9	1	+	?	ERROR	8708490-8708712	92	21.3051823416507	20424	orient(a+/s?) align: 8708490(98)-8708712(319)	Only 21.3051823416507 % is aligned, less than the 70 required.
gmap	TRINITY_DN203936_c2_g5_i7	1154	148	9	2	-	-	ERROR	12778048-12778567	80.4769230769231	31.3404050144648	26155	orient(a-/s-) align: 12778048(767)-12778165(653)>CT....AC<12778349(652)-12778567(443)	Only 31.3404050144648 % is aligned, less than the 70 required.
gmap	TRINITY_DN206264_c0_g6_i2	1308	181	9	1	+	?	ERROR	105906175-105906673	84	40.5551272166538	44184	orient(a+/s?) align: 105906175(1)-105906673(526)	Only 40.5551272166538 % is aligned, less than the 70 required.
gmap	TRINITY_DN209297_c1_g1_i1	1517	197	9	4	+	?	ERROR	89765845-89768491	81.079634464752	99.8696219035202	0	orient(a+/s?) align: 89765845(2)-89765980(140)>GT....AG<89766168(141)-89766366(341)>tt....ct<89766477(342)-89766622(487)>GT....AG<89768210(488)-89768491(767)	Splice site validations failed
gmap	TRINITY_DN209247_c0_g2_i1	1510	198	9	1	-	?	ERROR	89856531-89856899	87	25.6410256410256	32190	orient(a-/s?) align: 89856531(436)-89856899(67)	Only 25.6410256410256 % is aligned, less than the 70 required.
gmap	TRINITY_DN209247_c0_g2_i3	1511	200	9	1	-	?	ERROR	89856274-89856899	82	54.735883424408	49282	orient(a-/s?) align: 89856274(667)-89856899(67)	Only 54.735883424408 % is aligned, less than the 70 required.
gmap	TRINITY_DN209636_c8_g2_i3	1546	222	9	1	+	?	ERROR	55603439-55603559	88	23.3082706766917	10912	orient(a+/s?) align: 55603439(76)-55603559(199)	Only 23.3082706766917 % is aligned, less than the 70 required.
gmap	TRINITY_DN210113_c6_g2_i2	1599	240	9	4	-	?	ERROR	51756002-51756268	83.5951219512195	7.70676691729323	0	orient(a-/s?) align: 51756002(1903)-51756140(1765)>GT....gg<51756198(1722)-51756203(1717)>ca....ca<51756206(1714)-51756215(1705)>cc....cc<51756218(1702)-51756268(1653)	Incontiguous alignmentSplice site validations failed
gmap	TRINITY_DN211809_c7_g1_i7	1740	250	9	1	+	?	ERROR	66202133-66202319	83	29.5055821371611	15355	orient(a+/s?) align: 66202133(443)-66202319(627)	Only 29.5055821371611 % is aligned, less than the 70 required.
gmap	TRINITY_DN211931_c2_g1_i1	1745	252	9	1	+	?	ERROR	4734978-4735318	82	61.2208258527828	27962	orient(a+/s?) align: 4734978(128)-4735318(468)	Only 61.2208258527828 % is aligned, less than the 70 required.
gmap	TRINITY_DN211900_c0_g4_i4	1744	255	9	1	-	?	ERROR	38809309-38810061	84	69.9346405228758	62916	orient(a-/s?) align: 38809309(774)-38810061(26)	Only 69.9346405228758 % is aligned, less than the 70 required.
gmap	TRINITY_DN211809_c8_g2_i7	1741	259	9	1	-	?	ERROR	98614647-98614738	91	13.8845553822153	8099	orient(a-/s?) align: 98614647(641)-98614738(553)	Only 13.8845553822153 % is aligned, less than the 70 required.
gmap	TRINITY_DN213398_c4_g1_i4	1912	278	9	1	+	?	ERROR	89450119-89450607	83	54.8022598870056	40255	orient(a+/s?) align: 89450119(379)-89450607(863)	Only 54.8022598870056 % is aligned, less than the 70 required.
gmap	TRINITY_DN210328_c5_g13_i4	1613	301	9	1	-	?	ERROR	106377743-106378047	88	9.21131848284166	26928	orient(a-/s?) align: 106377743(3282)-106378047(2977)	Only 9.21131848284166 % is aligned, less than the 70 required.
gmap	TRINITY_DN215394_c1_g4_i3	2093	307	9	1	-	?	OK	34967014-34968114	88	99.910071942446	97768	orient(a-/s?) align: 34967014(1112)-34968114(2)	
gmap	TRINITY_DN215086_c0_g3_i7	2055	333	9	3	-	?	ERROR	72437507-72437802	77.8785425101215	19.7916666666667	0	orient(a-/s?) align: 72437507(1131)-72437569(1069)>tg....ga<72437593(1059)-72437621(1031)>gg....ta<72437657(1017)-72437802(863)	Incontiguous alignmentSplice site validations failed
gmap	TRINITY_DN215086_c0_g3_i3	2054	336	9	3	-	?	ERROR	72437507-72437802	77.8785425101215	19.8393574297189	0	orient(a-/s?) align: 72437507(1128)-72437569(1066)>tg....ga<72437593(1056)-72437621(1028)>gg....ta<72437657(1014)-72437802(860)	Incontiguous alignmentSplice site validations failed
gmap	TRINITY_DN212732_c0_g2_i2	1854	360	9	7	-	?	ERROR	9850197-9882555	79.7983493810179	73.6724766923389	0	orient(a-/s?) align: 9850197(3700)-9850204(3693)>tc....cg<9862814(3691)-9862824(3681)>tt....ta<9862829(3676)-9862835(3656)>CT....cc<9864679(3644)-9864698(3584)>aa....gg<9865829(3579)-9865850(3510)>GT....AG<9879023(3509)-9879088(3445)>GT....AG<9879196(3444)-9882555(46)	Incontiguous alignmentSplice site validations failed
gmap	TRINITY_DN212732_c0_g2_i7	1855	365	9	1	-	?	ERROR	9880418-9882648	80	45.9274193548387	182240	orient(a-/s?) align: 9880418(2308)-9882648(31)	Only 45.9274193548387 % is aligned, less than the 70 required.
#prog	acc	cluster_link_id	align_id	scaffold	num_segs	aligned_orient	spliced_orient	alignment_valid	coord_span	avg_per_ID	per_len_aligned	score	alignment	validation_comment
gmap	TRINITY_DN166148_c0_g5_i2	380	38	scaffold23865	1	+	?	ERROR	909-1282	97	52.4822695035461	35890	orient(a+/s?) align: 909(336)-1282(705)	Only 52.4822695035461 % is aligned, less than the 70 required.
#prog	acc	cluster_link_id	align_id	scaffold	num_segs	aligned_orient	spliced_orient	alignment_valid	coord_span	avg_per_ID	per_len_aligned	score	alignment	validation_comment
gmap	TRINITY_DN210884_c5_g7_i6	1646	241	scaffold24823	1	+	?	ERROR	1089-1276	87	16.7106420404573	16530	orient(a+/s?) align: 1089(811)-1276(1000)	Only 16.7106420404573 % is aligned, less than the 70 required.
gmap	TRINITY_DN210884_c5_g7_i1	1644	265	scaffold24823	1	+	?	ERROR	1089-1276	87	18.0952380952381	16530	orient(a+/s?) align: 1089(724)-1276(913)	Only 18.0952380952381 % is aligned, less than the 70 required.
#prog	acc	cluster_link_id	align_id	scaffold	num_segs	aligned_orient	spliced_orient	alignment_valid	coord_span	avg_per_ID	per_len_aligned	score	alignment	validation_comment
gmap	TRINITY_DN185494_c1_g1_i1	608	105	scaffold27266	1	-	?	ERROR	802-822	14	3.83265856950067	1988	orient(a-/s?) align: 802(1509)-822(1368)	Only 3.83265856950067 % is aligned, less than the 70 required.
gmap	TRINITY_DN185494_c1_g1_i4	611	110	scaffold27266	1	-	?	ERROR	802-822	14	3.78363975486278	1988	orient(a-/s?) align: 802(1509)-822(1368)	Only 3.78363975486278 % is aligned, less than the 70 required.
gmap	TRINITY_DN185494_c1_g1_i3	610	115	scaffold27266	1	-	?	ERROR	802-822	14	4.12431019459773	1988	orient(a-/s?) align: 802(1509)-822(1368)	Only 4.12431019459773 % is aligned, less than the 70 required.
gmap	TRINITY_DN185494_c1_g1_i7	613	125	scaffold27266	1	-	?	ERROR	802-822	14	4.0957600230747	1988	orient(a-/s?) align: 802(1533)-822(1392)	Only 4.0957600230747 % is aligned, less than the 70 required.
gmap	TRINITY_DN185494_c1_g1_i8	614	128	scaffold27266	1	-	?	ERROR	802-822	14	3.80799141861089	1988	orient(a-/s?) align: 802(1533)-822(1392)	Only 3.80799141861089 % is aligned, less than the 70 required.
#prog	acc	cluster_link_id	align_id	scaffold	num_segs	aligned_orient	spliced_orient	alignment_valid	coord_span	avg_per_ID	per_len_aligned	score	alignment	validation_comment
gmap	TRINITY_DN201712_c2_g2_i2	1044	122	scaffold29918	1	+	?	ERROR	4673-4836	85	29.4755877034358	13855	orient(a+/s?) align: 4673(2)-4836(164)	Only 29.4755877034358 % is aligned, less than the 70 required.
#prog	acc	cluster_link_id	align_id	scaffold	num_segs	aligned_orient	spliced_orient	alignment_valid	coord_span	avg_per_ID	per_len_aligned	score	alignment	validation_comment
gmap	TRINITY_DN265825_c0_g1_i1	2292	348	scaffold31131	1	-	?	OK	1416-2030	95	100	57950	orient(a-/s?) align: 1416(610)-2030(1)	
#prog	acc	cluster_link_id	align_id	scaffold	num_segs	aligned_orient	spliced_orient	alignment_valid	coord_span	avg_per_ID	per_len_aligned	score	alignment	validation_comment
gmap	TRINITY_DN206142_c1_g1_i1	1295	178	scaffold31676	1	+	?	ERROR	1816-2100	72	23.8095238095238	17280	orient(a+/s?) align: 1816(310)-2100(549)	Only 23.8095238095238 % is aligned, less than the 70 required.
#prog	acc	cluster_link_id	align_id	scaffold	num_segs	aligned_orient	spliced_orient	alignment_valid	coord_span	avg_per_ID	per_len_aligned	score	alignment	validation_comment
gmap	TRINITY_DN211417_c3_g3_i3	1689	254	scaffold34318	1	+	?	ERROR	27-268	85	23.7762237762238	20230	orient(a+/s?) align: 27(133)-268(370)	Only 23.7762237762238 % is aligned, less than the 70 required.
#prog	acc	cluster_link_id	align_id	scaffold	num_segs	aligned_orient	spliced_orient	alignment_valid	coord_span	avg_per_ID	per_len_aligned	score	alignment	validation_comment
gmap	TRINITY_DN215164_c4_g1_i2	2065	306	scaffold40841	1	-	?	ERROR	972-995	100	2.42914979757085	2400	orient(a-/s?) align: 972(483)-995(460)	Only 2.42914979757085 % is aligned, less than the 70 required.
#prog	acc	cluster_link_id	align_id	scaffold	num_segs	aligned_orient	spliced_orient	alignment_valid	coord_span	avg_per_ID	per_len_aligned	score	alignment	validation_comment
gmap	TRINITY_DN88270_c0_g1_i1	74	11	scaffold5528	1	+	?	ERROR	1029-1054	96	4.6594982078853	2496	orient(a+/s?) align: 1029(144)-1054(169)	Only 4.6594982078853 % is aligned, less than the 70 required.

Completed.
