#prog	acc	cluster_link_id	align_id	scaffold	num_segs	aligned_orient	spliced_orient	alignment_valid	coord_span	avg_per_ID	per_len_aligned	score	alignment	validation_comment
gmap	TRINITY_DN208649_c2_g9_i2	1467	149	C9780791	2	-	-	ERROR	2471-2829	95.7462686567164	37.4301675977654	19245	orient(a-/s-) align: 2471(201)-2533(139)>CT....AC<2692(138)-2829(1)	Only 37.4301675977654 % is aligned, less than the 70 required.
#prog	acc	cluster_link_id	align_id	scaffold	num_segs	aligned_orient	spliced_orient	alignment_valid	coord_span	avg_per_ID	per_len_aligned	score	alignment	validation_comment
gmap	TRINITY_DN84518_c0_g1_i1	65	4	chr1	1	+	?	ERROR	88795659-88795713	86	8.44250363901019	4988	orient(a+/s?) align: 88795659(7)-88795713(64)	Only 8.44250363901019 % is aligned, less than the 70 required.
gmap	TRINITY_DN101602_c1_g1_i1	110	8	chr1	1	+	?	ERROR	157469663-157469915	99	47.4671669793621	25047	orient(a+/s?) align: 157469663(1)-157469915(253)	Only 47.4671669793621 % is aligned, less than the 70 required.
gmap	TRINITY_DN122951_c0_g2_i1	149	14	chr1	1	-	?	ERROR	48771987-48772379	87	62.5585023400936	34887	orient(a-/s?) align: 48771987(641)-48772379(241)	Only 62.5585023400936 % is aligned, less than the 70 required.
gmap	TRINITY_DN166630_c1_g1_i1	384	39	chr1	1	+	?	ERROR	87633901-87634164	83	49.3307839388145	21414	orient(a+/s?) align: 87633901(10)-87634164(267)	Only 49.3307839388145 % is aligned, less than the 70 required.
gmap	TRINITY_DN172149_c0_g3_i1	427	45	chr1	1	-	?	ERROR	88422234-88422524	76	68.958742632613	26676	orient(a-/s?) align: 88422234(509)-88422524(159)	Only 68.958742632613 % is aligned, less than the 70 required.
gmap	TRINITY_DN177081_c0_g4_i1	500	57	chr1	3	-	?	ERROR	204504250-204504936	76.239332096475	99.2633517495396	0	orient(a-/s?) align: 204504250(543)-204504347(463)>tc....ca<204504527(462)-204504543(446)>AT....tt<204504548(441)-204504936(1)	Incontiguous alignmentSplice site validations failed
gmap	TRINITY_DN192407_c0_g1_i1	763	82	chr1	1	-	?	ERROR	166795836-166795950	78	22.156862745098	8814	orient(a-/s?) align: 166795836(128)-166795950(16)	Only 22.156862745098 % is aligned, less than the 70 required.
gmap	TRINITY_DN192407_c0_g1_i1	763	83	chr1	2	+	+	ERROR	135252348-135252679	67.5968586387435	74.9019607843137	25822	orient(a+/s+) align: 135252348(129)-135252486(269)>GT....AG<135252528(270)-135252679(510)	Only 67.5968586387435 % identity on average, less than the 80 required.
gmap	TRINITY_DN196530_c0_g1_i4	873	89	chr1	1	-	?	ERROR	27306232-27306253	100	3.08988764044944	2200	orient(a-/s?) align: 27306232(24)-27306253(3)	Only 3.08988764044944 % is aligned, less than the 70 required.
gmap	TRINITY_DN201264_c0_g1_i2	1029	106	chr1	1	+	?	ERROR	124969972-124970180	84	31.1688311688312	18144	orient(a+/s?) align: 124969972(69)-124970180(284)	Only 31.1688311688312 % is aligned, less than the 70 required.
gmap	TRINITY_DN202871_c1_g2_i11	1088	111	chr1	6	-	?	ERROR	100921223-100941605	82.4264705882353	19.1954834156669	0	orient(a-/s?) align: 100921223(531)-100921442(312)>tg....gt<100933022(289)-100933031(280)>tt....ta<100934909(279)-100934920(268)>tt....GC<100937691(262)-100937702(251)>aa....ct<100938962(248)-100938971(239)>aa....ga<100941598(238)-100941605(231)	Incontiguous alignmentSplice site validations failed
gmap	TRINITY_DN203500_c2_g3_i1	1109	117	chr1	2	-	?	ERROR	54485781-54485971	72.9150326797386	24.6774193548387	0	orient(a-/s?) align: 54485781(428)-54485874(311)>tg....ga<54485929(286)-54485971(252)	Incontiguous alignmentSplice site validations failed
gmap	TRINITY_DN204655_c0_g1_i9	1209	119	chr1	1	+	?	OK	8050204-8050953	89	81.5931108719053	67462	orient(a+/s?) align: 8050204(1)-8050953(758)	
gmap	TRINITY_DN204655_c0_g1_i9	1209	120	chr1	1	+	?	ERROR	8050196-8050362	83	18.4068891280947	14193	orient(a+/s?) align: 8050196(759)-8050362(929)	Only 18.4068891280947 % is aligned, less than the 70 required.
gmap	TRINITY_DN204946_c1_g1_i4	1218	122	chr1	1	-	?	ERROR	100550-100623	100	8.67526377491208	7400	orient(a-/s?) align: 100550(853)-100623(780)	Only 8.67526377491208 % is aligned, less than the 70 required.
gmap	TRINITY_DN197825_c0_g1_i3	917	124	chr1	1	-	?	ERROR	175677801-175677997	85	31.4754098360656	16320	orient(a-/s?) align: 175677801(286)-175677997(95)	Only 31.4754098360656 % is aligned, less than the 70 required.
gmap	TRINITY_DN206715_c5_g2_i1	1341	141	chr1	2	-	-	ERROR	37240861-37260388	83.7084548104956	46.4769647696477	28712	orient(a-/s-) align: 37240861(631)-37240887(605)>GT....AT<37260071(604)-37260388(289)	Only 46.4769647696477 % is aligned, less than the 70 required.
gmap	TRINITY_DN208064_c3_g4_i1	1432	146	chr1	6	+	?	ERROR	135543550-135623215	91.9147766323024	90.71072319202	0	orient(a+/s?) align: 135543550(65)-135544026(530)>CT....AC<135544158(531)-135544531(910)>tg....GC<135545603(950)-135545650(1004)>tt....tc<135545777(1005)-135545974(1201)>CT....gt<135620246(1202)-135620390(1346)>tt....ca<135623010(1393)-135623215(1604)	Incontiguous alignmentSplice site validations failed
gmap	TRINITY_DN208548_c2_g1_i1	1457	148	chr1	2	+	+	ERROR	36147636-36148137	88.8677685950413	61.5776081424936	43012	orient(a+/s+) align: 36147636(1)-36147861(226)>GT....AG<36147876(227)-36148137(484)	Intron length is less than the minimum intron length allowed (14 < 20, determined between 36147861 and 36147876

gmap	TRINITY_DN209516_c0_g1_i1	1533	164	chr1	2	+	+	ERROR	157906314-157906690	87.4961832061069	43.163097199341	22924	orient(a+/s+) align: 157906314(346)-157906554(579)>GT....AG<157906663(580)-157906690(607)	Only 43.163097199341 % is aligned, less than the 70 required.
gmap	TRINITY_DN209940_c1_g7_i7	1575	170	chr1	1	+	?	ERROR	96585281-96585348	86	11.663807890223	5848	orient(a+/s?) align: 96585281(19)-96585348(86)	Only 11.663807890223 % is aligned, less than the 70 required.
gmap	TRINITY_DN211417_c3_g3_i3	1689	190	chr1	1	+	?	ERROR	135671441-135671737	87	29.3706293706294	25578	orient(a+/s?) align: 135671441(130)-135671737(423)	Only 29.3706293706294 % is aligned, less than the 70 required.
gmap	TRINITY_DN211886_c6_g6_i1	1742	193	chr1	3	+	?	ERROR	190759981-190762773	85.2842012356575	99.3859649122807	0	orient(a+/s?) align: 190759981(7)-190760654(745)>CT....ga<190762268(746)-190762463(938)>CT....AC<190762574(939)-190762773(1139)	Splice site validations failed
gmap	TRINITY_DN211886_c6_g6_i3	1743	194	chr1	2	+	+	OK	190759981-190762417	85.562150055991	99.3325917686318	76407	orient(a+/s+) align: 190759981(7)-190760658(744)>GT....AG<190762267(745)-190762417(899)	
gmap	TRINITY_DN212385_c1_g1_i3	1820	202	chr1	1	-	?	ERROR	66988430-66988682	75	17.5644028103045	16875	orient(a-/s?) align: 66988430(226)-66988682(2)	Only 17.5644028103045 % is aligned, less than the 70 required.
gmap	TRINITY_DN213136_c8_g4_i10	1890	204	chr1	3	-	?	ERROR	128971756-128990313	85.1417218543046	95.8121827411167	0	orient(a-/s?) align: 128971756(1511)-128972471(792)>ac....cc<128987872(791)-128987894(756)>ga....GC<128989548(755)-128990313(2)	Splice site validations failed
gmap	TRINITY_DN213136_c8_g4_i10	1890	205	chr1	1	+	?	ERROR	129016497-129016561	96	4.1243654822335	6240	orient(a+/s?) align: 129016497(1512)-129016561(1576)	Only 4.1243654822335 % is aligned, less than the 70 required.
gmap	TRINITY_DN213913_c0_g6_i1	1952	214	chr1	1	-	?	ERROR	14518249-14518650	88	62.9283489096573	35552	orient(a-/s?) align: 14518249(642)-14518650(239)	Only 62.9283489096573 % is aligned, less than the 70 required.
gmap	TRINITY_DN211021_c7_g8_i1	1658	217	chr1	1	-	?	ERROR	161380586-161380815	83	16.8727272727273	19256	orient(a-/s?) align: 161380586(1364)-161380815(1133)	Only 16.8727272727273 % is aligned, less than the 70 required.
gmap	TRINITY_DN217165_c1_g6_i2	2210	245	chr1	1	+	?	OK	169979793-169980320	87	97.1428571428571	47328	orient(a+/s?) align: 169979793(17)-169980320(560)	
gmap	TRINITY_DN217249_c3_g3_i5	2216	248	chr1	1	-	?	ERROR	19117152-19117365	80	35.5083459787557	18720	orient(a-/s?) align: 19117152(294)-19117365(61)	Only 35.5083459787557 % is aligned, less than the 70 required.
gmap	TRINITY_DN214264_c1_g9_i3	1973	272	chr1	5	+	?	ERROR	135292140-135307606	100	2.5938566552901	0	orient(a+/s?) align: 135292140(941)-135292146(947)>GT....ta<135292472(950)-135292472(950)>cc....ca<135298106(955)-135298117(966)>ga....ct<135300069(968)-135300077(976)>ga....ta<135307598(979)-135307606(987)	Incontiguous alignmentSplice site validations failed
#prog	acc	cluster_link_id	align_id	scaffold	num_segs	aligned_orient	spliced_orient	alignment_valid	coord_span	avg_per_ID	per_len_aligned	score	alignment	validation_comment
gmap	TRINITY_DN122951_c0_g2_i1	149	13	chr10	1	-	?	ERROR	87582779-87582895	93	18.2527301092044	10881	orient(a-/s?) align: 87582779(240)-87582895(124)	Only 18.2527301092044 % is aligned, less than the 70 required.
gmap	TRINITY_DN183855_c0_g1_i1	584	65	chr10	3	+	?	ERROR	42138054-42138514	68.8543689320388	81.5841584158416	0	orient(a+/s?) align: 42138054(8)-42138120(61)>aa....tc<42138151(77)-42138346(289)>aa....cg<42138361(294)-42138514(438)	Incontiguous alignmentSplice site validations failed
gmap	TRINITY_DN200749_c0_g1_i4	995	93	chr10	1	-	?	ERROR	60744177-60744323	80	14.3700787401575	11680	orient(a-/s?) align: 60744177(1012)-60744323(867)	Only 14.3700787401575 % is aligned, less than the 70 required.
gmap	TRINITY_DN200749_c0_g1_i5	996	95	chr10	1	-	?	ERROR	60744177-60744323	80	15.6652360515021	11680	orient(a-/s?) align: 60744177(928)-60744323(783)	Only 15.6652360515021 % is aligned, less than the 70 required.
gmap	TRINITY_DN206704_c0_g5_i1	1337	133	chr10	6	-	?	ERROR	42138640-42169286	88.9742268041237	65.3198653198653	0	orient(a-/s?) align: 42138640(429)-42138648(421)>ca....tc<42152454(420)-42152460(414)>GC....ct<42162762(408)-42162763(403)>tg....cc<42168246(375)-42168251(370)>ag....AG<42168254(360)-42168472(149)>CT....AC<42169136(148)-42169286(1)	Incontiguous alignmentSplice site validations failed
gmap	TRINITY_DN206704_c0_g5_i1	1337	134	chr10	1	-	?	ERROR	42168166-42168230	55	18.6868686868687	6105	orient(a-/s?) align: 42168166(540)-42168230(430)	Only 18.6868686868687 % is aligned, less than the 70 required.
gmap	TRINITY_DN208083_c0_g1_i2	1433	174	chr10	1	-	?	ERROR	10547956-10548022	98	13.0097087378641	6566	orient(a-/s?) align: 10547956(67)-10548022(1)	Only 13.0097087378641 % is aligned, less than the 70 required.
gmap	TRINITY_DN215706_c3_g2_i1	2113	233	chr10	14	-	?	ERROR	13643462-13737213	77.3410404624277	74.5689655172414	0	orient(a-/s?) align: 13643462(575)-13643601(422)>ta....tc<13643845(421)-13643896(376)>GT....ga<13644132(375)-13644203(308)>ca....AT<13676495(304)-13676520(279)>CT....gg<13687160(268)-13687165(263)>tg....AT<13687182(236)-13687192(226)>tc....cc<13691420(221)-13691428(213)>ag....ta<13706281(212)-13706287(206)>CT....ta<13711157(205)-13711170(192)>ga....gt<13711927(189)-13711933(183)>CT....AC<13717072(182)-13717114(156)>GT....ta<13717327(155)-13717347(132)>ac....tg<13717486(128)-13717492(122)>AT....gg<13737092(116)-13737213(4)	Incontiguous alignmentSplice site validations failed
#prog	acc	cluster_link_id	align_id	scaffold	num_segs	aligned_orient	spliced_orient	alignment_valid	coord_span	avg_per_ID	per_len_aligned	score	alignment	validation_comment
gmap	TRINITY_DN24455_c0_g1_i1	17	3	chr2	1	+	?	ERROR	141416311-141416531	85	36.2393162393162	18020	orient(a+/s?) align: 141416311(37)-141416531(248)	Only 36.2393162393162 % is aligned, less than the 70 required.
gmap	TRINITY_DN91862_c0_g1_i1	87	7	chr2	1	-	?	ERROR	121098225-121098246	100	3.12944523470839	2200	orient(a-/s?) align: 121098225(102)-121098246(81)	Only 3.12944523470839 % is aligned, less than the 70 required.
gmap	TRINITY_DN86950_c0_g2_i1	71	9	chr2	6	+	?	ERROR	100018165-100055019	90.7558139534884	25.9426847662142	0	orient(a+/s?) align: 100018165(1)-100018265(101)>aa....tg<100018296(103)-100018348(141)>AT....gt<100048617(142)-100048622(147)>tt....aa<100049812(150)-100049820(158)>CT....AT<100054994(160)-100055001(167)>aa....AT<100055011(169)-100055019(177)	Incontiguous alignmentSplice site validations failed
gmap	TRINITY_DN140059_c0_g1_i1	212	20	chr2	1	-	?	ERROR	119458633-119458710	97	8.87372013651877	7566	orient(a-/s?) align: 119458633(879)-119458710(802)	Only 8.87372013651877 % is aligned, less than the 70 required.
gmap	TRINITY_DN157526_c0_g1_i1	311	29	chr2	1	-	?	ERROR	140466314-140466868	79	96.6019417475728	47163	orient(a-/s?) align: 140466314(597)-140466868(1)	Only 79 % identity on average, less than the 80 required.
gmap	TRINITY_DN173441_c1_g1_i1	442	52	chr2	1	+	?	ERROR	42935787-42935937	80	20.6849315068493	12080	orient(a+/s?) align: 42935787(580)-42935937(730)	Only 20.6849315068493 % is aligned, less than the 70 required.
gmap	TRINITY_DN176229_c0_g1_i3	486	60	chr2	1	-	?	ERROR	85834180-85834280	99	13.2198952879581	9999	orient(a-/s?) align: 85834180(764)-85834280(664)	Only 13.2198952879581 % is aligned, less than the 70 required.
gmap	TRINITY_DN176717_c1_g1_i3	495	62	chr2	1	+	?	ERROR	9298600-9298662	92	8.32157968970381	5428	orient(a+/s?) align: 9298600(1)-9298662(59)	Only 8.32157968970381 % is aligned, less than the 70 required.
gmap	TRINITY_DN192114_c0_g1_i1	755	75	chr2	1	+	?	OK	15472265-15472971	90	88.7667887667888	65430	orient(a+/s?) align: 15472265(1)-15472971(727)	
gmap	TRINITY_DN193487_c1_g1_i2	791	79	chr2	1	-	?	ERROR	115636624-115636661	92	4	3496	orient(a-/s?) align: 115636624(504)-115636661(467)	Only 4 % is aligned, less than the 70 required.
gmap	TRINITY_DN199292_c2_g1_i1	956	91	chr2	3	+	?	ERROR	110661184-110661754	84.0146198830409	42.6966292134831	0	orient(a+/s?) align: 110661184(186)-110661393(400)>aa....tg<110661588(408)-110661597(417)>cc....cg<110661634(438)-110661754(554)	Incontiguous alignmentSplice site validations failed
gmap	TRINITY_DN203430_c2_g3_i1	1111	109	chr2	1	-	?	ERROR	92703628-92703888	84	49.3457943925234	22176	orient(a-/s?) align: 92703628(265)-92703888(2)	Only 49.3457943925234 % is aligned, less than the 70 required.
gmap	TRINITY_DN203502_c4_g7_i4	1119	114	chr2	1	-	?	ERROR	3824718-3824761	90	4.76190476190476	3960	orient(a-/s?) align: 3824718(535)-3824761(492)	Only 4.76190476190476 % is aligned, less than the 70 required.
gmap	TRINITY_DN204563_c1_g1_i3	1204	130	chr2	1	+	?	ERROR	3462958-3463209	77	31.3823163138232	19404	orient(a+/s?) align: 3462958(3)-3463209(254)	Only 31.3823163138232 % is aligned, less than the 70 required.
gmap	TRINITY_DN207719_c0_g1_i1	1401	143	chr2	1	+	?	ERROR	63112032-63112326	80	56.4912280701754	25760	orient(a+/s?) align: 63112032(249)-63112326(570)	Only 56.4912280701754 % is aligned, less than the 70 required.
gmap	TRINITY_DN211931_c2_g1_i1	1745	196	chr2	1	+	?	ERROR	51989623-51989954	82	60.1436265709156	27470	orient(a+/s?) align: 51989623(150)-51989954(484)	Only 60.1436265709156 % is aligned, less than the 70 required.
gmap	TRINITY_DN212046_c4_g1_i3	1771	201	chr2	6	-	?	ERROR	126902178-126903382	83.4089347079038	37.1173469387755	0	orient(a-/s?) align: 126902178(784)-126902228(734)>ta....gt<126902241(721)-126902249(713)>ta....AC<126902643(690)-126902668(665)>cg....ta<126902834(664)-126903009(483)>GC....AG<126903014(478)-126903029(463)>ag....AG<126903376(459)-126903382(453)	Incontiguous alignmentSplice site validations failed
gmap	TRINITY_DN212046_c4_g1_i1	1770	203	chr2	4	-	?	ERROR	126902178-126903029	83.1111111111111	36.1809045226131	0	orient(a-/s?) align: 126902178(796)-126902228(746)>ta....gt<126902241(733)-126902249(725)>ta....AC<126902643(702)-126902668(677)>cg....ta<126902834(676)-126903029(475)	Incontiguous alignmentSplice site validations failed
gmap	TRINITY_DN212915_c3_g2_i8	1864	209	chr2	1	+	?	ERROR	66237891-66237979	85	4.65872156013001	7310	orient(a+/s?) align: 66237891(502)-66237979(587)	Only 4.65872156013001 % is aligned, less than the 70 required.
gmap	TRINITY_DN212915_c3_g2_i12	1867	211	chr2	1	+	?	ERROR	66237891-66237987	85	5.0402144772118	7990	orient(a+/s?) align: 66237891(502)-66237987(595)	Only 5.0402144772118 % is aligned, less than the 70 required.
gmap	TRINITY_DN215261_c1_g12_i5	2082	235	chr2	1	+	?	ERROR	65646004-65646086	92	6.57686212361331	7636	orient(a+/s?) align: 65646004(3)-65646086(85)	Only 6.57686212361331 % is aligned, less than the 70 required.
gmap	TRINITY_DN216903_c1_g4_i3	2191	258	chr2	1	+	?	ERROR	92298703-92298914	66	37.6854599406528	16764	orient(a+/s?) align: 92298703(175)-92298914(428)	Only 37.6854599406528 % is aligned, less than the 70 required.
gmap	TRINITY_DN220657_c1_g1_i1	2258	266	chr2	1	-	?	ERROR	15002523-15002572	96	9.67117988394584	4800	orient(a-/s?) align: 15002523(323)-15002572(274)	Only 9.67117988394584 % is aligned, less than the 70 required.
gmap	TRINITY_DN215261_c1_g12_i3	2081	267	chr2	1	+	?	ERROR	65646004-65646086	92	6.58207771609834	7636	orient(a+/s?) align: 65646004(3)-65646086(85)	Only 6.58207771609834 % is aligned, less than the 70 required.
#prog	acc	cluster_link_id	align_id	scaffold	num_segs	aligned_orient	spliced_orient	alignment_valid	coord_span	avg_per_ID	per_len_aligned	score	alignment	validation_comment
gmap	TRINITY_DN121520_c0_g3_i1	147	18	chr3	2	-	?	ERROR	57258281-57266463	91.9090909090909	8.44709897610922	0	orient(a-/s?) align: 57258281(1149)-57258369(1061)>CT....aa<57266454(1058)-57266463(1049)	Incontiguous alignmentSplice site validations failed
gmap	TRINITY_DN157336_c0_g1_i1	309	27	chr3	1	-	?	OK	28713147-28714310	90	99.746192893401	106110	orient(a-/s?) align: 28713147(1182)-28714310(4)	
gmap	TRINITY_DN174663_c0_g1_i2	472	54	chr3	1	-	?	ERROR	27463092-27463315	89	33.0409356725146	20114	orient(a-/s?) align: 27463092(243)-27463315(18)	Only 33.0409356725146 % is aligned, less than the 70 required.
gmap	TRINITY_DN187853_c1_g3_i1	654	71	chr3	8	+	?	ERROR	67454956-67481659	96.986301369863	11.6987179487179	0	orient(a+/s?) align: 67454956(120)-67454961(125)>CT....tg<67455595(126)-67455601(132)>GT....ca<67455614(143)-67455620(149)>cg....aa<67458517(150)-67458527(160)>AT....tg<67462256(170)-67462256(170)>CT....AC<67471585(173)-67471594(182)>gg....gg<67478191(187)-67478198(194)>ag....tt<67481637(196)-67481659(218)	Incontiguous alignmentSplice site validations failed
gmap	TRINITY_DN190560_c0_g1_i1	711	72	chr3	1	+	?	OK	56944034-56944444	93	78.9168278529981	37944	orient(a+/s?) align: 56944034(2)-56944444(409)	
gmap	TRINITY_DN192114_c0_g1_i1	755	76	chr3	1	-	?	ERROR	132620183-132620282	88	11.1111111111111	8008	orient(a-/s?) align: 132620183(818)-132620282(728)	Only 11.1111111111111 % is aligned, less than the 70 required.
gmap	TRINITY_DN199197_c1_g4_i8	952	102	chr3	2	-	-	ERROR	55722531-55722763	87.2935779816514	20.1665124884366	19030	orient(a-/s-) align: 55722531(218)-55722592(157)>CT....AC<55722605(156)-55722763(1)	Intron length is less than the minimum intron length allowed (12 < 20, determined between 55722592 and 55722605

gmap	TRINITY_DN201604_c6_g4_i1	1042	107	chr3	1	+	?	ERROR	139484511-139484883	80	35.2336448598131	30160	orient(a+/s?) align: 139484511(1)-139484883(377)	Only 35.2336448598131 % is aligned, less than the 70 required.
gmap	TRINITY_DN203883_c0_g1_i11	1148	113	chr3	1	-	?	ERROR	70007808-70007855	91	5.03672612801679	4368	orient(a-/s?) align: 70007808(258)-70007855(211)	Only 5.03672612801679 % is aligned, less than the 70 required.
gmap	TRINITY_DN205104_c0_g1_i3	1228	129	chr3	1	-	?	ERROR	60825198-60825307	83	10.4364326375712	9130	orient(a-/s?) align: 60825198(1054)-60825307(945)	Only 10.4364326375712 % is aligned, less than the 70 required.
gmap	TRINITY_DN206635_c0_g2_i4	1338	136	chr3	1	-	?	ERROR	71394965-71395341	78	47.8260869565217	30888	orient(a-/s?) align: 71394965(714)-71395341(319)	Only 47.8260869565217 % is aligned, less than the 70 required.
gmap	TRINITY_DN207903_c5_g1_i2	1408	140	chr3	1	-	?	ERROR	59447468-59447728	79	34.0588988476312	21014	orient(a-/s?) align: 59447468(266)-59447728(1)	Only 34.0588988476312 % is aligned, less than the 70 required.
gmap	TRINITY_DN207485_c1_g2_i1	1380	147	chr3	1	-	?	ERROR	55719476-55719600	87	15.5107187894073	10701	orient(a-/s?) align: 55719476(142)-55719600(20)	Only 15.5107187894073 % is aligned, less than the 70 required.
gmap	TRINITY_DN207815_c2_g3_i3	1406	151	chr3	1	+	?	ERROR	60409295-60409350	92	4.1304347826087	5244	orient(a+/s?) align: 60409295(1262)-60409350(1318)	Only 4.1304347826087 % is aligned, less than the 70 required.
gmap	TRINITY_DN208802_c1_g2_i3	1473	152	chr3	2	+	+	ERROR	36597599-36606090	83.9430051813471	35.1548269581056	16201	orient(a+/s+) align: 36597599(175)-36597656(225)>GT....AG<36605951(226)-36606090(367)	Only 35.1548269581056 % is aligned, less than the 70 required.
gmap	TRINITY_DN210015_c0_g2_i2	1581	176	chr3	1	-	?	ERROR	101532285-101532319	94	5.3030303030303	3290	orient(a-/s?) align: 101532285(363)-101532319(329)	Only 5.3030303030303 % is aligned, less than the 70 required.
gmap	TRINITY_DN210972_c0_g7_i6	1654	182	chr3	1	+	?	ERROR	132982149-132982262	92	7.55584756898817	10580	orient(a+/s?) align: 132982149(296)-132982262(410)	Only 7.55584756898817 % is aligned, less than the 70 required.
gmap	TRINITY_DN210523_c4_g16_i1	1616	184	chr3	2	-	-	ERROR	135608308-135608960	78.0593900481541	87.6230661040788	48631	orient(a-/s-) align: 135608308(700)-135608435(569)>CT....AC<135608453(568)-135608960(78)	Intron length is less than the minimum intron length allowed (17 < 20, determined between 135608435 and 135608453

gmap	TRINITY_DN211965_c2_g1_i1	1748	208	chr3	2	-	+	ERROR	121991154-121999136	88.5366972477064	36.0927152317881	19301	orient(a-/s+) align: 121991154(599)-121991288(461)>GT....AG<121999058(460)-121999136(382)	Only 36.0927152317881 % is aligned, less than the 70 required.
gmap	TRINITY_DN214164_c2_g6_i6	1964	216	chr3	2	-	-	ERROR	122010375-122010929	79.8553459119497	55.080831408776	38091	orient(a-/s-) align: 122010375(516)-122010447(448)>CT....AC<122010532(447)-122010929(40)	Only 55.080831408776 % is aligned, less than the 70 required.
#prog	acc	cluster_link_id	align_id	scaffold	num_segs	aligned_orient	spliced_orient	alignment_valid	coord_span	avg_per_ID	per_len_aligned	score	alignment	validation_comment
gmap	TRINITY_DN142667_c0_g1_i1	229	23	chr4	1	-	?	ERROR	3990788-3990907	74	15.0252525252525	8806	orient(a-/s?) align: 3990788(711)-3990907(593)	Only 15.0252525252525 % is aligned, less than the 70 required.
gmap	TRINITY_DN158711_c0_g1_i1	317	36	chr4	2	+	-	ERROR	19845022-19845584	67.7559322033898	88.0597014925373	39976	orient(a+/s-) align: 19845022(35)-19845378(403)>CT....AC<19845406(404)-19845584(624)	Only 67.7559322033898 % identity on average, less than the 80 required.
gmap	TRINITY_DN158112_c0_g2_i1	312	38	chr4	1	-	?	ERROR	127237716-127237854	89	20.0867052023121	12371	orient(a-/s?) align: 127237716(425)-127237854(287)	Only 20.0867052023121 % is aligned, less than the 70 required.
gmap	TRINITY_DN163870_c1_g7_i1	367	40	chr4	1	+	?	ERROR	153229553-153229595	75	6.01965601965602	3675	orient(a+/s?) align: 153229553(749)-153229595(797)	Only 6.01965601965602 % is aligned, less than the 70 required.
gmap	TRINITY_DN163870_c1_g3_i1	364	41	chr4	1	+	?	ERROR	153229553-153229595	75	6.44736842105263	3675	orient(a+/s?) align: 153229553(695)-153229595(743)	Only 6.44736842105263 % is aligned, less than the 70 required.
gmap	TRINITY_DN163870_c1_g5_i1	366	42	chr4	1	+	?	ERROR	153229553-153229595	75	6.01965601965602	3675	orient(a+/s?) align: 153229553(749)-153229595(797)	Only 6.01965601965602 % is aligned, less than the 70 required.
gmap	TRINITY_DN177224_c0_g1_i1	501	56	chr4	1	-	?	ERROR	11291165-11291725	69	93.5433070866142	40986	orient(a-/s?) align: 11291165(635)-11291725(42)	Only 69 % identity on average, less than the 80 required.
gmap	TRINITY_DN196531_c0_g2_i3	874	88	chr4	2	-	-	ERROR	75593207-75593584	82.5633802816901	64.5454545454545	29310	orient(a-/s-) align: 75593207(459)-75593464(207)>CT....AC<75593491(206)-75593584(105)	Only 64.5454545454545 % is aligned, less than the 70 required.
gmap	TRINITY_DN201072_c8_g1_i2	1017	101	chr4	2	+	?	ERROR	1530212-1530772	78.5212121212121	96.8688845401174	0	orient(a+/s?) align: 1530212(1)-1530490(237)>ga....ta<1530521(254)-1530772(511)	Incontiguous alignmentSplice site validations failed
gmap	TRINITY_DN201820_c0_g2_i1	1048	104	chr4	1	+	?	ERROR	1437832-1437990	91	22.2689075630252	14469	orient(a+/s?) align: 1437832(474)-1437990(632)	Only 22.2689075630252 % is aligned, less than the 70 required.
gmap	TRINITY_DN203500_c2_g3_i1	1109	116	chr4	1	-	?	ERROR	17274121-17274383	75	40.1612903225806	18675	orient(a-/s?) align: 17274121(251)-17274383(3)	Only 40.1612903225806 % is aligned, less than the 70 required.
gmap	TRINITY_DN204729_c3_g1_i2	1212	127	chr4	1	+	?	ERROR	78387775-78387885	84	6.45348837209302	9324	orient(a+/s?) align: 78387775(814)-78387885(924)	Only 6.45348837209302 % is aligned, less than the 70 required.
gmap	TRINITY_DN209170_c3_g4_i2	1499	162	chr4	1	+	?	ERROR	22666989-22667427	92	42.2521655437921	40388	orient(a+/s?) align: 22666989(1)-22667427(439)	Only 42.2521655437921 % is aligned, less than the 70 required.
gmap	TRINITY_DN209940_c1_g7_i7	1575	171	chr4	1	+	?	OK	31243517-31243989	84	85.2487135506003	41748	orient(a+/s?) align: 31243517(87)-31243989(583)	
gmap	TRINITY_DN215117_c1_g1_i1	2066	228	chr4	1	-	?	ERROR	152996711-152996888	77	35.8974358974359	16170	orient(a-/s?) align: 152996711(584)-152996888(375)	Only 35.8974358974359 % is aligned, less than the 70 required.
gmap	TRINITY_DN215261_c1_g12_i5	2082	236	chr4	6	+	?	ERROR	29094038-29130199	92.269592476489	25.2773375594295	0	orient(a+/s?) align: 29094038(86)-29094310(359)>GT....gg<29108058(362)-29108069(373)>ga....GC<29120193(376)-29120203(386)>aa....ga<29123472(390)-29123481(399)>tg....cc<29125948(403)-29125948(403)>gg....cc<29130189(408)-29130199(418)	Incontiguous alignmentSplice site validations failed
gmap	TRINITY_DN216903_c1_g4_i3	2191	257	chr4	1	+	?	ERROR	4315873-4316037	86	25.8160237388724	14964	orient(a+/s?) align: 4315873(1)-4316037(174)	Only 25.8160237388724 % is aligned, less than the 70 required.
gmap	TRINITY_DN217587_c17_g2_i2	2251	259	chr4	1	-	?	ERROR	62331290-62331516	88	28.4105131414268	19976	orient(a-/s?) align: 62331290(282)-62331516(56)	Only 28.4105131414268 % is aligned, less than the 70 required.
gmap	TRINITY_DN215261_c1_g12_i3	2081	268	chr4	6	+	?	ERROR	29094038-29130199	92.269592476489	25.2973830293418	0	orient(a+/s?) align: 29094038(86)-29094310(359)>GT....gg<29108058(361)-29108069(372)>ga....GC<29120193(375)-29120203(385)>aa....ga<29123472(389)-29123481(398)>tg....cc<29125948(402)-29125948(402)>gg....cc<29130189(407)-29130199(417)	Incontiguous alignmentSplice site validations failed
#prog	acc	cluster_link_id	align_id	scaffold	num_segs	aligned_orient	spliced_orient	alignment_valid	coord_span	avg_per_ID	per_len_aligned	score	alignment	validation_comment
gmap	TRINITY_DN68276_c0_g1_i1	45	6	chr5	1	+	?	ERROR	25515099-25515167	89	11.734693877551	6141	orient(a+/s?) align: 25515099(497)-25515167(565)	Only 11.734693877551 % is aligned, less than the 70 required.
gmap	TRINITY_DN18623_c0_g1_i1	15	12	chr5	1	-	?	ERROR	5541260-5541531	35	50.0920810313076	9520	orient(a-/s?) align: 5541260(441)-5541531(170)	Only 50.0920810313076 % is aligned, less than the 70 required.
gmap	TRINITY_DN158907_c0_g4_i1	318	35	chr5	1	-	?	ERROR	136026723-136026781	96	9.48553054662379	5664	orient(a-/s?) align: 136026723(622)-136026781(564)	Only 9.48553054662379 % is aligned, less than the 70 required.
gmap	TRINITY_DN176144_c0_g1_i2	485	58	chr5	2	-	?	ERROR	11145600-11146296	95	5.94936708860759	0	orient(a-/s?) align: 11145600(1580)-11145647(1533)>ca....AC<11146251(1532)-11146296(1487)	Splice site validations failed
gmap	TRINITY_DN200906_c0_g1_i1	1010	103	chr5	1	-	?	OK	44436541-44437119	80	78.2268578878748	48000	orient(a-/s?) align: 44436541(711)-44437119(112)	
gmap	TRINITY_DN206715_c5_g2_i1	1341	142	chr5	1	+	?	ERROR	84229969-84230073	92	14.4986449864499	9844	orient(a+/s?) align: 84229969(632)-84230073(738)	Only 14.4986449864499 % is aligned, less than the 70 required.
gmap	TRINITY_DN209488_c6_g2_i1	1531	169	chr5	1	-	?	ERROR	27805308-27805514	83	16.9811320754717	17181	orient(a-/s?) align: 27805308(1150)-27805514(944)	Only 16.9811320754717 % is aligned, less than the 70 required.
gmap	TRINITY_DN210787_c1_g4_i7	1640	180	chr5	1	-	?	ERROR	138577380-138578119	78	24.7347480106101	58188	orient(a-/s?) align: 138577380(1020)-138578119(275)	Only 24.7347480106101 % is aligned, less than the 70 required.
gmap	TRINITY_DN212732_c0_g2_i2	1854	222	chr5	1	-	?	ERROR	139101583-139102040	80	9.26226185650588	36560	orient(a-/s?) align: 139101583(1023)-139102040(567)	Only 9.26226185650588 % is aligned, less than the 70 required.
gmap	TRINITY_DN212732_c0_g2_i7	1855	227	chr5	1	-	?	ERROR	139101583-139102040	80	9.21370967741935	36560	orient(a-/s?) align: 139101583(1104)-139102040(648)	Only 9.21370967741935 % is aligned, less than the 70 required.
gmap	TRINITY_DN216407_c4_g1_i1	2157	238	chr5	1	-	?	ERROR	29903567-29903646	82	8.75145857642941	6150	orient(a-/s?) align: 29903567(79)-29903646(5)	Only 8.75145857642941 % is aligned, less than the 70 required.
#prog	acc	cluster_link_id	align_id	scaffold	num_segs	aligned_orient	spliced_orient	alignment_valid	coord_span	avg_per_ID	per_len_aligned	score	alignment	validation_comment
gmap	TRINITY_DN95731_c0_g2_i1	96	10	chr6	2	-	?	ERROR	56065972-56066566	81.7657657657658	41.1111111111111	0	orient(a-/s?) align: 56065972(376)-56066169(181)>GC....AT<56066426(141)-56066566(5)	Incontiguous alignmentSplice site validations failed
gmap	TRINITY_DN95731_c0_g1_i1	95	15	chr6	1	-	?	ERROR	56065972-56066189	83	24.2152466367713	17928	orient(a-/s?) align: 56065972(458)-56066189(243)	Only 24.2152466367713 % is aligned, less than the 70 required.
gmap	TRINITY_DN144798_c0_g1_i1	233	22	chr6	1	-	?	ERROR	12311639-12311692	87	10.0185528756957	4698	orient(a-/s?) align: 12311639(430)-12311692(377)	Only 10.0185528756957 % is aligned, less than the 70 required.
gmap	TRINITY_DN174663_c0_g1_i2	472	55	chr6	1	-	?	ERROR	89608846-89609000	98	22.6608187134503	15190	orient(a-/s?) align: 89608846(398)-89609000(244)	Only 22.6608187134503 % is aligned, less than the 70 required.
gmap	TRINITY_DN189597_c0_g4_i2	687	70	chr6	2	+	-	ERROR	96312205-96312590	73.0457142857143	60.2409638554217	25566	orient(a+/s-) align: 96312205(226)-96312257(286)>CT....AC<96312343(287)-96312590(575)	Only 60.2409638554217 % is aligned, less than the 70 required.
gmap	TRINITY_DN194905_c1_g4_i3	827	86	chr6	1	+	?	ERROR	11472364-11472464	93	11.6359447004608	9393	orient(a+/s?) align: 11472364(1)-11472464(101)	Only 11.6359447004608 % is aligned, less than the 70 required.
gmap	TRINITY_DN204950_c2_g6_i1	1220	126	chr6	1	+	?	ERROR	12722765-12723109	79	31.266149870801	28677	orient(a+/s?) align: 12722765(513)-12723109(875)	Only 31.266149870801 % is aligned, less than the 70 required.
gmap	TRINITY_DN205127_c0_g3_i1	1234	128	chr6	1	-	?	ERROR	82527879-82528106	79	44.106463878327	18328	orient(a-/s?) align: 82527879(483)-82528106(252)	Only 44.106463878327 % is aligned, less than the 70 required.
gmap	TRINITY_DN211448_c2_g3_i1	1699	191	chr6	2	+	+	ERROR	89098363-89098823	93.5555555555556	25.2189141856392	13472	orient(a+/s+) align: 89098363(3)-89098390(30)>GT....AG<89098712(31)-89098823(146)	Only 25.2189141856392 % is aligned, less than the 70 required.
gmap	TRINITY_DN213669_c1_g3_i1	1928	212	chr6	2	+	-	ERROR	67078606-67090563	80.2993630573248	45.7725947521866	25214	orient(a+/s-) align: 67078606(144)-67078668(211)>CT....AC<67090322(212)-67090563(457)	Only 45.7725947521866 % is aligned, less than the 70 required.
gmap	TRINITY_DN214682_c2_g1_i2	2011	221	chr6	2	-	?	ERROR	100317928-100319649	87.1794871794872	30.952380952381	0	orient(a-/s?) align: 100317928(348)-100318180(99)>CT....AT<100319627(98)-100319649(76)	Splice site validations failed
gmap	TRINITY_DN215706_c3_g2_i1	2113	234	chr6	1	+	?	ERROR	46554630-46554701	90	9.77011494252874	6120	orient(a+/s?) align: 46554630(576)-46554701(643)	Only 9.77011494252874 % is aligned, less than the 70 required.
gmap	TRINITY_DN217287_c3_g1_i1	2222	256	chr6	1	+	?	OK	22717760-22718593	81	100	72738	orient(a+/s?) align: 22717760(1)-22718593(898)	
#prog	acc	cluster_link_id	align_id	scaffold	num_segs	aligned_orient	spliced_orient	alignment_valid	coord_span	avg_per_ID	per_len_aligned	score	alignment	validation_comment
gmap	TRINITY_DN153737_c0_g1_i1	287	26	chr7	2	+	-	ERROR	27073740-27074291	77.367396593674	63.4259259259259	31798	orient(a+/s-) align: 27073740(99)-27073896(249)>CT....GC<27074031(250)-27074291(509)	Only 63.4259259259259 % is aligned, less than the 70 required.
gmap	TRINITY_DN172759_c0_g1_i2	433	48	chr7	1	+	?	OK	85114660-85115289	81	76.4988009592326	51678	orient(a+/s?) align: 85114660(189)-85115289(826)	
gmap	TRINITY_DN183053_c1_g1_i1	573	64	chr7	1	+	?	ERROR	78888848-78889028	85	17.937701396348	14195	orient(a+/s?) align: 78888848(347)-78889028(513)	Only 17.937701396348 % is aligned, less than the 70 required.
gmap	TRINITY_DN193038_c0_g1_i2	782	77	chr7	1	+	?	ERROR	5984027-5984261	61	59.6806387225549	18239	orient(a+/s?) align: 5984027(199)-5984261(497)	Only 59.6806387225549 % is aligned, less than the 70 required.
gmap	TRINITY_DN189593_c0_g1_i1	688	84	chr7	6	-	?	ERROR	9623483-9640754	100	7.52293577981651	0	orient(a-/s?) align: 9623483(295)-9623483(295)>cc....tg<9625563(275)-9625574(264)>ac....gt<9629863(263)-9629863(263)>GT....tg<9636935(254)-9636944(245)>tc....ga<9637851(244)-9637861(234)>ga....cc<9640749(228)-9640754(223)	Incontiguous alignmentSplice site validations failed
gmap	TRINITY_DN202871_c1_g2_i12	1089	110	chr7	1	-	?	ERROR	6434770-6434964	82	17.226148409894	15990	orient(a-/s?) align: 6434770(425)-6434964(231)	Only 17.226148409894 % is aligned, less than the 70 required.
gmap	TRINITY_DN202871_c1_g2_i11	1088	112	chr7	1	-	?	ERROR	6434770-6434948	80	12.6323218066337	14320	orient(a-/s?) align: 6434770(710)-6434948(532)	Only 12.6323218066337 % is aligned, less than the 70 required.
gmap	TRINITY_DN205127_c0_g6_i1	1235	125	chr7	1	-	?	ERROR	90358177-90358222	91	8.58208955223881	4186	orient(a-/s?) align: 90358177(239)-90358222(194)	Only 8.58208955223881 % is aligned, less than the 70 required.
gmap	TRINITY_DN208467_c3_g5_i1	1453	163	chr7	1	-	?	ERROR	46788001-46788331	33	46.5541490857947	10923	orient(a-/s?) align: 46788001(412)-46788331(82)	Only 46.5541490857947 % is aligned, less than the 70 required.
gmap	TRINITY_DN206123_c4_g1_i4	1293	207	chr7	4	-	?	ERROR	44649941-44664910	79.0096852300242	10.9752856763221	0	orient(a-/s?) align: 44649941(1475)-44649950(1466)>ag....ga<44659244(1463)-44659266(1443)>AT....AT<44660055(1437)-44660062(1430)>ag....gt<44664537(1428)-44664910(1055)	Incontiguous alignmentSplice site validations failed
gmap	TRINITY_DN214138_c3_g15_i2	1963	219	chr7	1	-	?	ERROR	18922663-18922713	92	5.86881472957422	4692	orient(a-/s?) align: 18922663(339)-18922713(289)	Only 5.86881472957422 % is aligned, less than the 70 required.
#prog	acc	cluster_link_id	align_id	scaffold	num_segs	aligned_orient	spliced_orient	alignment_valid	coord_span	avg_per_ID	per_len_aligned	score	alignment	validation_comment
gmap	TRINITY_DN158112_c0_g2_i1	312	37	chr8	1	-	?	ERROR	76062531-76062653	84	17.7745664739884	10332	orient(a-/s?) align: 76062531(286)-76062653(164)	Only 17.7745664739884 % is aligned, less than the 70 required.
gmap	TRINITY_DN170273_c6_g1_i1	409	49	chr8	1	+	?	ERROR	106361563-106361584	53	5.88235294117647	2173	orient(a+/s?) align: 106361563(656)-106361584(696)	Only 5.88235294117647 % is aligned, less than the 70 required.
gmap	TRINITY_DN170273_c6_g6_i1	410	50	chr8	1	+	?	ERROR	106361563-106361584	53	5.56309362279512	2173	orient(a+/s?) align: 106361563(696)-106361584(736)	Only 5.56309362279512 % is aligned, less than the 70 required.
gmap	TRINITY_DN170785_c0_g1_i3	411	51	chr8	2	+	?	ERROR	123933838-123952502	94.524861878453	32.6714801444043	0	orient(a+/s?) align: 123933838(3)-123933981(146)>AT....nn<123952466(147)-123952502(183)	Splice site validations failed
gmap	TRINITY_DN200801_c1_g1_i1	1000	100	chr8	2	-	?	ERROR	19972605-19973188	80.5851063829787	22.3277909738717	0	orient(a-/s?) align: 19972605(842)-19972667(760)>cc....gg<19973084(702)-19973188(598)	Incontiguous alignmentSplice site validations failed
gmap	TRINITY_DN206008_c4_g1_i1	1284	132	chr8	1	+	?	OK	79897388-79898023	90	74.8820754716981	57150	orient(a+/s?) align: 79897388(3)-79898023(637)	
gmap	TRINITY_DN208038_c0_g4_i1	1430	144	chr8	1	+	?	ERROR	99032896-99032936	97	6.20272314674735	3977	orient(a+/s?) align: 99032896(619)-99032936(659)	Only 6.20272314674735 % is aligned, less than the 70 required.
gmap	TRINITY_DN208688_c5_g2_i1	1468	155	chr8	3	-	?	ERROR	78884314-78891295	84.8941176470588	54.4290288153682	0	orient(a-/s?) align: 78884314(641)-78884347(608)>ca....AC<78890023(597)-78890397(194)>ca....cc<78891231(185)-78891295(114)	Incontiguous alignmentSplice site validations failed
gmap	TRINITY_DN209222_c3_g3_i6	1506	173	chr8	1	-	?	ERROR	89627273-89627495	86	9.97752808988764	19092	orient(a-/s?) align: 89627273(2225)-89627495(2004)	Only 9.97752808988764 % is aligned, less than the 70 required.
gmap	TRINITY_DN210280_c5_g1_i1	1603	178	chr8	1	-	?	ERROR	5478679-5479569	91	49.3258426966292	79898	orient(a-/s?) align: 5478679(1686)-5479569(809)	Only 49.3258426966292 % is aligned, less than the 70 required.
gmap	TRINITY_DN210972_c0_g7_i6	1654	183	chr8	2	-	-	ERROR	117844273-117845172	84.2283205268935	59.8554533508541	76732	orient(a-/s-) align: 117844273(1321)-117844850(701)>CT....AC<117844883(700)-117845172(411)	Only 59.8554533508541 % is aligned, less than the 70 required.
gmap	TRINITY_DN215467_c7_g4_i4	2094	230	chr8	1	+	?	ERROR	92581382-92581658	86	35.4430379746835	24080	orient(a+/s?) align: 92581382(295)-92581658(574)	Only 35.4430379746835 % is aligned, less than the 70 required.
gmap	TRINITY_DN215999_c5_g20_i3	2127	231	chr8	1	-	?	ERROR	110353671-110353714	88	7.28813559322034	3784	orient(a-/s?) align: 110353671(590)-110353714(548)	Only 7.28813559322034 % is aligned, less than the 70 required.
gmap	TRINITY_DN216031_c0_g6_i10	2134	232	chr8	1	-	?	ERROR	16537901-16537942	88	3.39805825242718	3696	orient(a-/s?) align: 16537901(115)-16537942(74)	Only 3.39805825242718 % is aligned, less than the 70 required.
#prog	acc	cluster_link_id	align_id	scaffold	num_segs	aligned_orient	spliced_orient	alignment_valid	coord_span	avg_per_ID	per_len_aligned	score	alignment	validation_comment
gmap	TRINITY_DN84518_c0_g1_i1	65	5	chr9	1	+	?	OK	44051764-44052352	85	90.684133915575	52955	orient(a+/s?) align: 44051764(65)-44052352(687)	
gmap	TRINITY_DN183053_c1_g1_i2	574	66	chr9	2	+	+	ERROR	69810329-69820368	85.6104651162791	27.52	14725	orient(a+/s+) align: 69810329(36)-69810335(42)>GT....AG<69820191(43)-69820368(207)	Only 27.52 % is aligned, less than the 70 required.
gmap	TRINITY_DN204162_c1_g1_i5	1175	118	chr9	1	-	?	ERROR	3128312-3128359	100	9.54274353876739	4800	orient(a-/s?) align: 3128312(494)-3128359(447)	Only 9.54274353876739 % is aligned, less than the 70 required.
gmap	TRINITY_DN209297_c1_g1_i1	1517	160	chr9	4	+	?	ERROR	59091786-59094411	80.2767624020888	99.8696219035202	0	orient(a+/s?) align: 59091786(2)-59091921(140)>GT....AG<59092109(141)-59092304(341)>tt....ct<59092415(342)-59092560(487)>GT....AG<59094130(488)-59094411(767)	Splice site validations failed
gmap	TRINITY_DN209721_c2_g1_i1	1560	166	chr9	1	-	?	ERROR	4039519-4039638	95	18.2370820668693	11400	orient(a-/s?) align: 4039519(120)-4039638(1)	Only 18.2370820668693 % is aligned, less than the 70 required.
gmap	TRINITY_DN209636_c8_g2_i3	1546	172	chr9	1	-	?	ERROR	40448989-40449138	87	28.7593984962406	13311	orient(a-/s?) align: 40448989(228)-40449138(76)	Only 28.7593984962406 % is aligned, less than the 70 required.
gmap	TRINITY_DN210300_c0_g3_i4	1606	177	chr9	2	+	+	ERROR	5641493-5641750	82.5169082125604	36.7021276595745	17081	orient(a+/s+) align: 5641493(302)-5641548(357)>GT....AG<5641625(358)-5641750(508)	Only 36.7021276595745 % is aligned, less than the 70 required.
gmap	TRINITY_DN210113_c6_g2_i2	1599	179	chr9	4	+	?	ERROR	32597339-32597605	83.5951219512195	7.70676691729323	0	orient(a+/s?) align: 32597339(1653)-32597389(1702)>gg....gg<32597392(1705)-32597401(1714)>tg....tg<32597404(1717)-32597409(1722)>cc....AC<32597467(1765)-32597605(1903)	Incontiguous alignmentSplice site validations failed
gmap	TRINITY_DN213012_c7_g12_i3	1881	206	chr9	1	-	?	ERROR	73892414-73892473	93	10.1522842639594	5580	orient(a-/s?) align: 73892414(576)-73892473(517)	Only 10.1522842639594 % is aligned, less than the 70 required.
gmap	TRINITY_DN214034_c5_g1_i2	1957	215	chr9	1	+	?	ERROR	68312187-68312309	91	21.880650994575	11011	orient(a+/s?) align: 68312187(1)-68312309(121)	Only 21.880650994575 % is aligned, less than the 70 required.
#prog	acc	cluster_link_id	align_id	scaffold	num_segs	aligned_orient	spliced_orient	alignment_valid	coord_span	avg_per_ID	per_len_aligned	score	alignment	validation_comment
gmap	TRINITY_DN217343_c2_g1_i2	2226	261	scaffold1.1495	2	-	?	ERROR	145907-146410	83.2903225806452	7.76455854727614	0	orient(a-/s?) align: 145907(751)-145971(687)>AT....gg<146352(686)-146410(628)	Splice site validations failed
gmap	TRINITY_DN217343_c2_g1_i3	2227	262	scaffold1.1495	1	-	?	ERROR	146301-146407	82	9.88106129917658	8856	orient(a-/s?) align: 146301(370)-146407(263)	Only 9.88106129917658 % is aligned, less than the 70 required.
#prog	acc	cluster_link_id	align_id	scaffold	num_segs	aligned_orient	spliced_orient	alignment_valid	coord_span	avg_per_ID	per_len_aligned	score	alignment	validation_comment
gmap	TRINITY_DN209182_c6_g3_i7	1501	161	scaffold1.1663	1	+	?	ERROR	5617-5658	85	1.96353436185133	3570	orient(a+/s?) align: 5617(1043)-5658(1084)	Only 1.96353436185133 % is aligned, less than the 70 required.
#prog	acc	cluster_link_id	align_id	scaffold	num_segs	aligned_orient	spliced_orient	alignment_valid	coord_span	avg_per_ID	per_len_aligned	score	alignment	validation_comment
gmap	TRINITY_DN208580_c2_g18_i3	1462	156	scaffold1.1794	1	+	?	ERROR	1032-1254	93	41.1552346570397	21204	orient(a+/s?) align: 1032(225)-1254(452)	Only 41.1552346570397 % is aligned, less than the 70 required.
#prog	acc	cluster_link_id	align_id	scaffold	num_segs	aligned_orient	spliced_orient	alignment_valid	coord_span	avg_per_ID	per_len_aligned	score	alignment	validation_comment
gmap	TRINITY_DN190361_c0_g3_i2	709	78	scaffold1.2250	1	+	?	ERROR	78191-78234	90	3.16409124356144	3870	orient(a+/s?) align: 78191(835)-78234(877)	Only 3.16409124356144 % is aligned, less than the 70 required.
#prog	acc	cluster_link_id	align_id	scaffold	num_segs	aligned_orient	spliced_orient	alignment_valid	coord_span	avg_per_ID	per_len_aligned	score	alignment	validation_comment
gmap	TRINITY_DN142246_c0_g1_i1	228	21	scaffold1.3500	1	+	?	OK	56296-56827	93	98.5294117647059	49848	orient(a+/s?) align: 56296(1)-56827(536)	
gmap	TRINITY_DN176564_c0_g3_i1	494	53	scaffold1.3500	1	-	?	OK	56592-57105	97	100	49858	orient(a-/s?) align: 56592(514)-57105(1)	
gmap	TRINITY_DN265825_c0_g1_i1	2292	264	scaffold1.3500	1	-	?	OK	7140-7759	98	100	59780	orient(a-/s?) align: 7140(610)-7759(1)	
#prog	acc	cluster_link_id	align_id	scaffold	num_segs	aligned_orient	spliced_orient	alignment_valid	coord_span	avg_per_ID	per_len_aligned	score	alignment	validation_comment
gmap	TRINITY_DN172726_c0_g3_i2	432	46	scaffold1.4411	2	+	-	OK	11960-16698	89.1506849315068	90.7960199004975	97620	orient(a+/s-) align: 11960(1)-12603(675)>CT....AC<16276(676)-16698(1095)	
#prog	acc	cluster_link_id	align_id	scaffold	num_segs	aligned_orient	spliced_orient	alignment_valid	coord_span	avg_per_ID	per_len_aligned	score	alignment	validation_comment
gmap	TRINITY_DN212526_c4_g2_i6	1830	200	scaffold1.4555	1	+	?	ERROR	25109-25277	82	34.1846758349705	14268	orient(a+/s?) align: 25109(336)-25277(509)	Only 34.1846758349705 % is aligned, less than the 70 required.
#prog	acc	cluster_link_id	align_id	scaffold	num_segs	aligned_orient	spliced_orient	alignment_valid	coord_span	avg_per_ID	per_len_aligned	score	alignment	validation_comment
gmap	TRINITY_DN214778_c3_g6_i6	2028	225	scaffold1.812	1	+	?	ERROR	57926-58051	93	9.47368421052632	11718	orient(a+/s?) align: 57926(1204)-58051(1329)	Only 9.47368421052632 % is aligned, less than the 70 required.
#prog	acc	cluster_link_id	align_id	scaffold	num_segs	aligned_orient	spliced_orient	alignment_valid	coord_span	avg_per_ID	per_len_aligned	score	alignment	validation_comment
gmap	TRINITY_DN202871_c1_g2_i1	1087	108	scaffold10.1302	1	+	?	ERROR	94106-94233	85	13.7967914438503	10965	orient(a+/s?) align: 94106(439)-94233(567)	Only 13.7967914438503 % is aligned, less than the 70 required.
#prog	acc	cluster_link_id	align_id	scaffold	num_segs	aligned_orient	spliced_orient	alignment_valid	coord_span	avg_per_ID	per_len_aligned	score	alignment	validation_comment
gmap	TRINITY_DN210780_c0_g1_i3	1638	181	scaffold10.1625	1	-	?	ERROR	9975-9996	95	0.6709362610552	2090	orient(a-/s?) align: 9975(2515)-9996(2494)	Only 0.6709362610552 % is aligned, less than the 70 required.
gmap	TRINITY_DN210780_c0_g1_i2	1637	185	scaffold10.1625	1	-	?	ERROR	9975-9996	95	0.920502092050209	2090	orient(a-/s?) align: 9975(1626)-9996(1605)	Only 0.920502092050209 % is aligned, less than the 70 required.
gmap	TRINITY_DN210780_c0_g1_i1	1636	189	scaffold10.1625	1	-	?	ERROR	9975-9996	95	0.651272942569568	2090	orient(a-/s?) align: 9975(2614)-9996(2593)	Only 0.651272942569568 % is aligned, less than the 70 required.
#prog	acc	cluster_link_id	align_id	scaffold	num_segs	aligned_orient	spliced_orient	alignment_valid	coord_span	avg_per_ID	per_len_aligned	score	alignment	validation_comment
gmap	TRINITY_DN237379_c1_g1_i1	2266	265	scaffold10.2082	1	-	?	ERROR	62779-63014	68	16.502808988764	15980	orient(a-/s?) align: 62779(1372)-63014(1138)	Only 16.502808988764 % is aligned, less than the 70 required.
#prog	acc	cluster_link_id	align_id	scaffold	num_segs	aligned_orient	spliced_orient	alignment_valid	coord_span	avg_per_ID	per_len_aligned	score	alignment	validation_comment
gmap	TRINITY_DN217134_c2_g1_i1	2206	269	scaffold10.247	1	-	?	ERROR	27073-27176	80	6.46364201367309	8320	orient(a-/s?) align: 27073(272)-27176(169)	Only 6.46364201367309 % is aligned, less than the 70 required.
gmap	TRINITY_DN217134_c2_g1_i3	2208	270	scaffold10.247	1	-	?	ERROR	27066-27176	80	3.20901994796184	8880	orient(a-/s?) align: 27066(483)-27176(373)	Only 3.20901994796184 % is aligned, less than the 70 required.
gmap	TRINITY_DN217134_c2_g1_i2	2207	271	scaffold10.247	1	-	?	ERROR	27073-27176	80	4.08163265306122	8320	orient(a-/s?) align: 27073(476)-27176(373)	Only 4.08163265306122 % is aligned, less than the 70 required.
#prog	acc	cluster_link_id	align_id	scaffold	num_segs	aligned_orient	spliced_orient	alignment_valid	coord_span	avg_per_ID	per_len_aligned	score	alignment	validation_comment
gmap	TRINITY_DN152622_c0_g1_i2	273	24	scaffold10.383	1	-	?	ERROR	56137-56157	100	2	2100	orient(a-/s?) align: 56137(1032)-56157(1012)	Only 2 % is aligned, less than the 70 required.
#prog	acc	cluster_link_id	align_id	scaffold	num_segs	aligned_orient	spliced_orient	alignment_valid	coord_span	avg_per_ID	per_len_aligned	score	alignment	validation_comment
gmap	TRINITY_DN215060_c1_g3_i1	2052	244	scaffold10.812	1	+	?	ERROR	51935-52357	80	33.4128878281623	33600	orient(a+/s?) align: 51935(2)-52357(421)	Only 33.4128878281623 % is aligned, less than the 70 required.
#prog	acc	cluster_link_id	align_id	scaffold	num_segs	aligned_orient	spliced_orient	alignment_valid	coord_span	avg_per_ID	per_len_aligned	score	alignment	validation_comment
gmap	TRINITY_DN215105_c1_g4_i2	2056	224	scaffold106727	2	-	-	OK	5389-6459	85.9243243243243	98.273572377158	63584	orient(a-/s-) align: 5389(753)-5916(242)>CT....AC<6232(241)-6459(14)	
gmap	TRINITY_DN215105_c1_g4_i4	2057	229	scaffold106727	2	-	-	ERROR	5389-6828	86.5029455081002	51.9709146574818	117471	orient(a-/s-) align: 5389(2613)-6077(1931)>CT....AC<6146(1930)-6828(1256)	Only 51.9709146574818 % is aligned, less than the 70 required.
gmap	TRINITY_DN216952_c1_g2_i1	2194	240	scaffold106727	2	+	+	OK	4325-5600	93.3639575971731	99.8236331569665	52844	orient(a+/s+) align: 4325(1)-4770(446)>GT....AG<5484(447)-5600(566)	
gmap	TRINITY_DN216952_c1_g1_i6	2196	241	scaffold106727	1	+	?	OK	4183-4752	92	99.4764397905759	52440	orient(a+/s?) align: 4183(4)-4752(573)	
gmap	TRINITY_DN216952_c1_g1_i4	2195	242	scaffold106727	2	+	+	OK	4183-5600	91	99.438202247191	64428	orient(a+/s+) align: 4183(4)-4770(591)>GT....AG<5484(592)-5600(711)	
gmap	TRINITY_DN216952_c2_g2_i2	2197	243	scaffold106727	2	+	+	OK	1164-4101	88	98.5130111524164	69960	orient(a+/s+) align: 1164(13)-1513(360)>GT....AG<3646(361)-4101(807)	
gmap	TRINITY_DN217513_c4_g6_i1	2236	249	scaffold106727	1	+	?	OK	6772-7441	84	100	55104	orient(a+/s?) align: 6772(1)-7441(656)	
gmap	TRINITY_DN217513_c4_g4_i3	2237	250	scaffold106727	4	+	?	ERROR	4761-6611	88.584452975048	96.4814814814815	0	orient(a+/s?) align: 4761(15)-4770(24)>GT....AG<5484(25)-6401(945)>aa....aa<6409(953)-6421(965)>ta....AT<6511(983)-6611(1080)	Incontiguous alignmentSplice site validations failed
gmap	TRINITY_DN217513_c4_g4_i4	2238	251	scaffold106727	2	+	+	OK	4761-7978	86.0558659217877	99.4444444444444	215656	orient(a+/s+) align: 4761(15)-4770(24)>GT....AG<5484(25)-7978(2520)	
gmap	TRINITY_DN217513_c4_g7_i1	2239	252	scaffold106727	1	+	?	OK	6798-7441	84	99.3690851735016	52920	orient(a+/s?) align: 6798(5)-7441(634)	
gmap	TRINITY_DN217513_c4_g4_i6	2241	253	scaffold106727	1	+	?	OK	5610-7864	86	99.9105945462673	192210	orient(a+/s?) align: 5610(3)-7864(2237)	
gmap	TRINITY_DN217513_c4_g4_i5	2240	254	scaffold106727	2	+	+	OK	4761-8018	86.0553359683795	99.4496855345912	217720	orient(a+/s+) align: 4761(15)-4770(24)>GT....AG<5484(25)-8018(2544)	
gmap	TRINITY_DN217513_c4_g4_i7	2242	255	scaffold106727	1	+	?	OK	5675-6812	87	99.7363796133568	98745	orient(a+/s?) align: 5675(1)-6812(1135)	
#prog	acc	cluster_link_id	align_id	scaffold	num_segs	aligned_orient	spliced_orient	alignment_valid	coord_span	avg_per_ID	per_len_aligned	score	alignment	validation_comment
gmap	TRINITY_DN204946_c1_g1_i4	1218	121	scaffold17401	2	+	+	OK	1052-1934	92.96529562982	91.2075029308323	72327	orient(a+/s+) align: 1052(2)-1079(28)>GT....AG<1211(29)-1934(779)	
#prog	acc	cluster_link_id	align_id	scaffold	num_segs	aligned_orient	spliced_orient	alignment_valid	coord_span	avg_per_ID	per_len_aligned	score	alignment	validation_comment
gmap	TRINITY_DN213811_c4_g7_i2	1943	210	scaffold2.1758	1	+	?	ERROR	590-638	95	9.07407407407407	4655	orient(a+/s?) align: 590(2)-638(50)	Only 9.07407407407407 % is aligned, less than the 70 required.
#prog	acc	cluster_link_id	align_id	scaffold	num_segs	aligned_orient	spliced_orient	alignment_valid	coord_span	avg_per_ID	per_len_aligned	score	alignment	validation_comment
gmap	TRINITY_DN126426_c0_g2_i3	153	19	scaffold2.228	1	-	?	ERROR	228145-228333	80	26.0590500641849	16240	orient(a-/s?) align: 228145(276)-228333(74)	Only 26.0590500641849 % is aligned, less than the 70 required.
#prog	acc	cluster_link_id	align_id	scaffold	num_segs	aligned_orient	spliced_orient	alignment_valid	coord_span	avg_per_ID	per_len_aligned	score	alignment	validation_comment
gmap	TRINITY_DN173104_c0_g1_i1	439	47	scaffold2.2849	1	-	?	ERROR	2858-3341	72	89.4827586206897	37368	orient(a-/s?) align: 2858(536)-3341(18)	Only 72 % identity on average, less than the 80 required.
#prog	acc	cluster_link_id	align_id	scaffold	num_segs	aligned_orient	spliced_orient	alignment_valid	coord_span	avg_per_ID	per_len_aligned	score	alignment	validation_comment
gmap	TRINITY_DN224273_c0_g1_i1	2260	260	scaffold2.3248	3	-	?	ERROR	2808-3502	87.1192368839428	99.6830427892234	0	orient(a-/s?) align: 2808(631)-2883(556)>CT....AC<2954(555)-3277(233)>CT....gg<3312(230)-3502(1)	Incontiguous alignmentSplice site validations failed
#prog	acc	cluster_link_id	align_id	scaffold	num_segs	aligned_orient	spliced_orient	alignment_valid	coord_span	avg_per_ID	per_len_aligned	score	alignment	validation_comment
gmap	TRINITY_DN210884_c5_g7_i6	1646	186	scaffold2.3273	1	+	?	ERROR	10283-10474	88	16.8865435356201	16896	orient(a+/s?) align: 10283(811)-10474(1002)	Only 16.8865435356201 % is aligned, less than the 70 required.
gmap	TRINITY_DN210884_c5_g7_i1	1644	188	scaffold2.3273	1	+	?	ERROR	10283-10474	88	18.2857142857143	16896	orient(a+/s?) align: 10283(724)-10474(915)	Only 18.2857142857143 % is aligned, less than the 70 required.
#prog	acc	cluster_link_id	align_id	scaffold	num_segs	aligned_orient	spliced_orient	alignment_valid	coord_span	avg_per_ID	per_len_aligned	score	alignment	validation_comment
gmap	TRINITY_DN201820_c0_g2_i1	1048	105	scaffold2.3503	1	-	?	ERROR	926-1012	91	11.484593837535	7462	orient(a-/s?) align: 926(714)-1012(633)	Only 11.484593837535 % is aligned, less than the 70 required.
#prog	acc	cluster_link_id	align_id	scaffold	num_segs	aligned_orient	spliced_orient	alignment_valid	coord_span	avg_per_ID	per_len_aligned	score	alignment	validation_comment
gmap	TRINITY_DN196391_c1_g2_i1	868	87	scaffold2.3575	1	-	?	ERROR	1878-1920	90	5.58441558441558	3870	orient(a-/s?) align: 1878(432)-1920(390)	Only 5.58441558441558 % is aligned, less than the 70 required.
#prog	acc	cluster_link_id	align_id	scaffold	num_segs	aligned_orient	spliced_orient	alignment_valid	coord_span	avg_per_ID	per_len_aligned	score	alignment	validation_comment
gmap	TRINITY_DN207047_c4_g5_i2	1368	137	scaffold2.557	2	-	-	ERROR	38895-39181	88.7894736842105	30.7941653160454	16870	orient(a-/s-) align: 38895(190)-38924(161)>CT....AC<39020(160)-39181(1)	Only 30.7941653160454 % is aligned, less than the 70 required.
#prog	acc	cluster_link_id	align_id	scaffold	num_segs	aligned_orient	spliced_orient	alignment_valid	coord_span	avg_per_ID	per_len_aligned	score	alignment	validation_comment
gmap	TRINITY_DN208802_c1_g2_i3	1473	153	scaffold2.588	1	-	?	ERROR	185917-185971	90	9.83606557377049	4860	orient(a-/s?) align: 185917(421)-185971(368)	Only 9.83606557377049 % is aligned, less than the 70 required.
#prog	acc	cluster_link_id	align_id	scaffold	num_segs	aligned_orient	spliced_orient	alignment_valid	coord_span	avg_per_ID	per_len_aligned	score	alignment	validation_comment
gmap	TRINITY_DN15471_c0_g1_i1	12	1	scaffold2.694	1	-	?	OK	363048-363656	92	100	56120	orient(a-/s?) align: 363048(610)-363656(1)	
#prog	acc	cluster_link_id	align_id	scaffold	num_segs	aligned_orient	spliced_orient	alignment_valid	coord_span	avg_per_ID	per_len_aligned	score	alignment	validation_comment
gmap	TRINITY_DN200749_c0_g1_i4	995	92	scaffold2.695	1	+	?	ERROR	78565-79487	78	85.2362204724409	67548	orient(a+/s?) align: 78565(1)-79487(866)	Only 78 % identity on average, less than the 80 required.
gmap	TRINITY_DN200749_c0_g1_i5	996	94	scaffold2.695	2	+	+	OK	77757-79487	80.0338101430429	82.5107296137339	61546	orient(a+/s+) align: 77757(14)-77809(66)>GT....AG<78704(67)-79487(782)	
gmap	TRINITY_DN200749_c0_g1_i1	993	96	scaffold2.695	4	+	?	ERROR	78565-79238	78.413407821229	75.2100840336134	0	orient(a+/s?) align: 78565(1)-78874(312)>CT....AC<78928(313)-78979(366)>ac....AC<78982(369)-78988(375)>GT....gg<79075(390)-79238(553)	Incontiguous alignmentSplice site validations failed
gmap	TRINITY_DN200749_c0_g1_i1	993	97	scaffold2.695	1	+	?	ERROR	78581-78728	76	22.5490196078431	12236	orient(a+/s?) align: 78581(554)-78728(714)	Only 22.5490196078431 % is aligned, less than the 70 required.
gmap	TRINITY_DN200749_c0_g1_i2	994	98	scaffold2.695	5	+	?	ERROR	77757-79247	82.3316455696202	68.5763888888889	0	orient(a+/s?) align: 77757(14)-77809(66)>GT....AG<78761(67)-78873(173)>cc....ct<78930(174)-78979(228)>ac....AC<78982(231)-78988(237)>GT....gg<79075(252)-79247(424)	Incontiguous alignmentSplice site validations failed
gmap	TRINITY_DN200749_c0_g1_i2	994	99	scaffold2.695	1	+	?	ERROR	78590-78728	74	26.3888888888889	11248	orient(a+/s?) align: 78590(425)-78728(576)	Only 26.3888888888889 % is aligned, less than the 70 required.
#prog	acc	cluster_link_id	align_id	scaffold	num_segs	aligned_orient	spliced_orient	alignment_valid	coord_span	avg_per_ID	per_len_aligned	score	alignment	validation_comment
gmap	TRINITY_DN208064_c3_g4_i1	1432	145	scaffold2.787	1	+	?	ERROR	45416-45479	93	3.99002493765586	5952	orient(a+/s?) align: 45416(1)-45479(64)	Only 3.99002493765586 % is aligned, less than the 70 required.
#prog	acc	cluster_link_id	align_id	scaffold	num_segs	aligned_orient	spliced_orient	alignment_valid	coord_span	avg_per_ID	per_len_aligned	score	alignment	validation_comment
gmap	TRINITY_DN210559_c1_g9_i10	1618	187	scaffold2.959	1	+	?	ERROR	28152-28228	87	7.93172690763052	6873	orient(a+/s?) align: 28152(56)-28228(134)	Only 7.93172690763052 % is aligned, less than the 70 required.
#prog	acc	cluster_link_id	align_id	scaffold	num_segs	aligned_orient	spliced_orient	alignment_valid	coord_span	avg_per_ID	per_len_aligned	score	alignment	validation_comment
gmap	TRINITY_DN184726_c1_g4_i2	598	63	scaffold3.1765	1	+	?	ERROR	286487-286837	91	57.2347266881029	32396	orient(a+/s?) align: 286487(225)-286837(580)	Only 57.2347266881029 % is aligned, less than the 70 required.
#prog	acc	cluster_link_id	align_id	scaffold	num_segs	aligned_orient	spliced_orient	alignment_valid	coord_span	avg_per_ID	per_len_aligned	score	alignment	validation_comment
gmap	TRINITY_DN207495_c5_g6_i1	1375	139	scaffold3.1855	1	+	?	ERROR	37129-37501	84	30.3258145363409	30492	orient(a+/s?) align: 37129(634)-37501(996)	Only 30.3258145363409 % is aligned, less than the 70 required.
#prog	acc	cluster_link_id	align_id	scaffold	num_segs	aligned_orient	spliced_orient	alignment_valid	coord_span	avg_per_ID	per_len_aligned	score	alignment	validation_comment
gmap	TRINITY_DN213913_c0_g6_i1	1952	213	scaffold3.2123	2	-	?	ERROR	13160-13464	96.3529411764706	37.0716510903427	0	orient(a-/s?) align: 13160(238)-13313(85)>aa....aa<13381(84)-13464(1)	Splice site validations failed
#prog	acc	cluster_link_id	align_id	scaffold	num_segs	aligned_orient	spliced_orient	alignment_valid	coord_span	avg_per_ID	per_len_aligned	score	alignment	validation_comment
gmap	TRINITY_DN212208_c5_g1_i8	1785	198	scaffold3.3302	1	+	?	ERROR	19074-19225	79	11.7465224111283	12008	orient(a+/s?) align: 19074(433)-19225(584)	Only 11.7465224111283 % is aligned, less than the 70 required.
#prog	acc	cluster_link_id	align_id	scaffold	num_segs	aligned_orient	spliced_orient	alignment_valid	coord_span	avg_per_ID	per_len_aligned	score	alignment	validation_comment
gmap	TRINITY_DN212002_c0_g5_i5	1752	226	scaffold3.542	1	-	?	ERROR	95796-95873	84	6.06060606060606	6552	orient(a-/s?) align: 95796(266)-95873(189)	Only 6.06060606060606 % is aligned, less than the 70 required.
#prog	acc	cluster_link_id	align_id	scaffold	num_segs	aligned_orient	spliced_orient	alignment_valid	coord_span	avg_per_ID	per_len_aligned	score	alignment	validation_comment
gmap	TRINITY_DN212043_c4_g2_i13	1763	197	scaffold4.266	4	-	?	ERROR	2284-6645	76.2152641878669	20.596533655784	0	orient(a-/s?) align: 2284(511)-2344(451)>GT....AG<2368(450)-2507(311)>GT....AG<2701(310)-2795(220)>tc....AG<6383(219)-6645(1)	Splice site validations failed
#prog	acc	cluster_link_id	align_id	scaffold	num_segs	aligned_orient	spliced_orient	alignment_valid	coord_span	avg_per_ID	per_len_aligned	score	alignment	validation_comment
gmap	TRINITY_DN95731_c0_g2_i1	96	11	scaffold4.490	3	+	?	ERROR	1789-2601	81.0815450643777	28.7654320987654	0	orient(a+/s?) align: 1789(377)-1913(498)>GT....ta<2199(499)-2220(520)>aa....tt<2519(521)-2601(609)	Splice site validations failed
gmap	TRINITY_DN95731_c0_g1_i1	95	16	scaffold4.490	3	+	?	ERROR	1789-2601	81.0815450643777	26.1210762331839	0	orient(a+/s?) align: 1789(459)-1913(580)>GT....ta<2199(581)-2220(602)>aa....tt<2519(603)-2601(691)	Splice site validations failed
#prog	acc	cluster_link_id	align_id	scaffold	num_segs	aligned_orient	spliced_orient	alignment_valid	coord_span	avg_per_ID	per_len_aligned	score	alignment	validation_comment
gmap	TRINITY_DN216170_c2_g8_i4	2141	237	scaffold4.838	1	+	?	ERROR	80144-80349	85	30.3387334315169	17510	orient(a+/s?) align: 80144(448)-80349(653)	Only 30.3387334315169 % is aligned, less than the 70 required.
#prog	acc	cluster_link_id	align_id	scaffold	num_segs	aligned_orient	spliced_orient	alignment_valid	coord_span	avg_per_ID	per_len_aligned	score	alignment	validation_comment
gmap	TRINITY_DN137987_c0_g1_i3	203	30	scaffold4.907	1	-	?	ERROR	46417-46490	98	10.3351955307263	7252	orient(a-/s?) align: 46417(92)-46490(19)	Only 10.3351955307263 % is aligned, less than the 70 required.
#prog	acc	cluster_link_id	align_id	scaffold	num_segs	aligned_orient	spliced_orient	alignment_valid	coord_span	avg_per_ID	per_len_aligned	score	alignment	validation_comment
gmap	TRINITY_DN182034_c0_g2_i1	556	61	scaffold5.1390	3	+	?	ERROR	2551-3683	74.2529550827423	74.4718309859155	0	orient(a+/s?) align: 2551(127)-2823(370)>GT....AG<2846(371)-2996(476)>ga....AT<3611(496)-3683(568)	Incontiguous alignmentSplice site validations failed
#prog	acc	cluster_link_id	align_id	scaffold	num_segs	aligned_orient	spliced_orient	alignment_valid	coord_span	avg_per_ID	per_len_aligned	score	alignment	validation_comment
gmap	TRINITY_DN160865_c0_g2_i1	344	34	scaffold5.155	1	-	?	ERROR	3334-3533	65	45	17550	orient(a-/s?) align: 3334(597)-3533(328)	Only 45 % is aligned, less than the 70 required.
#prog	acc	cluster_link_id	align_id	scaffold	num_segs	aligned_orient	spliced_orient	alignment_valid	coord_span	avg_per_ID	per_len_aligned	score	alignment	validation_comment
gmap	TRINITY_DN199265_c2_g1_i1	955	90	scaffold5.1776	1	+	?	ERROR	237634-237665	90	6.32411067193676	2880	orient(a+/s?) align: 237634(276)-237665(307)	Only 6.32411067193676 % is aligned, less than the 70 required.
#prog	acc	cluster_link_id	align_id	scaffold	num_segs	aligned_orient	spliced_orient	alignment_valid	coord_span	avg_per_ID	per_len_aligned	score	alignment	validation_comment
gmap	TRINITY_DN209673_c3_g4_i2	1547	165	scaffold5.2019	1	-	?	ERROR	39919-40142	92	18.75	20424	orient(a-/s?) align: 39919(1158)-40142(937)	Only 18.75 % is aligned, less than the 70 required.
gmap	TRINITY_DN209673_c3_g4_i4	1548	168	scaffold5.2019	6	-	?	ERROR	49082-53266	87.152380952381	9.65073529411765	0	orient(a-/s?) align: 49082(231)-49082(231)>ga....cg<50034(200)-50042(192)>ga....ga<50045(147)-50050(142)>tc....GC<51429(105)-51434(104)>CT....AT<52549(91)-52554(86)>cc....tc<53196(81)-53266(1)	Incontiguous alignmentSplice site validations failed
#prog	acc	cluster_link_id	align_id	scaffold	num_segs	aligned_orient	spliced_orient	alignment_valid	coord_span	avg_per_ID	per_len_aligned	score	alignment	validation_comment
gmap	TRINITY_DN204606_c8_g4_i2	1205	123	scaffold5.2073	1	-	?	ERROR	8576-9201	90	61.1594202898551	56970	orient(a-/s?) align: 8576(846)-9201(214)	Only 61.1594202898551 % is aligned, less than the 70 required.
#prog	acc	cluster_link_id	align_id	scaffold	num_segs	aligned_orient	spliced_orient	alignment_valid	coord_span	avg_per_ID	per_len_aligned	score	alignment	validation_comment
gmap	TRINITY_DN203685_c3_g8_i1	1134	115	scaffold5.2092	1	+	?	ERROR	75630-75815	80	30.8580858085809	14960	orient(a+/s?) align: 75630(2)-75815(188)	Only 30.8580858085809 % is aligned, less than the 70 required.
#prog	acc	cluster_link_id	align_id	scaffold	num_segs	aligned_orient	spliced_orient	alignment_valid	coord_span	avg_per_ID	per_len_aligned	score	alignment	validation_comment
gmap	TRINITY_DN214778_c3_g6_i4	2027	223	scaffold5.2358	1	-	?	ERROR	41933-41979	97	3.59327217125382	4559	orient(a-/s?) align: 41933(1250)-41979(1204)	Only 3.59327217125382 % is aligned, less than the 70 required.
#prog	acc	cluster_link_id	align_id	scaffold	num_segs	aligned_orient	spliced_orient	alignment_valid	coord_span	avg_per_ID	per_len_aligned	score	alignment	validation_comment
gmap	TRINITY_DN160865_c0_g2_i1	344	33	scaffold5.2457	1	-	?	ERROR	48-309	79	51.5	24411	orient(a-/s?) align: 48(327)-309(19)	Only 51.5 % is aligned, less than the 70 required.
#prog	acc	cluster_link_id	align_id	scaffold	num_segs	aligned_orient	spliced_orient	alignment_valid	coord_span	avg_per_ID	per_len_aligned	score	alignment	validation_comment
gmap	TRINITY_DN161457_c0_g2_i4	347	32	scaffold5.3146	1	-	?	OK	424-1221	87	90.7725321888412	73602	orient(a-/s?) align: 424(932)-1221(87)	
#prog	acc	cluster_link_id	align_id	scaffold	num_segs	aligned_orient	spliced_orient	alignment_valid	coord_span	avg_per_ID	per_len_aligned	score	alignment	validation_comment
gmap	TRINITY_DN189234_c1_g5_i1	684	74	scaffold5.919	1	-	?	ERROR	16259-16515	83	40.6645569620253	21331	orient(a-/s?) align: 16259(616)-16515(360)	Only 40.6645569620253 % is aligned, less than the 70 required.
#prog	acc	cluster_link_id	align_id	scaffold	num_segs	aligned_orient	spliced_orient	alignment_valid	coord_span	avg_per_ID	per_len_aligned	score	alignment	validation_comment
gmap	TRINITY_DN210080_c0_g3_i3	1591	175	scaffold6.100	1	-	?	ERROR	76435-76483	97	5.65167243367935	4753	orient(a-/s?) align: 76435(794)-76483(746)	Only 5.65167243367935 % is aligned, less than the 70 required.
#prog	acc	cluster_link_id	align_id	scaffold	num_segs	aligned_orient	spliced_orient	alignment_valid	coord_span	avg_per_ID	per_len_aligned	score	alignment	validation_comment
gmap	TRINITY_DN216768_c6_g1_i1	2176	239	scaffold6.119	1	-	?	ERROR	27429-27493	95	9.18079096045198	6175	orient(a-/s?) align: 27429(65)-27493(1)	Only 9.18079096045198 % is aligned, less than the 70 required.
#prog	acc	cluster_link_id	align_id	scaffold	num_segs	aligned_orient	spliced_orient	alignment_valid	coord_span	avg_per_ID	per_len_aligned	score	alignment	validation_comment
gmap	TRINITY_DN205964_c5_g3_i2	1280	131	scaffold6.480	1	-	?	ERROR	98953-99018	86	10.8414239482201	5762	orient(a-/s?) align: 98953(535)-99018(469)	Only 10.8414239482201 % is aligned, less than the 70 required.
#prog	acc	cluster_link_id	align_id	scaffold	num_segs	aligned_orient	spliced_orient	alignment_valid	coord_span	avg_per_ID	per_len_aligned	score	alignment	validation_comment
gmap	TRINITY_DN145014_c0_g1_i2	236	59	scaffold6.83	1	-	?	ERROR	795775-795900	98	19.7492163009404	12348	orient(a-/s?) align: 795775(128)-795900(3)	Only 19.7492163009404 % is aligned, less than the 70 required.
gmap	TRINITY_DN214579_c2_g1_i3	2010	246	scaffold6.83	1	+	?	ERROR	10103-10206	97	9.03562119895743	10088	orient(a+/s?) align: 10103(1)-10206(104)	Only 9.03562119895743 % is aligned, less than the 70 required.
#prog	acc	cluster_link_id	align_id	scaffold	num_segs	aligned_orient	spliced_orient	alignment_valid	coord_span	avg_per_ID	per_len_aligned	score	alignment	validation_comment
gmap	TRINITY_DN154232_c0_g3_i1	288	28	scaffold6.94	1	-	?	ERROR	47203-47285	93	8.71848739495798	7719	orient(a-/s?) align: 47203(952)-47285(870)	Only 8.71848739495798 % is aligned, less than the 70 required.
#prog	acc	cluster_link_id	align_id	scaffold	num_segs	aligned_orient	spliced_orient	alignment_valid	coord_span	avg_per_ID	per_len_aligned	score	alignment	validation_comment
gmap	TRINITY_DN211931_c2_g1_i1	1745	195	scaffold7.1051	1	-	?	ERROR	3202-3339	76	26.7504488330341	11324	orient(a-/s?) align: 3202(149)-3339(1)	Only 26.7504488330341 % is aligned, less than the 70 required.
#prog	acc	cluster_link_id	align_id	scaffold	num_segs	aligned_orient	spliced_orient	alignment_valid	coord_span	avg_per_ID	per_len_aligned	score	alignment	validation_comment
gmap	TRINITY_DN206782_c0_g2_i3	1346	135	scaffold7.1472	1	+	?	ERROR	13723-13742	100	1.39178844815588	2000	orient(a+/s?) align: 13723(1407)-13742(1426)	Only 1.39178844815588 % is aligned, less than the 70 required.
#prog	acc	cluster_link_id	align_id	scaffold	num_segs	aligned_orient	spliced_orient	alignment_valid	coord_span	avg_per_ID	per_len_aligned	score	alignment	validation_comment
gmap	TRINITY_DN211591_c6_g10_i1	1717	192	scaffold7.1573	2	+	-	ERROR	12116-13281	86.195652173913	34.7826086956522	15860	orient(a+/s-) align: 12116(133)-12260(272)>CT....AC<13238(273)-13281(316)	Only 34.7826086956522 % is aligned, less than the 70 required.
#prog	acc	cluster_link_id	align_id	scaffold	num_segs	aligned_orient	spliced_orient	alignment_valid	coord_span	avg_per_ID	per_len_aligned	score	alignment	validation_comment
gmap	TRINITY_DN35274_c0_g1_i1	27	2	scaffold7.1797	1	+	?	ERROR	16302-16586	81	33.1374853113984	22842	orient(a+/s?) align: 16302(557)-16586(838)	Only 33.1374853113984 % is aligned, less than the 70 required.
#prog	acc	cluster_link_id	align_id	scaffold	num_segs	aligned_orient	spliced_orient	alignment_valid	coord_span	avg_per_ID	per_len_aligned	score	alignment	validation_comment
gmap	TRINITY_DN194005_c0_g2_i1	812	81	scaffold7.2367	1	+	?	ERROR	1729-1752	87	2.1978021978022	1914	orient(a+/s?) align: 1729(843)-1752(864)	Only 2.1978021978022 % is aligned, less than the 70 required.
gmap	TRINITY_DN194005_c0_g2_i2	813	85	scaffold7.2367	1	+	?	ERROR	1729-1752	87	2	1914	orient(a+/s?) align: 1729(843)-1752(864)	Only 2 % is aligned, less than the 70 required.
#prog	acc	cluster_link_id	align_id	scaffold	num_segs	aligned_orient	spliced_orient	alignment_valid	coord_span	avg_per_ID	per_len_aligned	score	alignment	validation_comment
gmap	TRINITY_DN214106_c2_g1_i1	1959	218	scaffold7.749	1	-	?	ERROR	33566-33666	89	11.0990206746464	9078	orient(a-/s?) align: 33566(917)-33666(816)	Only 11.0990206746464 % is aligned, less than the 70 required.
gmap	TRINITY_DN214106_c2_g1_i2	1960	220	scaffold7.749	1	-	?	ERROR	33566-33666	89	12.75	9078	orient(a-/s?) align: 33566(798)-33666(697)	Only 12.75 % is aligned, less than the 70 required.
#prog	acc	cluster_link_id	align_id	scaffold	num_segs	aligned_orient	spliced_orient	alignment_valid	coord_span	avg_per_ID	per_len_aligned	score	alignment	validation_comment
gmap	TRINITY_DN212526_c4_g2_i6	1830	199	scaffold7.833	1	-	?	ERROR	286177-286420	83	48.1335952848723	20335	orient(a-/s?) align: 286177(335)-286420(91)	Only 48.1335952848723 % is aligned, less than the 70 required.
#prog	acc	cluster_link_id	align_id	scaffold	num_segs	aligned_orient	spliced_orient	alignment_valid	coord_span	avg_per_ID	per_len_aligned	score	alignment	validation_comment
gmap	TRINITY_DN208335_c4_g9_i2	1444	150	scaffold7.914	1	-	?	ERROR	52746-52935	63	11.8854415274463	15687	orient(a-/s?) align: 52746(481)-52935(233)	Only 11.8854415274463 % is aligned, less than the 70 required.
gmap	TRINITY_DN208335_c4_g9_i1	1443	157	scaffold7.914	1	-	?	ERROR	52746-52935	63	14.6212566059894	15687	orient(a-/s?) align: 52746(481)-52935(233)	Only 14.6212566059894 % is aligned, less than the 70 required.
#prog	acc	cluster_link_id	align_id	scaffold	num_segs	aligned_orient	spliced_orient	alignment_valid	coord_span	avg_per_ID	per_len_aligned	score	alignment	validation_comment
gmap	TRINITY_DN190560_c0_g1_i1	711	73	scaffold7.974	1	+	?	ERROR	9689-9782	71	20.6963249516441	7597	orient(a+/s?) align: 9689(410)-9782(516)	Only 20.6963249516441 % is aligned, less than the 70 required.
#prog	acc	cluster_link_id	align_id	scaffold	num_segs	aligned_orient	spliced_orient	alignment_valid	coord_span	avg_per_ID	per_len_aligned	score	alignment	validation_comment
gmap	TRINITY_DN150861_c0_g2_i1	264	31	scaffold8.1116	1	-	?	ERROR	426-494	100	13.0681818181818	6900	orient(a-/s?) align: 426(69)-494(1)	Only 13.0681818181818 % is aligned, less than the 70 required.
#prog	acc	cluster_link_id	align_id	scaffold	num_segs	aligned_orient	spliced_orient	alignment_valid	coord_span	avg_per_ID	per_len_aligned	score	alignment	validation_comment
gmap	TRINITY_DN193934_c0_g1_i2	808	80	scaffold8.1543	1	-	?	ERROR	26915-27013	91	18.0987202925046	9009	orient(a-/s?) align: 26915(542)-27013(444)	Only 18.0987202925046 % is aligned, less than the 70 required.
#prog	acc	cluster_link_id	align_id	scaffold	num_segs	aligned_orient	spliced_orient	alignment_valid	coord_span	avg_per_ID	per_len_aligned	score	alignment	validation_comment
gmap	TRINITY_DN208097_c1_g6_i3	1434	154	scaffold9.1173.2	1	+	?	ERROR	39496-39525	96	4.71698113207547	2880	orient(a+/s?) align: 39496(606)-39525(635)	Only 4.71698113207547 % is aligned, less than the 70 required.
#prog	acc	cluster_link_id	align_id	scaffold	num_segs	aligned_orient	spliced_orient	alignment_valid	coord_span	avg_per_ID	per_len_aligned	score	alignment	validation_comment
gmap	TRINITY_DN127697_c0_g1_i1	163	17	scaffold9.1187	1	+	?	ERROR	43908-43989	82	13.9616055846422	6560	orient(a+/s?) align: 43908(99)-43989(178)	Only 13.9616055846422 % is aligned, less than the 70 required.
#prog	acc	cluster_link_id	align_id	scaffold	num_segs	aligned_orient	spliced_orient	alignment_valid	coord_span	avg_per_ID	per_len_aligned	score	alignment	validation_comment
gmap	TRINITY_DN155197_c0_g1_i1	297	25	scaffold9.1209	1	-	?	OK	143714-144452	96	100	69984	orient(a-/s?) align: 143714(729)-144452(1)	
gmap	TRINITY_DN209721_c2_g1_i1	1560	167	scaffold9.1209	1	-	?	OK	77034-77562	97	81.7629179331307	52186	orient(a-/s?) align: 77034(658)-77562(121)	
gmap	TRINITY_DN217630_c5_g7_i5	2253	263	scaffold9.1209	1	+	?	ERROR	86450-86601	98	28.842504743833	14896	orient(a+/s?) align: 86450(376)-86601(527)	Only 28.842504743833 % is aligned, less than the 70 required.
#prog	acc	cluster_link_id	align_id	scaffold	num_segs	aligned_orient	spliced_orient	alignment_valid	coord_span	avg_per_ID	per_len_aligned	score	alignment	validation_comment
gmap	TRINITY_DN209247_c0_g2_i1	1510	158	scaffold9.1945	1	-	?	ERROR	18047-18415	87	25.6410256410256	32190	orient(a-/s?) align: 18047(436)-18415(67)	Only 25.6410256410256 % is aligned, less than the 70 required.
gmap	TRINITY_DN209247_c0_g2_i3	1511	159	scaffold9.1945	1	-	?	ERROR	17790-18415	82	54.735883424408	49282	orient(a-/s?) align: 17790(667)-18415(67)	Only 54.735883424408 % is aligned, less than the 70 required.
#prog	acc	cluster_link_id	align_id	scaffold	num_segs	aligned_orient	spliced_orient	alignment_valid	coord_span	avg_per_ID	per_len_aligned	score	alignment	validation_comment
gmap	TRINITY_DN168252_c1_g5_i1	394	43	scaffold9.531	1	-	?	ERROR	34238-34298	98	5.27225583405359	5978	orient(a-/s?) align: 34238(1104)-34298(1044)	Only 5.27225583405359 % is aligned, less than the 70 required.
gmap	TRINITY_DN168252_c1_g3_i1	393	44	scaffold9.531	1	-	?	ERROR	34238-34298	98	6.52406417112299	5978	orient(a-/s?) align: 34238(882)-34298(822)	Only 6.52406417112299 % is aligned, less than the 70 required.
#prog	acc	cluster_link_id	align_id	scaffold	num_segs	aligned_orient	spliced_orient	alignment_valid	coord_span	avg_per_ID	per_len_aligned	score	alignment	validation_comment
gmap	TRINITY_DN206132_c3_g7_i6	1294	138	scaffold9.946	2	+	?	ERROR	52642-57762	90.5462962962963	15.4949784791966	0	orient(a+/s?) align: 52642(41)-52700(99)>aa....aa<57712(100)-57762(148)	Splice site validations failed
#prog	acc	cluster_link_id	align_id	scaffold	num_segs	aligned_orient	spliced_orient	alignment_valid	coord_span	avg_per_ID	per_len_aligned	score	alignment	validation_comment
gmap	TRINITY_DN187395_c0_g1_i3	642	68	scaffold9.982	1	+	?	ERROR	27007-27279	96	40.6432748538012	26688	orient(a+/s?) align: 27007(405)-27279(682)	Only 40.6432748538012 % is aligned, less than the 70 required.
gmap	TRINITY_DN187395_c0_g1_i4	643	69	scaffold9.982	1	+	?	ERROR	27007-27279	96	38.3448275862069	26688	orient(a+/s?) align: 27007(446)-27279(723)	Only 38.3448275862069 % is aligned, less than the 70 required.
#prog	acc	cluster_link_id	align_id	scaffold	num_segs	aligned_orient	spliced_orient	alignment_valid	coord_span	avg_per_ID	per_len_aligned	score	alignment	validation_comment
gmap	TRINITY_DN217197_c10_g1_i1	2213	247	scaffoldMt.15	1	-	?	ERROR	1-1218	94	45.2651515151515	112330	orient(a-/s?) align: 1(1640)-1218(446)	Only 45.2651515151515 % is aligned, less than the 70 required.
#prog	acc	cluster_link_id	align_id	scaffold	num_segs	aligned_orient	spliced_orient	alignment_valid	coord_span	avg_per_ID	per_len_aligned	score	alignment	validation_comment
gmap	TRINITY_DN186866_c1_g2_i1	635	67	scaffoldMt.7	1	+	?	OK	10605-11193	97	100	55678	orient(a+/s?) align: 10605(1)-11193(574)	

Completed.
