GRMZM2G113592	maize2
GRMZM2G168253	maize2
GRMZM2G168281	maize2
GRMZM2G168257	maize2
GRMZM2G045257	maize2
GRMZM2G342807	maize2
GRMZM2G115674	maize2
GRMZM2G075505	maize2
GRMZM2G120987	maize2
GRMZM2G055107	maize2
GRMZM2G046088	maize2
GRMZM2G138077	maize2
GRMZM2G046061	maize2
GRMZM2G139786	maize2
GRMZM2G178826	maize2
GRMZM2G479529	maize2
GRMZM2G034083	maize2
GRMZM2G016586	maize2
GRMZM2G151720	maize2
GRMZM2G004023	maize2
GRMZM2G100750	maize2
GRMZM2G095331	maize2
GRMZM2G035338	maize2
GRMZM2G444621	maize2
GRMZM2G114850	maize2
GRMZM2G114930	maize2
GRMZM2G162945	maize2
GRMZM2G114613	maize2
GRMZM2G045435	maize2
GRMZM2G092391	maize2
GRMZM2G164868	maize2
GRMZM2G009715	maize2
GRMZM2G078090	maize2
GRMZM2G164418	maize2
GRMZM2G503156	maize2
GRMZM2G133793	maize2
GRMZM2G163059	maize2
GRMZM2G163099	maize2
GRMZM2G035520	maize2
GRMZM2G307561	maize2
GRMZM2G307600	maize2
GRMZM2G017525	maize2
GRMZM2G140545	maize2
GRMZM2G440925	maize2
GRMZM2G164335	maize2
GRMZM2G315931	maize2
GRMZM2G002286	maize2
GRMZM2G301908	maize2
GRMZM2G130505	maize2
GRMZM2G027972	maize2
GRMZM2G067555	maize2
GRMZM2G129448	maize2
GRMZM2G129405	maize2
GRMZM2G098527	maize2
GRMZM2G113181	maize2
GRMZM2G176197	maize2
GRMZM2G174149	maize2
GRMZM2G009214	maize2
GRMZM2G388778	maize2
GRMZM2G085836	maize2
GRMZM2G035563	maize2
GRMZM2G047533	maize2
GRMZM2G094526	maize2
GRMZM2G101511	maize2
GRMZM2G398135	maize2
GRMZM2G359102	maize2
GRMZM2G147199	maize2
GRMZM2G173684	maize2
GRMZM2G009563	maize2
GRMZM2G332660	maize2
GRMZM2G084604	maize2
GRMZM2G425999	maize2
GRMZM2G105954	maize2
GRMZM2G040424	maize2
GRMZM2G051750	maize2
GRMZM2G031954	maize2
GRMZM2G173479	maize2
GRMZM2G106165	maize2
GRMZM2G120257	maize2
GRMZM2G069922	maize2
GRMZM2G049525	maize2
GRMZM2G134708	maize2
GRMZM2G423027	maize2
GRMZM2G354373	maize2
GRMZM2G153722	maize2
GRMZM2G121942	maize2
GRMZM2G178190	maize2
GRMZM2G130943	maize2
GRMZM2G091155	maize2
GRMZM2G140500	maize2
GRMZM2G151519	maize2
GRMZM2G073505	maize2
GRMZM2G172834	maize2
GRMZM2G445478	maize2
GRMZM2G702490	maize2
GRMZM2G118104	maize2
GRMZM2G080178	maize2
GRMZM2G056350	maize2
GRMZM2G179800	maize2
GRMZM2G147756	maize2
GRMZM2G078097	maize2
GRMZM2G078180	maize2
GRMZM2G074169	maize2
GRMZM2G074314	maize2
GRMZM2G113585	maize2
GRMZM2G392823	maize2
GRMZM2G109997	maize2
GRMZM2G033926	maize2
GRMZM2G374385	maize2
GRMZM2G073017	maize2
GRMZM2G006246	maize2
GRMZM2G321606	maize2
GRMZM2G102862	maize2
GRMZM2G405090	maize2
GRMZM2G068566	maize2
GRMZM2G158277	maize2
GRMZM2G008972	maize2
GRMZM2G181568	maize2
GRMZM2G066578	maize2
GRMZM2G027107	maize2
GRMZM2G027135	maize2
GRMZM2G027232	maize2
GRMZM2G058345	maize2
GRMZM2G123495	maize2
GRMZM2G111537	maize2
GRMZM2G110201	maize2
GRMZM2G146446	maize2
GRMZM2G134862	maize2
GRMZM2G139024	maize2
GRMZM2G126988	maize2
GRMZM2G465728	maize2
GRMZM2G144420	maize2
GRMZM2G046021	maize2
GRMZM2G075039	maize2
GRMZM2G138583	maize2
GRMZM2G015418	maize2
GRMZM2G015514	maize2
GRMZM2G114758	maize2
GRMZM2G090642	maize2
GRMZM2G002874	maize2
GRMZM2G080231	maize2
GRMZM2G124863	maize2
GRMZM2G001772	maize2
GRMZM2G178753	maize2
GRMZM2G096352	maize2
GRMZM2G138572	maize2
GRMZM2G046676	maize2
GRMZM2G077828	maize2
GRMZM2G417223	maize2
GRMZM2G004466	maize2
GRMZM2G113653	maize2
GRMZM2G129083	maize2
GRMZM2G002260	maize2
GRMZM2G006329	maize2
GRMZM2G006474	maize2
GRMZM2G015159	maize2
GRMZM2G016184	maize2
GRMZM2G176688	maize2
GRMZM2G176748	maize2
GRMZM2G065194	maize2
GRMZM2G064852	maize2
GRMZM2G136889	maize2
GRMZM2G002754	maize2
GRMZM2G164131	maize2
GRMZM2G470671	maize2
GRMZM2G076634	maize2
GRMZM2G026180	maize2
GRMZM2G327260	maize2
GRMZM2G386998	maize2
GRMZM2G402039	maize2
GRMZM2G452026	maize2
GRMZM2G068984	maize2
GRMZM2G177885	maize2
GRMZM2G114162	maize2
GRMZM2G131324	maize2
GRMZM2G347645	maize2
GRMZM2G408897	maize2
GRMZM2G104332	maize2
GRMZM2G160606	maize2
GRMZM2G461145	maize2
GRMZM2G129700	maize2
GRMZM2G129554	maize2
GRMZM2G105755	maize2
GRMZM2G011383	maize2
GRMZM2G034835	maize2
GRMZM2G064089	maize2
GRMZM2G324478	maize2
GRMZM2G065956	maize2
GRMZM2G065896	maize2
GRMZM2G110258	maize2
GRMZM2G317614	maize2
GRMZM2G131998	maize2
GRMZM2G129913	maize2
GRMZM2G130053	maize2
GRMZM2G086287	maize2
GRMZM2G076885	maize2
GRMZM2G077034	maize2
GRMZM2G077088	maize2
GRMZM2G159711	maize2
GRMZM2G130675	maize2
GRMZM2G166424	maize2
GRMZM2G099630	maize2
GRMZM2G701297	maize2
GRMZM2G477084	maize2
GRMZM2G057329	maize2
GRMZM2G095865	maize2
GRMZM2G124441	maize2
GRMZM2G395844	maize2
GRMZM2G108643	maize2
GRMZM2G165255	maize2
GRMZM2G393334	maize2
GRMZM2G160027	maize2
GRMZM2G144071	maize2
GRMZM2G152895	maize2
GRMZM2G121851	maize2
GRMZM2G420823	maize2
GRMZM2G021573	maize2
GRMZM2G084859	maize2
GRMZM2G121840	maize2
GRMZM2G398668	maize2
GRMZM2G138494	maize2
GRMZM2G138511	maize2
GRMZM2G023049	maize2
GRMZM2G426735	maize2
GRMZM2G134219	maize2
GRMZM2G148937	maize2
GRMZM2G448001	maize2
GRMZM2G138676	maize2
GRMZM2G144273	maize2
GRMZM2G099160	maize2
GRMZM2G167957	maize2
GRMZM2G112015	maize2
GRMZM2G013042	maize2
GRMZM2G013200	maize2
GRMZM2G092723	maize2
GRMZM2G092718	maize2
GRMZM2G083410	maize2
GRMZM2G083813	maize2
GRMZM2G083620	maize2
GRMZM2G384338	maize2
GRMZM2G072894	maize2
GRMZM2G019695	maize2
GRMZM2G022054	maize2
GRMZM2G130260	maize2
GRMZM2G130314	maize2
GRMZM2G089498	maize2
GRMZM2G035150	maize2
GRMZM2G177914	maize2
GRMZM2G177982	maize2
GRMZM2G089409	maize2
GRMZM2G097898	maize2
GRMZM2G103113	maize2
GRMZM2G098875	maize2
GRMZM2G178289	maize2
GRMZM2G159824	maize2
GRMZM2G081175	maize2
GRMZM2G147534	maize2
GRMZM2G448330	maize2
GRMZM2G145085	maize2
GRMZM2G036697	maize2
GRMZM2G031447	maize2
GRMZM2G146313	maize2
GRMZM2G446234	maize2
GRMZM2G481069	maize2
GRMZM2G119627	maize2
GRMZM2G083367	maize2
GRMZM2G151893	maize2
GRMZM2G145313	maize2
GRMZM2G005774	maize2
GRMZM2G049322	maize2
GRMZM2G462422	maize2
GRMZM2G162467	maize2
GRMZM2G171466	maize2
GRMZM2G030097	maize2
GRMZM2G154316	maize2
GRMZM2G117246	maize2
GRMZM2G047894	maize2
GRMZM2G083190	maize2
GRMZM2G083222	maize2
GRMZM2G006429	maize2
GRMZM2G172099	maize2
GRMZM2G033846	maize2
GRMZM2G020721	maize2
GRMZM2G131785	maize2
GRMZM2G426964	maize2
GRMZM2G317262	maize2
GRMZM2G108655	maize2
GRMZM2G398288	maize2
GRMZM2G012970	maize2
GRMZM2G134107	maize2
GRMZM2G436092	maize2
GRMZM2G428933	maize2
GRMZM2G164358	maize2
GRMZM2G017460	maize2
GRMZM2G045178	maize2
GRMZM2G448687	maize2
GRMZM2G170890	maize2
GRMZM2G108384	maize2
GRMZM2G178663	maize2
GRMZM2G020666	maize2
GRMZM2G313529	maize2
GRMZM2G148066	maize2
GRMZM2G353117	maize2
GRMZM2G114033	maize2
GRMZM2G052654	maize2
GRMZM2G004222	maize2
GRMZM2G461988	maize2
GRMZM2G104676	maize2
GRMZM2G000219	maize2
GRMZM2G152908	maize2
GRMZM2G109286	maize2
GRMZM2G428040	maize2
GRMZM2G065696	maize2
GRMZM2G126839	maize2
GRMZM2G108309	maize2
GRMZM2G123709	maize2
GRMZM2G011520	maize2
GRMZM2G310321	maize2
GRMZM2G119079	maize2
GRMZM2G040991	maize2
GRMZM2G009070	maize2
GRMZM2G117999	maize2
GRMZM2G178546	maize2
GRMZM2G178072	maize2
GRMZM2G116327	maize2
GRMZM2G161760	maize2
GRMZM2G107651	maize2
GRMZM2G348257	maize2
GRMZM2G084647	maize2
GRMZM2G084762	maize2
GRMZM2G097068	maize2
GRMZM2G040750	maize2
GRMZM2G155096	maize2
GRMZM2G155974	maize2
GRMZM2G155998	maize2
GRMZM2G052713	maize2
GRMZM2G168510	maize2
GRMZM2G141034	maize2
GRMZM2G081577	maize2
GRMZM2G070639	maize2
GRMZM2G449355	maize2
GRMZM2G025126	maize2
GRMZM2G426591	maize2
GRMZM2G020801	maize2
GRMZM2G012251	maize2
GRMZM2G174984	maize2
GRMZM2G093900	maize2
GRMZM2G377369	maize2
GRMZM2G111300	maize2
GRMZM2G360698	maize2
GRMZM2G104704	maize2
GRMZM2G147500	maize2
GRMZM2G106136	maize2
GRMZM2G065076	maize2
GRMZM2G129585	maize2
GRMZM2G402653	maize2
GRMZM2G036019	maize2
GRMZM2G088549	maize2
GRMZM2G091895	maize2
GRMZM2G145972	maize2
GRMZM2G064501	maize2
GRMZM2G064547	maize2
GRMZM2G074087	maize2
GRMZM2G074280	maize2
GRMZM2G131378	maize2
GRMZM2G006806	maize2
GRMZM2G163476	maize2
GRMZM2G011491	maize2
GRMZM2G443340	maize2
GRMZM2G096610	maize2
GRMZM2G100286	maize2
GRMZM2G119802	maize2
GRMZM2G028929	maize2
GRMZM2G031529	maize2
GRMZM2G032282	maize2
GRMZM2G079944	maize2
GRMZM2G174671	maize2
GRMZM2G066044	maize2
GRMZM2G068350	maize2
GRMZM2G456644	maize2
GRMZM2G091331	maize2
GRMZM2G173413	maize2
GRMZM2G142802	maize2
GRMZM2G473960	maize2
GRMZM2G031326	maize2
GRMZM2G142718	maize2
GRMZM2G181021	maize2
GRMZM2G322582	maize2
GRMZM2G162640	maize2
GRMZM2G406588	maize2
GRMZM2G001363	maize2
GRMZM2G010290	maize2
GRMZM2G094860	maize2
GRMZM2G125656	maize2
GRMZM2G301485	maize2
GRMZM2G379540	maize2
GRMZM2G155762	maize2
GRMZM2G155776	maize2
GRMZM2G003057	maize2
GRMZM2G084491	maize2
GRMZM2G142832	maize2
GRMZM2G360529	maize2
GRMZM2G343149	maize2
GRMZM2G112057	maize2
GRMZM2G133018	maize2
GRMZM2G105801	maize2
GRMZM2G392040	maize2
GRMZM2G148467	maize2
GRMZM2G092338	maize2
GRMZM2G016819	maize2
GRMZM2G016939	maize2
GRMZM2G017789	maize2
GRMZM2G429237	maize2
GRMZM2G155543	maize2
GRMZM2G399048	maize2
GRMZM2G063827	maize2
GRMZM2G104882	maize2
GRMZM2G149932	maize2
GRMZM2G340084	maize2
GRMZM2G038050	maize2
GRMZM2G146809	maize2
GRMZM2G107620	maize2
GRMZM2G179523	maize2
GRMZM2G179532	maize2
GRMZM2G333945	maize2
GRMZM2G157407	maize2
GRMZM2G160069	maize2
GRMZM2G028883	maize2
GRMZM2G377641	maize2
GRMZM2G075019	maize2
GRMZM2G077458	maize2
GRMZM2G101393	maize2
GRMZM2G071360	maize2
GRMZM2G071518	maize2
GRMZM2G000261	maize2
GRMZM2G096705	maize2
GRMZM2G066059	maize2
GRMZM2G154939	maize2
GRMZM2G018441	maize2
GRMZM2G324417	maize2
GRMZM2G018689	maize2
GRMZM2G437481	maize2
GRMZM2G368898	maize2
GRMZM2G047370	maize2
GRMZM2G067421	maize2
GRMZM2G039536	maize2
GRMZM2G025366	maize2
GRMZM2G019621	maize2
GRMZM2G173633	maize2
GRMZM2G169648	maize2
GRMZM2G064320	maize2
GRMZM2G064159	maize2
GRMZM2G057554	maize2
GRMZM2G135430	maize2
GRMZM2G125424	maize2
GRMZM2G043670	maize2
GRMZM2G087809	maize2
GRMZM2G143352	maize2
GRMZM2G092325	maize2
GRMZM2G143499	maize2
GRMZM2G446201	maize2
GRMZM2G125476	maize2
GRMZM2G158069	maize2
GRMZM2G072174	maize2
GRMZM2G072322	maize2
GRMZM2G072337	maize2
GRMZM2G330424	maize2
GRMZM2G175525	maize2
GRMZM2G059110	maize2
GRMZM2G027241	maize2
GRMZM2G147390	maize2
GRMZM2G177340	maize2
GRMZM2G027056	maize2
GRMZM2G021802	maize2
GRMZM2G480171	maize2
GRMZM2G037226	maize2
GRMZM2G143035	maize2
GRMZM2G001853	maize2
GRMZM2G126194	maize2
GRMZM2G097106	maize2
GRMZM2G547542	maize2
GRMZM2G022308	maize2
GRMZM2G148594	maize2
GRMZM2G148621	maize2
GRMZM2G448051	maize2
GRMZM2G023387	maize2
GRMZM2G324767	maize2
GRMZM2G090441	maize2
GRMZM2G152857	maize2
GRMZM2G074759	maize2
GRMZM2G021822	maize2
GRMZM2G074773	maize2
GRMZM2G011743	maize2
GRMZM2G011513	maize2
GRMZM2G107696	maize2
GRMZM2G175253	maize2
GRMZM2G171942	maize2
GRMZM2G062069	maize2
GRMZM2G070605	maize2
GRMZM2G070520	maize2
GRMZM2G083394	maize2
GRMZM2G138967	maize2
GRMZM2G438673	maize2
GRMZM2G168439	maize2
GRMZM2G168375	maize2
GRMZM2G168412	maize2
GRMZM2G067575	maize2
GRMZM2G067601	maize2
GRMZM2G367678	maize2
GRMZM2G367701	maize2
GRMZM2G415538	maize2
GRMZM2G167758	maize2
GRMZM2G167766	maize2
GRMZM2G470648	maize2
GRMZM2G448717	maize2
GRMZM2G092616	maize2
GRMZM2G147709	maize2
GRMZM2G118636	maize2
GRMZM2G118644	maize2
GRMZM2G133885	maize2
GRMZM2G133952	maize2
GRMZM2G133959	maize2
GRMZM2G435034	maize2
GRMZM2G083117	maize2
GRMZM2G077752	maize2
GRMZM2G077776	maize2
GRMZM2G356714	maize2
GRMZM2G102314	maize2
GRMZM2G114550	maize2
GRMZM2G139369	maize2
GRMZM2G460581	maize2
GRMZM2G161168	maize2
GRMZM2G134256	maize2
GRMZM2G016802	maize2
GRMZM2G146885	maize2
GRMZM2G145496	maize2
GRMZM2G064905	maize2
GRMZM2G371079	maize2
GRMZM2G032447	maize2
GRMZM2G032706	maize2
GRMZM2G042118	maize2
GRMZM2G107498	maize2
GRMZM2G168685	maize2
GRMZM2G096169	maize2
GRMZM2G166875	maize2
GRMZM2G166877	maize2
GRMZM2G004906	maize2
GRMZM2G024799	maize2
GRMZM2G028516	maize2
GRMZM2G329325	maize2
GRMZM2G316362	maize2
GRMZM2G335218	maize2
GRMZM2G169398	maize2
GRMZM2G168079	maize2
GRMZM2G146437	maize2
GRMZM2G074462	maize2
GRMZM2G057075	maize2
GRMZM2G440348	maize2
GRMZM2G169329	maize2
GRMZM2G010929	maize2
GRMZM2G028966	maize2
GRMZM2G154960	maize2
GRMZM2G146206	maize2
GRMZM2G020484	maize2
GRMZM2G112865	maize2
GRMZM2G012595	maize2
GRMZM2G046293	maize2
GRMZM2G135362	maize2
GRMZM2G011233	maize2
GRMZM2G010468	maize2
GRMZM2G069078	maize2
GRMZM2G121785	maize2
GRMZM2G476009	maize2
GRMZM2G090747	maize2
GRMZM2G132284	maize2
GRMZM2G477503	maize2
GRMZM2G106344	maize2
GRMZM2G139175	maize2
GRMZM2G117644	maize2
GRMZM2G417765	maize2
GRMZM2G133029	maize2
GRMZM2G133175	maize2
GRMZM2G126956	maize2
GRMZM2G173862	maize2
GRMZM2G079468	maize2
GRMZM2G111428	maize2
GRMZM2G116086	maize2
GRMZM2G040100	maize2
GRMZM2G124047	maize2
GRMZM2G139093	maize2
GRMZM2G027535	maize2
GRMZM2G027016	maize2
GRMZM2G097032	maize2
GRMZM2G124091	maize2
GRMZM2G124321	maize2
GRMZM2G424873	maize2
GRMZM2G116273	maize2
GRMZM2G153274	maize2
GRMZM2G073959	maize2
GRMZM2G035347	maize2
GRMZM2G035401	maize2
GRMZM2G110714	maize2
GRMZM2G135586	maize2
GRMZM2G148881	maize2
GRMZM2G044576	maize2
GRMZM2G094304	maize2
GRMZM2G149031	maize2
GRMZM2G120951	maize2
GRMZM2G097282	maize2
GRMZM2G017193	maize2
GRMZM2G082512	maize2
GRMZM2G166383	maize2
GRMZM2G144716	maize2
GRMZM2G151245	maize2
GRMZM2G069203	maize2
GRMZM2G169548	maize2
GRMZM2G131708	maize2
GRMZM2G339781	maize2
GRMZM2G455124	maize2
GRMZM2G075906	maize2
GRMZM2G157043	maize2
GRMZM2G469901	maize2
GRMZM2G163988	maize2
GRMZM2G462623	maize2
GRMZM2G055936	maize2
GRMZM2G059449	maize2
GRMZM2G002297	maize2
GRMZM2G075250	maize2
GRMZM2G098973	maize2
GRMZM2G020131	maize2
GRMZM2G181102	maize2
GRMZM2G167085	maize2
GRMZM2G020008	maize2
GRMZM2G063672	maize2
GRMZM2G070913	maize2
GRMZM2G058366	maize2
GRMZM2G037694	maize2
GRMZM2G040642	maize2
GRMZM2G116083	maize2
GRMZM2G013448	maize2
GRMZM2G072365	maize2
GRMZM2G135795	maize2
GRMZM2G073404	maize2
GRMZM2G459373	maize2
GRMZM2G157589	maize2
GRMZM2G064675	maize2
GRMZM2G064767	maize2
GRMZM2G106960	maize2
GRMZM2G335720	maize2
GRMZM2G464754	maize2
GRMZM2G084727	maize2
GRMZM2G080116	maize2
GRMZM2G142964	maize2
GRMZM2G167422	maize2
GRMZM2G023840	maize2
GRMZM2G324903	maize2
GRMZM2G053574	maize2
GRMZM2G072029	maize2
GRMZM2G003930	maize2
GRMZM2G140782	maize2
GRMZM2G140754	maize2
GRMZM2G144853	maize2
GRMZM2G445461	maize2
GRMZM2G066057	maize2
GRMZM2G096525	maize2
GRMZM2G322047	maize2
GRMZM2G096234	maize2
GRMZM2G373928	maize2
GRMZM2G004006	maize2
GRMZM2G044337	maize2
GRMZM2G156673	maize2
GRMZM2G304687	maize2
GRMZM2G156643	maize2
GRMZM2G467370	maize2
GRMZM2G024730	maize2
GRMZM2G416817	maize2
GRMZM2G017555	maize2
GRMZM2G146047	maize2
GRMZM2G134941	maize2
GRMZM2G349193	maize2
GRMZM2G139952	maize2
GRMZM2G128080	maize2
GRMZM2G012728	maize2
GRMZM2G171122	maize2
GRMZM2G001748	maize2
GRMZM2G069687	maize2
GRMZM2G382379	maize2
GRMZM2G175071	maize2
GRMZM2G029243	maize2
GRMZM2G464491	maize2
GRMZM2G004083	maize2
GRMZM2G004182	maize2
GRMZM2G390889	maize2
GRMZM2G082214	maize2
GRMZM2G092793	maize2
GRMZM2G304091	maize2
GRMZM2G400497	maize2
GRMZM2G021276	maize2
GRMZM2G075992	maize2
GRMZM2G111998	maize2
GRMZM2G027737	maize2
GRMZM2G014788	maize2
GRMZM2G079638	maize2
GRMZM2G085402	maize2
GRMZM2G096897	maize2
GRMZM2G180990	maize2
GRMZM2G003022	maize2
GRMZM2G097103	maize2
GRMZM2G075690	maize2
GRMZM2G120202	maize2
GRMZM2G147882	maize2
GRMZM2G087146	maize2
GRMZM2G088356	maize2
GRMZM2G144403	maize2
GRMZM2G144464	maize2
GRMZM2G071720	maize2
GRMZM2G375517	maize2
GRMZM2G072339	maize2
GRMZM2G109639	maize2
GRMZM2G401511	maize2
GRMZM2G064366	maize2
GRMZM2G166674	maize2
GRMZM2G166776	maize2
GRMZM2G130379	maize2
GRMZM2G410567	maize2
GRMZM2G070304	maize2
GRMZM2G066950	maize2
GRMZM2G457381	maize2
GRMZM2G043226	maize2
GRMZM2G094699	maize2
GRMZM2G087105	maize2
GRMZM2G335126	maize2
GRMZM2G099862	maize2
GRMZM2G170161	maize2
GRMZM2G155849	maize2
GRMZM2G152962	maize2
GRMZM2G052507	maize2
GRMZM2G134559	maize2
GRMZM2G001180	maize2
GRMZM2G001444	maize2
GRMZM2G302233	maize2
GRMZM2G168476	maize2
GRMZM2G105570	maize2
GRMZM2G135195	maize2
GRMZM2G474092	maize2
GRMZM2G116079	maize2
GRMZM2G171452	maize2
GRMZM2G171520	maize2
GRMZM2G180971	maize2
GRMZM2G049839	maize2
GRMZM2G030542	maize2
GRMZM2G056867	maize2
GRMZM2G064328	maize2
GRMZM2G053722	maize2
GRMZM2G400928	maize2
GRMZM2G175805	maize2
GRMZM2G052920	maize2
GRMZM2G060896	maize2
GRMZM2G174598	maize2
GRMZM2G153602	maize2
GRMZM2G029058	maize2
GRMZM2G007854	maize2
GRMZM2G109680	maize2
GRMZM2G109731	maize2
GRMZM2G049329	maize2
GRMZM2G085750	maize2
GRMZM2G085718	maize2
GRMZM2G069631	maize2
GRMZM2G413069	maize2
GRMZM2G121495	maize2
GRMZM2G038588	maize2
GRMZM2G080056	maize2
GRMZM2G411561	maize2
GRMZM2G071042	maize2
GRMZM2G156105	maize2
GRMZM2G328118	maize2
GRMZM2G120784	maize2
GRMZM2G056442	maize2
GRMZM2G147288	maize2
GRMZM2G096171	maize2
GRMZM2G033665	maize2
GRMZM2G107771	maize2
GRMZM2G007306	maize2
GRMZM2G032314	maize2
GRMZM2G060464	maize2
GRMZM2G069444	maize2
GRMZM2G372633	maize2
GRMZM2G022694	maize2
GRMZM2G002173	maize2
GRMZM2G312806	maize2
GRMZM2G397540	maize2
GRMZM2G159691	maize2
GRMZM2G165231	maize2
GRMZM2G165257	maize2
GRMZM2G152616	maize2
GRMZM2G123037	maize2
GRMZM2G021607	maize2
GRMZM2G104925	maize2
GRMZM2G374313	maize2
GRMZM2G041842	maize2
GRMZM2G044882	maize2
GRMZM2G459474	maize2
GRMZM2G360389	maize2
GRMZM2G125529	maize2
GRMZM2G125556	maize2
GRMZM2G162670	maize2
GRMZM2G081406	maize2
GRMZM2G460360	maize2
GRMZM2G038820	maize2
GRMZM2G078092	maize2
GRMZM2G133444	maize2
GRMZM2G149272	maize2
GRMZM2G146786	maize2
GRMZM2G099109	maize2
GRMZM2G460025	maize2
GRMZM2G100716	maize2
GRMZM2G038243	maize2
GRMZM2G144638	maize2
GRMZM2G102516	maize2
GRMZM2G027052	maize2
GRMZM2G323719	maize2
GRMZM2G174511	maize2
GRMZM2G163925	maize2
GRMZM2G080842	maize2
GRMZM2G046348	maize2
GRMZM2G046472	maize2
GRMZM2G073359	maize2
GRMZM2G138407	maize2
GRMZM2G137029	maize2
GRMZM2G030240	maize2
GRMZM2G118827	maize2
GRMZM2G028438	maize2
GRMZM2G081172	maize2
GRMZM2G081310	maize2
GRMZM2G378073	maize2
GRMZM2G133146	maize2
GRMZM2G146337	maize2
GRMZM2G004748	maize2
GRMZM2G054013	maize2
GRMZM2G125259	maize2
GRMZM2G076631	maize2
GRMZM2G361074	maize2
GRMZM2G156301	maize2
GRMZM2G156307	maize2
GRMZM2G156320	maize2
GRMZM2G042356	maize2
GRMZM2G064960	maize2
GRMZM2G011624	maize2
GRMZM2G309950	maize2
GRMZM2G105522	maize2
GRMZM2G077258	maize2
GRMZM2G122848	maize2
GRMZM2G127524	maize2
GRMZM2G055158	maize2
GRMZM2G063473	maize2
GRMZM2G063426	maize2
GRMZM2G063316	maize2
GRMZM2G168378	maize2
GRMZM2G361693	maize2
GRMZM2G439339	maize2
GRMZM2G041959	maize2
GRMZM2G134104	maize2
GRMZM2G380457	maize2
GRMZM2G087245	maize2
GRMZM2G101518	maize2
GRMZM2G405815	maize2
GRMZM2G007729	maize2
GRMZM2G107414	maize2
GRMZM2G084498	maize2
GRMZM2G084445	maize2
GRMZM2G015941	maize2
GRMZM2G015912	maize2
GRMZM2G079353	maize2
GRMZM2G356046	maize2
GRMZM2G158839	maize2
GRMZM2G158860	maize2
GRMZM2G139293	maize2
GRMZM2G115013	maize2
GRMZM2G449909	maize2
GRMZM2G091143	maize2
GRMZM2G000610	maize2
GRMZM2G053766	maize2
GRMZM2G181336	maize2
GRMZM2G070138	maize2
GRMZM2G446313	maize2
GRMZM2G155499	maize2
GRMZM2G135073	maize2
GRMZM2G156415	maize2
GRMZM2G010933	maize2
GRMZM2G010912	maize2
GRMZM2G111415	maize2
GRMZM2G148374	maize2
GRMZM2G084515	maize2
GRMZM2G178919	maize2
GRMZM2G178972	maize2
GRMZM2G054065	maize2
GRMZM2G108284	maize2
GRMZM2G108364	maize2
GRMZM2G140901	maize2
GRMZM2G075336	maize2
GRMZM2G099097	maize2
GRMZM2G102216	maize2
GRMZM2G157472	maize2
GRMZM2G172214	maize2
GRMZM2G120964	maize2
GRMZM2G075513	maize2
GRMZM2G146207	maize2
GRMZM2G473411	maize2
GRMZM2G073954	maize2
GRMZM2G143854	maize2
GRMZM2G024331	maize2
GRMZM2G081843	maize2
GRMZM2G081965	maize2
GRMZM2G082007	maize2
GRMZM2G082222	maize2
GRMZM2G085547	maize2
GRMZM2G101754	maize2
GRMZM2G113950	maize2
GRMZM2G123831	maize2
GRMZM2G140033	maize2
GRMZM2G417682	maize2
GRMZM2G123818	maize2
GRMZM2G006006	maize2
GRMZM2G152278	maize2
GRMZM2G383210	maize2
GRMZM2G041799	maize2
GRMZM2G045171	maize2
GRMZM2G347047	maize2
GRMZM2G140809	maize2
GRMZM2G082322	maize2
GRMZM2G155015	maize2
GRMZM2G322328	maize2
GRMZM2G100976	maize2
GRMZM2G150726	maize2
GRMZM2G096363	maize2
GRMZM2G140917	maize2
GRMZM2G134930	maize2
GRMZM2G048537	maize2
GRMZM2G139073	maize2
GRMZM2G009080	maize2
GRMZM2G065105	maize2
GRMZM2G151200	maize2
GRMZM2G402862	maize2
GRMZM2G132644	maize2
GRMZM2G073671	maize2
GRMZM2G413135	maize2
GRMZM2G102923	maize2
GRMZM2G406101	maize2
GRMZM2G102915	maize2
GRMZM2G103266	maize2
GRMZM2G130813	maize2
GRMZM2G131087	maize2
GRMZM2G384293	maize2
GRMZM2G163247	maize2
GRMZM2G054162	maize2
GRMZM2G010372	maize2
GRMZM2G079348	maize2
GRMZM2G119393	maize2
GRMZM2G119426	maize2
GRMZM2G006069	maize2
GRMZM2G006197	maize2
GRMZM2G074414	maize2
GRMZM2G139372	maize2
GRMZM2G042664	maize2
GRMZM2G061078	maize2
GRMZM2G090156	maize2
GRMZM2G389768	maize2
GRMZM2G060451	maize2
GRMZM2G423129	maize2
GRMZM2G423137	maize2
GRMZM2G174596	maize2
GRMZM2G009924	maize2
GRMZM2G019284	maize2
GRMZM2G324956	maize2
GRMZM2G069603	maize2
GRMZM2G069569	maize2
GRMZM2G324863	maize2
GRMZM2G023528	maize2
GRMZM2G165966	maize2
GRMZM2G117459	maize2
GRMZM2G166041	maize2
GRMZM2G153745	maize2
GRMZM2G351027	maize2
GRMZM2G003157	maize2
GRMZM2G009871	maize2
GRMZM2G012262	maize2
GRMZM2G052740	maize2
GRMZM2G419994	maize2
GRMZM2G119640	maize2
GRMZM2G132866	maize2
GRMZM2G028980	maize2
GRMZM2G168629	maize2
GRMZM2G041060	maize2
GRMZM2G010152	maize2
GRMZM2G010221	maize2
GRMZM2G421857	maize2
GRMZM2G119578	maize2
GRMZM2G062683	maize2
GRMZM2G143462	maize2
GRMZM2G143457	maize2
GRMZM2G037185	maize2
GRMZM2G000596	maize2
GRMZM2G389070	maize2
GRMZM2G030122	maize2
GRMZM2G040467	maize2
GRMZM2G131249	maize2
GRMZM2G454327	maize2
GRMZM2G150201	maize2
GRMZM2G124179	maize2
GRMZM2G150134	maize2
GRMZM2G387227	maize2
GRMZM2G150217	maize2
GRMZM2G046537	maize2
GRMZM2G157564	maize2
GRMZM2G084489	maize2
GRMZM2G019328	maize2
GRMZM2G019596	maize2
GRMZM2G134230	maize2
GRMZM2G068294	maize2
GRMZM2G145573	maize2
GRMZM2G351775	maize2
GRMZM2G015906	maize2
GRMZM2G401830	maize2
GRMZM2G047097	maize2
GRMZM2G053322	maize2
GRMZM2G029756	maize2
GRMZM2G139565	maize2
GRMZM2G145752	maize2
GRMZM2G074377	maize2
GRMZM2G063975	maize2
GRMZM2G029933	maize2
GRMZM2G106459	maize2
GRMZM2G109354	maize2
GRMZM2G136567	maize2
GRMZM2G087451	maize2
GRMZM2G334899	maize2
GRMZM2G084274	maize2
GRMZM2G408096	maize2
GRMZM2G071362	maize2
GRMZM2G094017	maize2
GRMZM2G026470	maize2
GRMZM2G322953	maize2
GRMZM2G046824	maize2
GRMZM2G114954	maize2
GRMZM2G055652	maize2
GRMZM2G055684	maize2
GRMZM2G147051	maize2
GRMZM2G055667	maize2
GRMZM2G097421	maize2
GRMZM2G147213	maize2
GRMZM2G174370	maize2
GRMZM2G397261	maize2
GRMZM2G082384	maize2
GRMZM2G351416	maize2
GRMZM2G035202	maize2
GRMZM2G336908	maize2
GRMZM2G148366	maize2
GRMZM2G163658	maize2
GRMZM2G068091	maize2
GRMZM2G179709	maize2
GRMZM2G100244	maize2
GRMZM2G142640	maize2
GRMZM2G161009	maize2
GRMZM2G080731	maize2
GRMZM2G025459	maize2
GRMZM2G173195	maize2
GRMZM2G366873	maize2
GRMZM2G082894	maize2
GRMZM2G035651	maize2
GRMZM2G479987	maize2
GRMZM2G044744	maize2
GRMZM2G044797	maize2
GRMZM2G044771	maize2
GRMZM2G082707	maize2
GRMZM2G093418	maize2
GRMZM2G119483	maize2
GRMZM2G173710	maize2
GRMZM2G127844	maize2
GRMZM2G387603	maize2
GRMZM2G410352	maize2
GRMZM2G323387	maize2
GRMZM2G112085	maize2
GRMZM2G405706	maize2
GRMZM2G070013	maize2
GRMZM2G413652	maize2
GRMZM2G063880	maize2
GRMZM2G096435	maize2
GRMZM2G058305	maize2
GRMZM2G058456	maize2
GRMZM2G001991	maize2
GRMZM2G002034	maize2
GRMZM2G045664	maize2
GRMZM2G128726	maize2
GRMZM2G129291	maize2
GRMZM2G158788	maize2
GRMZM2G162413	maize2
GRMZM2G162450	maize2
GRMZM2G111965	maize2
GRMZM2G318270	maize2
GRMZM2G401721	maize2
GRMZM2G012874	maize2
GRMZM2G056014	maize2
GRMZM2G000592	maize2
GRMZM2G075000	maize2
GRMZM2G059544	maize2
GRMZM2G005737	maize2
GRMZM2G141859	maize2
GRMZM2G141873	maize2
GRMZM2G047412	maize2
GRMZM2G047577	maize2
GRMZM2G028986	maize2
GRMZM2G168590	maize2
GRMZM2G470513	maize2
GRMZM2G098203	maize2
GRMZM2G098212	maize2
GRMZM2G098237	maize2
GRMZM2G363429	maize2
GRMZM2G363454	maize2
GRMZM2G162079	maize2
GRMZM2G112792	maize2
GRMZM2G062591	maize2
GRMZM2G008273	maize2
GRMZM2G302160	maize2
GRMZM2G049185	maize2
GRMZM2G059325	maize2
GRMZM2G089086	maize2
GRMZM2G390489	maize2
GRMZM2G125775	maize2
GRMZM2G043501	maize2
GRMZM2G045716	maize2
GRMZM2G105772	maize2
GRMZM2G176141	maize2
GRMZM2G088819	maize2
GRMZM2G113619	maize2
GRMZM2G001750	maize2
GRMZM2G159125	maize2
GRMZM2G140160	maize2
GRMZM2G447569	maize2
GRMZM2G399284	maize2
GRMZM2G365515	maize2
GRMZM2G335419	maize2
GRMZM2G376548	maize2
GRMZM2G134430	maize2
GRMZM2G134497	maize2
GRMZM2G134502	maize2
GRMZM2G065665	maize2
GRMZM2G005486	maize2
GRMZM2G119516	maize2
GRMZM2G002075	maize2
GRMZM2G138396	maize2
GRMZM2G081676	maize2
GRMZM2G048392	maize2
GRMZM2G048411	maize2
GRMZM2G137477	maize2
GRMZM2G048008	maize2
GRMZM2G168693	maize2
GRMZM2G021598	maize2
GRMZM2G120091	maize2
GRMZM2G052908	maize2
GRMZM2G003947	maize2
GRMZM2G014313	maize2
GRMZM2G014526	maize2
GRMZM2G305864	maize2
GRMZM2G340534	maize2
GRMZM2G158884	maize2
GRMZM2G179031	maize2
GRMZM2G035996	maize2
GRMZM2G040911	maize2
GRMZM2G318220	maize2
GRMZM2G014341	maize2
GRMZM2G087312	maize2
GRMZM2G147819	maize2
GRMZM2G000665	maize2
GRMZM2G022921	maize2
GRMZM2G170276	maize2
GRMZM2G059033	maize2
GRMZM2G046313	maize2
GRMZM2G050714	maize2
GRMZM2G146761	maize2
GRMZM2G114322	maize2
GRMZM2G081812	maize2
GRMZM2G056632	maize2
GRMZM2G153586	maize2
GRMZM2G002851	maize2
GRMZM2G103840	maize2
GRMZM2G114650	maize2
GRMZM2G164263	maize2
GRMZM2G146745	maize2
GRMZM2G121427	maize2
GRMZM2G480809	maize2
GRMZM2G179459	maize2
GRMZM2G168679	maize2
GRMZM2G125935	maize2
GRMZM2G125495	maize2
GRMZM2G067063	maize2
GRMZM2G046011	maize2
GRMZM2G163297	maize2
GRMZM2G008898	maize2
GRMZM2G117968	maize2
GRMZM2G418415	maize2
GRMZM2G400169	maize2
GRMZM2G310548	maize2
GRMZM2G087479	maize2
GRMZM2G113476	maize2
GRMZM2G130773	maize2
GRMZM2G090274	maize2
GRMZM2G082612	maize2
GRMZM2G177110	maize2
GRMZM2G177138	maize2
GRMZM2G146416	maize2
GRMZM2G143173	maize2
GRMZM2G111614	maize2
GRMZM2G412888	maize2
GRMZM2G101142	maize2
GRMZM2G358381	maize2
GRMZM2G031143	maize2
GRMZM2G358987	maize2
GRMZM2G056564	maize2
GRMZM2G016844	maize2
GRMZM2G419969	maize2
GRMZM2G064630	maize2
GRMZM2G092284	maize2
GRMZM2G102944	maize2
GRMZM2G141551	maize2
GRMZM2G422576	maize2
GRMZM2G040175	maize2
GRMZM2G071076	maize2
GRMZM2G166971	maize2
GRMZM2G350773	maize2
GRMZM2G137724	maize2
GRMZM2G025255	maize2
GRMZM2G131467	maize2
GRMZM2G053434	maize2
GRMZM2G010783	maize2
GRMZM2G010551	maize2
GRMZM2G001297	maize2
GRMZM2G031125	maize2
GRMZM2G003252	maize2
GRMZM2G176327	maize2
GRMZM2G097277	maize2
GRMZM2G101390	maize2
GRMZM2G353276	maize2
GRMZM2G142437	maize2
GRMZM2G076307	maize2
GRMZM2G129238	maize2
GRMZM2G140667	maize2
GRMZM2G108981	maize2
GRMZM2G108991	maize2
GRMZM2G150754	maize2
GRMZM2G074567	maize2
GRMZM2G145895	maize2
GRMZM2G029632	maize2
GRMZM2G047431	maize2
GRMZM2G052935	maize2
GRMZM2G365035	maize2
GRMZM2G107956	maize2
GRMZM2G107968	maize2
GRMZM2G144415	maize2
GRMZM2G034572	maize2
GRMZM2G402295	maize2
GRMZM2G020805	maize2
GRMZM2G324471	maize2
GRMZM2G064352	maize2
GRMZM2G324507	maize2
GRMZM2G324544	maize2
GRMZM2G096016	maize2
GRMZM2G399821	maize2
GRMZM2G146685	maize2
GRMZM2G344933	maize2
GRMZM2G047095	maize2
GRMZM2G047632	maize2
GRMZM2G078959	maize2
GRMZM2G398089	maize2
GRMZM2G020898	maize2
GRMZM2G037150	maize2
GRMZM2G046961	maize2
GRMZM2G037131	maize2
GRMZM2G170896	maize2
GRMZM2G462924	maize2
GRMZM2G002915	maize2
GRMZM2G119906	maize2
GRMZM2G171317	maize2
GRMZM2G171328	maize2
GRMZM2G120371	maize2
GRMZM2G101499	maize2
GRMZM2G388987	maize2
GRMZM2G050765	maize2
GRMZM2G385182	maize2
GRMZM2G161666	maize2
GRMZM2G012276	maize2
GRMZM2G116881	maize2
GRMZM2G012479	maize2
GRMZM2G071100	maize2
GRMZM2G086277	maize2
GRMZM2G033074	maize2
GRMZM2G011319	maize2
GRMZM2G047204	maize2
GRMZM2G155662	maize2
GRMZM2G438429	maize2
GRMZM2G168299	maize2
GRMZM2G103166	maize2
GRMZM2G082564	maize2
GRMZM2G122892	maize2
GRMZM2G009683	maize2
GRMZM2G478892	maize2
GRMZM2G161673	maize2
GRMZM2G010960	maize2
GRMZM2G077837	maize2
GRMZM2G078458	maize2
GRMZM2G380377	maize2
GRMZM2G172664	maize2
GRMZM2G098427	maize2
GRMZM2G095211	maize2
GRMZM2G145718	maize2
GRMZM2G127798	maize2
GRMZM2G429113	maize2
GRMZM2G102938	maize2
GRMZM2G141009	maize2
GRMZM2G013617	maize2
GRMZM2G107073	maize2
GRMZM2G104945	maize2
GRMZM2G104958	maize2
GRMZM2G051902	maize2
GRMZM2G318010	maize2
GRMZM2G463462	maize2
GRMZM2G071450	maize2
GRMZM2G048910	maize2
GRMZM2G431708	maize2
GRMZM2G132373	maize2
GRMZM2G047720	maize2
GRMZM2G133331	maize2
GRMZM2G054468	maize2
GRMZM2G155343	maize2
GRMZM2G174315	maize2
GRMZM2G175272	maize2
GRMZM2G120163	maize2
GRMZM2G012992	maize2
GRMZM2G348551	maize2
GRMZM2G164669	maize2
GRMZM2G010433	maize2
GRMZM2G420883	maize2
GRMZM2G089562	maize2
GRMZM2G158515	maize2
GRMZM2G117057	maize2
GRMZM2G341027	maize2
GRMZM2G365768	maize2
GRMZM2G067373	maize2
GRMZM2G064993	maize2
GRMZM2G101707	maize2
GRMZM2G064382	maize2
GRMZM2G038623	maize2
GRMZM2G073700	maize2
GRMZM2G041258	maize2
GRMZM2G129431	maize2
GRMZM2G122302	maize2
GRMZM2G029685	maize2
GRMZM2G093391	maize2
GRMZM2G162295	maize2
GRMZM2G164883	maize2
GRMZM2G084264	maize2
GRMZM2G135970	maize2
GRMZM2G136058	maize2
GRMZM2G142816	maize2
GRMZM2G079200	maize2
GRMZM2G325650	maize2
GRMZM2G048194	maize2
GRMZM2G330024	maize2
GRMZM2G442804	maize2
GRMZM2G158668	maize2
GRMZM2G169321	maize2
GRMZM2G169333	maize2
GRMZM2G123482	maize2
GRMZM2G322888	maize2
GRMZM2G097021	maize2
GRMZM2G127154	maize2
GRMZM2G073086	maize2
GRMZM2G026802	maize2
GRMZM2G026962	maize2
GRMZM2G000044	maize1
GRMZM2G000093	maize1
GRMZM2G000126	maize1
GRMZM2G000166	maize1
GRMZM2G000361	maize1
GRMZM2G000397	maize1
GRMZM2G000451	maize1
GRMZM2G000453	maize1
GRMZM2G000587	maize1
GRMZM2G000608	maize1
GRMZM2G000614	maize1
GRMZM2G000749	maize1
GRMZM2G000909	maize1
GRMZM2G000932	maize1
GRMZM2G001048	maize1
GRMZM2G001097	maize1
GRMZM2G001116	maize1
GRMZM2G001169	maize1
GRMZM2G001205	maize1
GRMZM2G001219	maize1
GRMZM2G001223	maize1
GRMZM2G001255	maize1
GRMZM2G001296	maize1
GRMZM2G001530	maize1
GRMZM2G001577	maize1
GRMZM2G001639	maize1
GRMZM2G001653	maize1
GRMZM2G001661	maize1
GRMZM2G001663	maize1
GRMZM2G001803	maize1
GRMZM2G001869	maize1
GRMZM2G001875	maize1
GRMZM2G001898	maize1
GRMZM2G001904	maize1
GRMZM2G002115	maize1
GRMZM2G002165	maize1
GRMZM2G002391	maize1
GRMZM2G002492	maize1
GRMZM2G002626	maize1
GRMZM2G002627	maize1
GRMZM2G002642	maize1
GRMZM2G002699	maize1
GRMZM2G002894	maize1
GRMZM2G002903	maize1
GRMZM2G003023	maize1
GRMZM2G003028	maize1
GRMZM2G003038	maize1
GRMZM2G003090	maize1
GRMZM2G003307	maize1
GRMZM2G003318	maize1
GRMZM2G003342	maize1
GRMZM2G003354	maize1
GRMZM2G003385	maize1
GRMZM2G003426	maize1
GRMZM2G003565	maize1
GRMZM2G003718	maize1
GRMZM2G003724	maize1
GRMZM2G003742	maize1
GRMZM2G003752	maize1
GRMZM2G003765	maize1
GRMZM2G003769	maize1
GRMZM2G003784	maize1
GRMZM2G003883	maize1
GRMZM2G004161	maize1
GRMZM2G004352	maize1
GRMZM2G004414	maize1
GRMZM2G004435	maize1
GRMZM2G004511	maize1
GRMZM2G004583	maize1
GRMZM2G004590	maize1
GRMZM2G004592	maize1
GRMZM2G004641	maize1
GRMZM2G004699	maize1
GRMZM2G004736	maize1
GRMZM2G004799	maize1
GRMZM2G004957	maize1
GRMZM2G004990	maize1
GRMZM2G004996	maize1
GRMZM2G005052	maize1
GRMZM2G005126	maize1
GRMZM2G005155	maize1
GRMZM2G005209	maize1
GRMZM2G005265	maize1
GRMZM2G005339	maize1
GRMZM2G005346	maize1
GRMZM2G005435	maize1
GRMZM2G005624	maize1
GRMZM2G005652	maize1
GRMZM2G005715	maize1
GRMZM2G005791	maize1
GRMZM2G005798	maize1
GRMZM2G005815	maize1
GRMZM2G005886	maize1
GRMZM2G005973	maize1
GRMZM2G006112	maize1
GRMZM2G006229	maize1
GRMZM2G006377	maize1
GRMZM2G006416	maize1
GRMZM2G006452	maize1
GRMZM2G006453	maize1
GRMZM2G006673	maize1
GRMZM2G006707	maize1
GRMZM2G006752	maize1
GRMZM2G006791	maize1
GRMZM2G006942	maize1
GRMZM2G006964	maize1
GRMZM2G007080	maize1
GRMZM2G007160	maize1
GRMZM2G007190	maize1
GRMZM2G007263	maize1
GRMZM2G007339	maize1
GRMZM2G007441	maize1
GRMZM2G007466	maize1
GRMZM2G007486	maize1
GRMZM2G007651	maize1
GRMZM2G007683	maize1
GRMZM2G007835	maize1
GRMZM2G008061	maize1
GRMZM2G008064	maize1
GRMZM2G008226	maize1
GRMZM2G008242	maize1
GRMZM2G008250	maize1
GRMZM2G008259	maize1
GRMZM2G008263	maize1
GRMZM2G008309	maize1
GRMZM2G008356	maize1
GRMZM2G008425	maize1
GRMZM2G008593	maize1
GRMZM2G008607	maize1
GRMZM2G008642	maize1
GRMZM2G008687	maize1
GRMZM2G008726	maize1
GRMZM2G008731	maize1
GRMZM2G008764	maize1
GRMZM2G008892	maize1
GRMZM2G009009	maize1
GRMZM2G009025	maize1
GRMZM2G009045	maize1
GRMZM2G009117	maize1
GRMZM2G009144	maize1
GRMZM2G009196	maize1
GRMZM2G009326	maize1
GRMZM2G009353	maize1
GRMZM2G009365	maize1
GRMZM2G009387	maize1
GRMZM2G009400	maize1
GRMZM2G009506	maize1
GRMZM2G009591	maize1
GRMZM2G009627	maize1
GRMZM2G009633	maize1
GRMZM2G009653	maize1
GRMZM2G009673	maize1
GRMZM2G009804	maize1
GRMZM2G009851	maize1
GRMZM2G009895	maize1
GRMZM2G009948	maize1
GRMZM2G010034	maize1
GRMZM2G010037	maize1
GRMZM2G010056	maize1
GRMZM2G010074	maize1
GRMZM2G010142	maize1
GRMZM2G010196	maize1
GRMZM2G010298	maize1
GRMZM2G010349	maize1
GRMZM2G010353	maize1
GRMZM2G010357	maize1
GRMZM2G010362	maize1
GRMZM2G010389	maize1
GRMZM2G010447	maize1
GRMZM2G010474	maize1
GRMZM2G010640	maize1
GRMZM2G010702	maize1
GRMZM2G010745	maize1
GRMZM2G010754	maize1
GRMZM2G010762	maize1
GRMZM2G010765	maize1
GRMZM2G010804	maize1
GRMZM2G010871	maize1
GRMZM2G010973	maize1
GRMZM2G011068	maize1
GRMZM2G011144	maize1
GRMZM2G011169	maize1
GRMZM2G011222	maize1
GRMZM2G011357	maize1
GRMZM2G011373	maize1
GRMZM2G011434	maize1
GRMZM2G011436	maize1
GRMZM2G011483	maize1
GRMZM2G011553	maize1
GRMZM2G011631	maize1
GRMZM2G011636	maize1
GRMZM2G011662	maize1
GRMZM2G011912	maize1
GRMZM2G012123	maize1
GRMZM2G012126	maize1
GRMZM2G012178	maize1
GRMZM2G012224	maize1
GRMZM2G012260	maize1
GRMZM2G012319	maize1
GRMZM2G012413	maize1
GRMZM2G012501	maize1
GRMZM2G012758	maize1
GRMZM2G012841	maize1
GRMZM2G013045	maize1
GRMZM2G013378	maize1
GRMZM2G013430	maize1
GRMZM2G013433	maize1
GRMZM2G013463	maize1
GRMZM2G013588	maize1
GRMZM2G013634	maize1
GRMZM2G013639	maize1
GRMZM2G013657	maize1
GRMZM2G013704	maize1
GRMZM2G013811	maize1
GRMZM2G013880	maize1
GRMZM2G013944	maize1
GRMZM2G013957	maize1
GRMZM2G014076	maize1
GRMZM2G014187	maize1
GRMZM2G014676	maize1
GRMZM2G014750	maize1
GRMZM2G014770	maize1
GRMZM2G014826	maize1
GRMZM2G014981	maize1
GRMZM2G015067	maize1
GRMZM2G015090	maize1
GRMZM2G015219	maize1
GRMZM2G015502	maize1
GRMZM2G015588	maize1
GRMZM2G015727	maize1
GRMZM2G015844	maize1
GRMZM2G015854	maize1
GRMZM2G015872	maize1
GRMZM2G015886	maize1
GRMZM2G015902	maize1
GRMZM2G015925	maize1
GRMZM2G015967	maize1
GRMZM2G015973	maize1
GRMZM2G016068	maize1
GRMZM2G016084	maize1
GRMZM2G016088	maize1
GRMZM2G016210	maize1
GRMZM2G016275	maize1
GRMZM2G016290	maize1
GRMZM2G016435	maize1
GRMZM2G016521	maize1
GRMZM2G016546	maize1
GRMZM2G016561	maize1
GRMZM2G016592	maize1
GRMZM2G016602	maize1
GRMZM2G016637	maize1
GRMZM2G016668	maize1
GRMZM2G016774	maize1
GRMZM2G017008	maize1
GRMZM2G017080	maize1
GRMZM2G017113	maize1
GRMZM2G017223	maize1
GRMZM2G017257	maize1
GRMZM2G017319	maize1
GRMZM2G017349	maize1
GRMZM2G017388	maize1
GRMZM2G017486	maize1
GRMZM2G017537	maize1
GRMZM2G017550	maize1
GRMZM2G017624	maize1
GRMZM2G017643	maize1
GRMZM2G017741	maize1
GRMZM2G017804	maize1
GRMZM2G017882	maize1
GRMZM2G017894	maize1
GRMZM2G017923	maize1
GRMZM2G017933	maize1
GRMZM2G017991	maize1
GRMZM2G018103	maize1
GRMZM2G018217	maize1
GRMZM2G018484	maize1
GRMZM2G018573	maize1
GRMZM2G018579	maize1
GRMZM2G018612	maize1
GRMZM2G018728	maize1
GRMZM2G018756	maize1
GRMZM2G018820	maize1
GRMZM2G018951	maize1
GRMZM2G019183	maize1
GRMZM2G019225	maize1
GRMZM2G019236	maize1
GRMZM2G019291	maize1
GRMZM2G019363	maize1
GRMZM2G019437	maize1
GRMZM2G019443	maize1
GRMZM2G019468	maize1
GRMZM2G019553	maize1
GRMZM2G019571	maize1
GRMZM2G019686	maize1
GRMZM2G019738	maize1
GRMZM2G019783	maize1
GRMZM2G019863	maize1
GRMZM2G019876	maize1
GRMZM2G019926	maize1
GRMZM2G019971	maize1
GRMZM2G019991	maize1
GRMZM2G020091	maize1
GRMZM2G020255	maize1
GRMZM2G020285	maize1
GRMZM2G020295	maize1
GRMZM2G020320	maize1
GRMZM2G020366	maize1
GRMZM2G020401	maize1
GRMZM2G020500	maize1
GRMZM2G020606	maize1
GRMZM2G020974	maize1
GRMZM2G021035	maize1
GRMZM2G021044	maize1
GRMZM2G021055	maize1
GRMZM2G021074	maize1
GRMZM2G021101	maize1
GRMZM2G021106	maize1
GRMZM2G021110	maize1
GRMZM2G021194	maize1
GRMZM2G021233	maize1
GRMZM2G021416	maize1
GRMZM2G021470	maize1
GRMZM2G021517	maize1
GRMZM2G021530	maize1
GRMZM2G021549	maize1
GRMZM2G021589	maize1
GRMZM2G021635	maize1
GRMZM2G021642	maize1
GRMZM2G021687	maize1
GRMZM2G021694	maize1
GRMZM2G021704	maize1
GRMZM2G021777	maize1
GRMZM2G021881	maize1
GRMZM2G021909	maize1
GRMZM2G022061	maize1
GRMZM2G022065	maize1
GRMZM2G022088	maize1
GRMZM2G022181	maize1
GRMZM2G022192	maize1
GRMZM2G022229	maize1
GRMZM2G022359	maize1
GRMZM2G022363	maize1
GRMZM2G022506	maize1
GRMZM2G022558	maize1
GRMZM2G022603	maize1
GRMZM2G022820	maize1
GRMZM2G022861	maize1
GRMZM2G022931	maize1
GRMZM2G023071	maize1
GRMZM2G023163	maize1
GRMZM2G023220	maize1
GRMZM2G023239	maize1
GRMZM2G023242	maize1
GRMZM2G023285	maize1
GRMZM2G023313	maize1
GRMZM2G023438	maize1
GRMZM2G023475	maize1
GRMZM2G023557	maize1
GRMZM2G023748	maize1
GRMZM2G023769	maize1
GRMZM2G023833	maize1
GRMZM2G023970	maize1
GRMZM2G023988	maize1
GRMZM2G024099	maize1
GRMZM2G024104	maize1
GRMZM2G024131	maize1
GRMZM2G024144	maize1
GRMZM2G024245	maize1
GRMZM2G024260	maize1
GRMZM2G024389	maize1
GRMZM2G024391	maize1
GRMZM2G024451	maize1
GRMZM2G024550	maize1
GRMZM2G024551	maize1
GRMZM2G024563	maize1
GRMZM2G024806	maize1
GRMZM2G024823	maize1
GRMZM2G024865	maize1
GRMZM2G025026	maize1
GRMZM2G025062	maize1
GRMZM2G025072	maize1
GRMZM2G025329	maize1
GRMZM2G025451	maize1
GRMZM2G025488	maize1
GRMZM2G025579	maize1
GRMZM2G025611	maize1
GRMZM2G025659	maize1
GRMZM2G025680	maize1
GRMZM2G025703	maize1
GRMZM2G025742	maize1
GRMZM2G025758	maize1
GRMZM2G025812	maize1
GRMZM2G025870	maize1
GRMZM2G025880	maize1
GRMZM2G025977	maize1
GRMZM2G026013	maize1
GRMZM2G026147	maize1
GRMZM2G026442	maize1
GRMZM2G026490	maize1
GRMZM2G026649	maize1
GRMZM2G026656	maize1
GRMZM2G026703	maize1
GRMZM2G026780	maize1
GRMZM2G026783	maize1
GRMZM2G026839	maize1
GRMZM2G026881	maize1
GRMZM2G026911	maize1
GRMZM2G026918	maize1
GRMZM2G027019	maize1
GRMZM2G027021	maize1
GRMZM2G027047	maize1
GRMZM2G027068	maize1
GRMZM2G027282	maize1
GRMZM2G027336	maize1
GRMZM2G027385	maize1
GRMZM2G027478	maize1
GRMZM2G027627	maize1
GRMZM2G027663	maize1
GRMZM2G027750	maize1
GRMZM2G027756	maize1
GRMZM2G027797	maize1
GRMZM2G027821	maize1
GRMZM2G027851	maize1
GRMZM2G027875	maize1
GRMZM2G027955	maize1
GRMZM2G028007	maize1
GRMZM2G028046	maize1
GRMZM2G028070	maize1
GRMZM2G028096	maize1
GRMZM2G028104	maize1
GRMZM2G028108	maize1
GRMZM2G028136	maize1
GRMZM2G028159	maize1
GRMZM2G028247	maize1
GRMZM2G028302	maize1
GRMZM2G028325	maize1
GRMZM2G028500	maize1
GRMZM2G028501	maize1
GRMZM2G028521	maize1
GRMZM2G028609	maize1
GRMZM2G028637	maize1
GRMZM2G028726	maize1
GRMZM2G028774	maize1
GRMZM2G028900	maize1
GRMZM2G028928	maize1
GRMZM2G029055	maize1
GRMZM2G029065	maize1
GRMZM2G029194	maize1
GRMZM2G029219	maize1
GRMZM2G029262	maize1
GRMZM2G029345	maize1
GRMZM2G029385	maize1
GRMZM2G029530	maize1
GRMZM2G029536	maize1
GRMZM2G029546	maize1
GRMZM2G029587	maize1
GRMZM2G029692	maize1
GRMZM2G029713	maize1
GRMZM2G029716	maize1
GRMZM2G029798	maize1
GRMZM2G029824	maize1
GRMZM2G029879	maize1
GRMZM2G029912	maize1
GRMZM2G029951	maize1
GRMZM2G030013	maize1
GRMZM2G030038	maize1
GRMZM2G030072	maize1
GRMZM2G030099	maize1
GRMZM2G030138	maize1
GRMZM2G030173	maize1
GRMZM2G030223	maize1
GRMZM2G030299	maize1
GRMZM2G030341	maize1
GRMZM2G030494	maize1
GRMZM2G030528	maize1
GRMZM2G030567	maize1
GRMZM2G030571	maize1
GRMZM2G030596	maize1
GRMZM2G030659	maize1
GRMZM2G030712	maize1
GRMZM2G030744	maize1
GRMZM2G030794	maize1
GRMZM2G031043	maize1
GRMZM2G031200	maize1
GRMZM2G031298	maize1
GRMZM2G031370	maize1
GRMZM2G031461	maize1
GRMZM2G031468	maize1
GRMZM2G031493	maize1
GRMZM2G031523	maize1
GRMZM2G031545	maize1
GRMZM2G031581	maize1
GRMZM2G031620	maize1
GRMZM2G031718	maize1
GRMZM2G031790	maize1
GRMZM2G031824	maize1
GRMZM2G031825	maize1
GRMZM2G031859	maize1
GRMZM2G031904	maize1
GRMZM2G031981	maize1
GRMZM2G032044	maize1
GRMZM2G032095	maize1
GRMZM2G032110	maize1
GRMZM2G032132	maize1
GRMZM2G032160	maize1
GRMZM2G032214	maize1
GRMZM2G032222	maize1
GRMZM2G032258	maize1
GRMZM2G032336	maize1
GRMZM2G032376	maize1
GRMZM2G032496	maize1
GRMZM2G032562	maize1
GRMZM2G032655	maize1
GRMZM2G032699	maize1
GRMZM2G032847	maize1
GRMZM2G032865	maize1
GRMZM2G032912	maize1
GRMZM2G032944	maize1
GRMZM2G033029	maize1
GRMZM2G033199	maize1
GRMZM2G033359	maize1
GRMZM2G033480	maize1
GRMZM2G033491	maize1
GRMZM2G033493	maize1
GRMZM2G033533	maize1
GRMZM2G033566	maize1
GRMZM2G033619	maize1
GRMZM2G033671	maize1
GRMZM2G033820	maize1
GRMZM2G033915	maize1
GRMZM2G034065	maize1
GRMZM2G034362	maize1
GRMZM2G034404	maize1
GRMZM2G034417	maize1
GRMZM2G034668	maize1
GRMZM2G034684	maize1
GRMZM2G034690	maize1
GRMZM2G034828	maize1
GRMZM2G034843	maize1
GRMZM2G034975	maize1
GRMZM2G034985	maize1
GRMZM2G035123	maize1
GRMZM2G035131	maize1
GRMZM2G035213	maize1
GRMZM2G035222	maize1
GRMZM2G035432	maize1
GRMZM2G035461	maize1
GRMZM2G035477	maize1
GRMZM2G035557	maize1
GRMZM2G035574	maize1
GRMZM2G035584	maize1
GRMZM2G035594	maize1
GRMZM2G035625	maize1
GRMZM2G035688	maize1
GRMZM2G035708	maize1
GRMZM2G035709	maize1
GRMZM2G035732	maize1
GRMZM2G035741	maize1
GRMZM2G035848	maize1
GRMZM2G035849	maize1
GRMZM2G035922	maize1
GRMZM2G036134	maize1
GRMZM2G036169	maize1
GRMZM2G036340	maize1
GRMZM2G036505	maize1
GRMZM2G036596	maize1
GRMZM2G036609	maize1
GRMZM2G036720	maize1
GRMZM2G036921	maize1
GRMZM2G036940	maize1
GRMZM2G037015	maize1
GRMZM2G037130	maize1
GRMZM2G037140	maize1
GRMZM2G037152	maize1
GRMZM2G037177	maize1
GRMZM2G037200	maize1
GRMZM2G037229	maize1
GRMZM2G037322	maize1
GRMZM2G037386	maize1
GRMZM2G037411	maize1
GRMZM2G037422	maize1
GRMZM2G037444	maize1
GRMZM2G037683	maize1
GRMZM2G037743	maize1
GRMZM2G037998	maize1
GRMZM2G038051	maize1
GRMZM2G038066	maize1
GRMZM2G038284	maize1
GRMZM2G038301	maize1
GRMZM2G038375	maize1
GRMZM2G038412	maize1
GRMZM2G038494	maize1
GRMZM2G038505	maize1
GRMZM2G038536	maize1
GRMZM2G038848	maize1
GRMZM2G038898	maize1
GRMZM2G038931	maize1
GRMZM2G038964	maize1
GRMZM2G039089	maize1
GRMZM2G039173	maize1
GRMZM2G039246	maize1
GRMZM2G039254	maize1
GRMZM2G039280	maize1
GRMZM2G039345	maize1
GRMZM2G039583	maize1
GRMZM2G039588	maize1
GRMZM2G039592	maize1
GRMZM2G039671	maize1
GRMZM2G039683	maize1
GRMZM2G039711	maize1
GRMZM2G039757	maize1
GRMZM2G039792	maize1
GRMZM2G039824	maize1
GRMZM2G039906	maize1
GRMZM2G039983	maize1
GRMZM2G040033	maize1
GRMZM2G040052	maize1
GRMZM2G040152	maize1
GRMZM2G040158	maize1
GRMZM2G040207	maize1
GRMZM2G040311	maize1
GRMZM2G040387	maize1
GRMZM2G040511	maize1
GRMZM2G040513	maize1
GRMZM2G040559	maize1
GRMZM2G040627	maize1
GRMZM2G040672	maize1
GRMZM2G040762	maize1
GRMZM2G040821	maize1
GRMZM2G040828	maize1
GRMZM2G040878	maize1
GRMZM2G040887	maize1
GRMZM2G040890	maize1
GRMZM2G040945	maize1
GRMZM2G041175	maize1
GRMZM2G041275	maize1
GRMZM2G041350	maize1
GRMZM2G041394	maize1
GRMZM2G041418	maize1
GRMZM2G041454	maize1
GRMZM2G041561	maize1
GRMZM2G041636	maize1
GRMZM2G041697	maize1
GRMZM2G041761	maize1
GRMZM2G041831	maize1
GRMZM2G041847	maize1
GRMZM2G041980	maize1
GRMZM2G041994	maize1
GRMZM2G042046	maize1
GRMZM2G042080	maize1
GRMZM2G042245	maize1
GRMZM2G042278	maize1
GRMZM2G042313	maize1
GRMZM2G042371	maize1
GRMZM2G042488	maize1
GRMZM2G042552	maize1
GRMZM2G042615	maize1
GRMZM2G042683	maize1
GRMZM2G042692	maize1
GRMZM2G042733	maize1
GRMZM2G042818	maize1
GRMZM2G042879	maize1
GRMZM2G042933	maize1
GRMZM2G043095	maize1
GRMZM2G043126	maize1
GRMZM2G043127	maize1
GRMZM2G043191	maize1
GRMZM2G043193	maize1
GRMZM2G043212	maize1
GRMZM2G043275	maize1
GRMZM2G043435	maize1
GRMZM2G043464	maize1
GRMZM2G043500	maize1
GRMZM2G043862	maize1
GRMZM2G044137	maize1
GRMZM2G044143	maize1
GRMZM2G044174	maize1
GRMZM2G044194	maize1
GRMZM2G044237	maize1
GRMZM2G044388	maize1
GRMZM2G044422	maize1
GRMZM2G044442	maize1
GRMZM2G044495	maize1
GRMZM2G044552	maize1
GRMZM2G044697	maize1
GRMZM2G044762	maize1
GRMZM2G044822	maize1
GRMZM2G044851	maize1
GRMZM2G044856	maize1
GRMZM2G045019	maize1
GRMZM2G045070	maize1
GRMZM2G045135	maize1
GRMZM2G045183	maize1
GRMZM2G045236	maize1
GRMZM2G045249	maize1
GRMZM2G045275	maize1
GRMZM2G045314	maize1
GRMZM2G045366	maize1
GRMZM2G045401	maize1
GRMZM2G045503	maize1
GRMZM2G045507	maize1
GRMZM2G045565	maize1
GRMZM2G045596	maize1
GRMZM2G045645	maize1
GRMZM2G045834	maize1
GRMZM2G045849	maize1
GRMZM2G046070	maize1
GRMZM2G046186	maize1
GRMZM2G046267	maize1
GRMZM2G046274	maize1
GRMZM2G046407	maize1
GRMZM2G046459	maize1
GRMZM2G046618	maize1
GRMZM2G046748	maize1
GRMZM2G046829	maize1
GRMZM2G046966	maize1
GRMZM2G047002	maize1
GRMZM2G047124	maize1
GRMZM2G047255	maize1
GRMZM2G047262	maize1
GRMZM2G047321	maize1
GRMZM2G047347	maize1
GRMZM2G047457	maize1
GRMZM2G047474	maize1
GRMZM2G047564	maize1
GRMZM2G047590	maize1
GRMZM2G047616	maize1
GRMZM2G047677	maize1
GRMZM2G047684	maize1
GRMZM2G047705	maize1
GRMZM2G047800	maize1
GRMZM2G047867	maize1
GRMZM2G047968	maize1
GRMZM2G047995	maize1
GRMZM2G048129	maize1
GRMZM2G048131	maize1
GRMZM2G048277	maize1
GRMZM2G048366	maize1
GRMZM2G048475	maize1
GRMZM2G048497	maize1
GRMZM2G048522	maize1
GRMZM2G048546	maize1
GRMZM2G048557	maize1
GRMZM2G048591	maize1
GRMZM2G048596	maize1
GRMZM2G048672	maize1
GRMZM2G048703	maize1
GRMZM2G048843	maize1
GRMZM2G048851	maize1
GRMZM2G048904	maize1
GRMZM2G049031	maize1
GRMZM2G049055	maize1
GRMZM2G049117	maize1
GRMZM2G049151	maize1
GRMZM2G049349	maize1
GRMZM2G049364	maize1
GRMZM2G049390	maize1
GRMZM2G049464	maize1
GRMZM2G049510	maize1
GRMZM2G049641	maize1
GRMZM2G049672	maize1
GRMZM2G049687	maize1
GRMZM2G049693	maize1
GRMZM2G049790	maize1
GRMZM2G049895	maize1
GRMZM2G049990	maize1
GRMZM2G050077	maize1
GRMZM2G050089	maize1
GRMZM2G050169	maize1
GRMZM2G050216	maize1
GRMZM2G050329	maize1
GRMZM2G050394	maize1
GRMZM2G050501	maize1
GRMZM2G050570	maize1
GRMZM2G050583	maize1
GRMZM2G050590	maize1
GRMZM2G050591	maize1
GRMZM2G050596	maize1
GRMZM2G050641	maize1
GRMZM2G050684	maize1
GRMZM2G050890	maize1
GRMZM2G050914	maize1
GRMZM2G050933	maize1
GRMZM2G050961	maize1
GRMZM2G051059	maize1
GRMZM2G051135	maize1
GRMZM2G051151	maize1
GRMZM2G051153	maize1
GRMZM2G051228	maize1
GRMZM2G051247	maize1
GRMZM2G051262	maize1
GRMZM2G051288	maize1
GRMZM2G051466	maize1
GRMZM2G051675	maize1
GRMZM2G051677	maize1
GRMZM2G051764	maize1
GRMZM2G051806	maize1
GRMZM2G051879	maize1
GRMZM2G051894	maize1
GRMZM2G051932	maize1
GRMZM2G051974	maize1
GRMZM2G052011	maize1
GRMZM2G052034	maize1
GRMZM2G052142	maize1
GRMZM2G052149	maize1
GRMZM2G052328	maize1
GRMZM2G052336	maize1
GRMZM2G052389	maize1
GRMZM2G052474	maize1
GRMZM2G052479	maize1
GRMZM2G052509	maize1
GRMZM2G052546	maize1
GRMZM2G052581	maize1
GRMZM2G052600	maize1
GRMZM2G052606	maize1
GRMZM2G052610	maize1
GRMZM2G052644	maize1
GRMZM2G052666	maize1
GRMZM2G052685	maize1
GRMZM2G052688	maize1
GRMZM2G052817	maize1
GRMZM2G052893	maize1
GRMZM2G053140	maize1
GRMZM2G053196	maize1
GRMZM2G053210	maize1
GRMZM2G053299	maize1
GRMZM2G053514	maize1
GRMZM2G053554	maize1
GRMZM2G053631	maize1
GRMZM2G053637	maize1
GRMZM2G053839	maize1
GRMZM2G053921	maize1
GRMZM2G053958	maize1
GRMZM2G054056	maize1
GRMZM2G054361	maize1
GRMZM2G054387	maize1
GRMZM2G054410	maize1
GRMZM2G054470	maize1
GRMZM2G054564	maize1
GRMZM2G054651	maize1
GRMZM2G054706	maize1
GRMZM2G054821	maize1
GRMZM2G054916	maize1
GRMZM2G055020	maize1
GRMZM2G055052	maize1
GRMZM2G055217	maize1
GRMZM2G055243	maize1
GRMZM2G055257	maize1
GRMZM2G055320	maize1
GRMZM2G055434	maize1
GRMZM2G055435	maize1
GRMZM2G055450	maize1
GRMZM2G055452	maize1
GRMZM2G055469	maize1
GRMZM2G055585	maize1
GRMZM2G055682	maize1
GRMZM2G055698	maize1
GRMZM2G055704	maize1
GRMZM2G055807	maize1
GRMZM2G055809	maize1
GRMZM2G055880	maize1
GRMZM2G055898	maize1
GRMZM2G055992	maize1
GRMZM2G056036	maize1
GRMZM2G056056	maize1
GRMZM2G056093	maize1
GRMZM2G056143	maize1
GRMZM2G056270	maize1
GRMZM2G056357	maize1
GRMZM2G056369	maize1
GRMZM2G056431	maize1
GRMZM2G056501	maize1
GRMZM2G056594	maize1
GRMZM2G056598	maize1
GRMZM2G056629	maize1
GRMZM2G056750	maize1
GRMZM2G056772	maize1
GRMZM2G056815	maize1
GRMZM2G056914	maize1
GRMZM2G056961	maize1
GRMZM2G056988	maize1
GRMZM2G057067	maize1
GRMZM2G057086	maize1
GRMZM2G057231	maize1
GRMZM2G057247	maize1
GRMZM2G057258	maize1
GRMZM2G057296	maize1
GRMZM2G057301	maize1
GRMZM2G057305	maize1
GRMZM2G057380	maize1
GRMZM2G057466	maize1
GRMZM2G057483	maize1
GRMZM2G057506	maize1
GRMZM2G057672	maize1
GRMZM2G057674	maize1
GRMZM2G057690	maize1
GRMZM2G057699	maize1
GRMZM2G057709	maize1
GRMZM2G057820	maize1
GRMZM2G057829	maize1
GRMZM2G057853	maize1
GRMZM2G057907	maize1
GRMZM2G057963	maize1
GRMZM2G057983	maize1
GRMZM2G058026	maize1
GRMZM2G058078	maize1
GRMZM2G058128	maize1
GRMZM2G058227	maize1
GRMZM2G058244	maize1
GRMZM2G058261	maize1
GRMZM2G058292	maize1
GRMZM2G058432	maize1
GRMZM2G058450	maize1
GRMZM2G058451	maize1
GRMZM2G058622	maize1
GRMZM2G058659	maize1
GRMZM2G058760	maize1
GRMZM2G058872	maize1
GRMZM2G058884	maize1
GRMZM2G059029	maize1
GRMZM2G059064	maize1
GRMZM2G059121	maize1
GRMZM2G059124	maize1
GRMZM2G059225	maize1
GRMZM2G059252	maize1
GRMZM2G059502	maize1
GRMZM2G059702	maize1
GRMZM2G059795	maize1
GRMZM2G059922	maize1
GRMZM2G059958	maize1
GRMZM2G059981	maize1
GRMZM2G060253	maize1
GRMZM2G060276	maize1
GRMZM2G060290	maize1
GRMZM2G060311	maize1
GRMZM2G060324	maize1
GRMZM2G060485	maize1
GRMZM2G060561	maize1
GRMZM2G060726	maize1
GRMZM2G060817	maize1
GRMZM2G060906	maize1
GRMZM2G060987	maize1
GRMZM2G061127	maize1
GRMZM2G061206	maize1
GRMZM2G061277	maize1
GRMZM2G061392	maize1
GRMZM2G061442	maize1
GRMZM2G061472	maize1
GRMZM2G061568	maize1
GRMZM2G061624	maize1
GRMZM2G061695	maize1
GRMZM2G061798	maize1
GRMZM2G061876	maize1
GRMZM2G061910	maize1
GRMZM2G062029	maize1
GRMZM2G062230	maize1
GRMZM2G062260	maize1
GRMZM2G062283	maize1
GRMZM2G062342	maize1
GRMZM2G062396	maize1
GRMZM2G062425	maize1
GRMZM2G062471	maize1
GRMZM2G062488	maize1
GRMZM2G062541	maize1
GRMZM2G062544	maize1
GRMZM2G062554	maize1
GRMZM2G062569	maize1
GRMZM2G062574	maize1
GRMZM2G062577	maize1
GRMZM2G062618	maize1
GRMZM2G062673	maize1
GRMZM2G062724	maize1
GRMZM2G062841	maize1
GRMZM2G063084	maize1
GRMZM2G063133	maize1
GRMZM2G063156	maize1
GRMZM2G063258	maize1
GRMZM2G063287	maize1
GRMZM2G063517	maize1
GRMZM2G063522	maize1
GRMZM2G063657	maize1
GRMZM2G063733	maize1
GRMZM2G063961	maize1
GRMZM2G064001	maize1
GRMZM2G064330	maize1
GRMZM2G064386	maize1
GRMZM2G064466	maize1
GRMZM2G064467	maize1
GRMZM2G064500	maize1
GRMZM2G064562	maize1
GRMZM2G064608	maize1
GRMZM2G064679	maize1
GRMZM2G064695	maize1
GRMZM2G064744	maize1
GRMZM2G064799	maize1
GRMZM2G064853	maize1
GRMZM2G064962	maize1
GRMZM2G065050	maize1
GRMZM2G065154	maize1
GRMZM2G065157	maize1
GRMZM2G065234	maize1
GRMZM2G065355	maize1
GRMZM2G065394	maize1
GRMZM2G065423	maize1
GRMZM2G065498	maize1
GRMZM2G065532	maize1
GRMZM2G065557	maize1
GRMZM2G065612	maize1
GRMZM2G065635	maize1
GRMZM2G065694	maize1
GRMZM2G065974	maize1
GRMZM2G066029	maize1
GRMZM2G066225	maize1
GRMZM2G066290	maize1
GRMZM2G066304	maize1
GRMZM2G066326	maize1
GRMZM2G066341	maize1
GRMZM2G066362	maize1
GRMZM2G066413	maize1
GRMZM2G066426	maize1
GRMZM2G066448	maize1
GRMZM2G066485	maize1
GRMZM2G066612	maize1
GRMZM2G066614	maize1
GRMZM2G066749	maize1
GRMZM2G066860	maize1
GRMZM2G066876	maize1
GRMZM2G066997	maize1
GRMZM2G067022	maize1
GRMZM2G067036	maize1
GRMZM2G067238	maize1
GRMZM2G067460	maize1
GRMZM2G067638	maize1
GRMZM2G067710	maize1
GRMZM2G067919	maize1
GRMZM2G067921	maize1
GRMZM2G068028	maize1
GRMZM2G068059	maize1
GRMZM2G068128	maize1
GRMZM2G068158	maize1
GRMZM2G068179	maize1
GRMZM2G068244	maize1
GRMZM2G068316	maize1
GRMZM2G068328	maize1
GRMZM2G068330	maize1
GRMZM2G068443	maize1
GRMZM2G068557	maize1
GRMZM2G068688	maize1
GRMZM2G068714	maize1
GRMZM2G068789	maize1
GRMZM2G068904	maize1
GRMZM2G068955	maize1
GRMZM2G069092	maize1
GRMZM2G069099	maize1
GRMZM2G069218	maize1
GRMZM2G069476	maize1
GRMZM2G069511	maize1
GRMZM2G069518	maize1
GRMZM2G069618	maize1
GRMZM2G069676	maize1
GRMZM2G069694	maize1
GRMZM2G069708	maize1
GRMZM2G069841	maize1
GRMZM2G069856	maize1
GRMZM2G069911	maize1
GRMZM2G070038	maize1
GRMZM2G070167	maize1
GRMZM2G070178	maize1
GRMZM2G070192	maize1
GRMZM2G070252	maize1
GRMZM2G070259	maize1
GRMZM2G070264	maize1
GRMZM2G070271	maize1
GRMZM2G070375	maize1
GRMZM2G070381	maize1
GRMZM2G070475	maize1
GRMZM2G070633	maize1
GRMZM2G070673	maize1
GRMZM2G070780	maize1
GRMZM2G070804	maize1
GRMZM2G070810	maize1
GRMZM2G070847	maize1
GRMZM2G070863	maize1
GRMZM2G070881	maize1
GRMZM2G070885	maize1
GRMZM2G071025	maize1
GRMZM2G071059	maize1
GRMZM2G071089	maize1
GRMZM2G071119	maize1
GRMZM2G071157	maize1
GRMZM2G071208	maize1
GRMZM2G071253	maize1
GRMZM2G071272	maize1
GRMZM2G071294	maize1
GRMZM2G071304	maize1
GRMZM2G071327	maize1
GRMZM2G071349	maize1
GRMZM2G071441	maize1
GRMZM2G071599	maize1
GRMZM2G071613	maize1
GRMZM2G071645	maize1
GRMZM2G071688	maize1
GRMZM2G071704	maize1
GRMZM2G071705	maize1
GRMZM2G071739	maize1
GRMZM2G071768	maize1
GRMZM2G071987	maize1
GRMZM2G072041	maize1
GRMZM2G072052	maize1
GRMZM2G072065	maize1
GRMZM2G072091	maize1
GRMZM2G072146	maize1
GRMZM2G072298	maize1
GRMZM2G072300	maize1
GRMZM2G072518	maize1
GRMZM2G072578	maize1
GRMZM2G072671	maize1
GRMZM2G072682	maize1
GRMZM2G072700	maize1
GRMZM2G072744	maize1
GRMZM2G072755	maize1
GRMZM2G072892	maize1
GRMZM2G072909	maize1
GRMZM2G072911	maize1
GRMZM2G073045	maize1
GRMZM2G073123	maize1
GRMZM2G073192	maize1
GRMZM2G073228	maize1
GRMZM2G073310	maize1
GRMZM2G073377	maize1
GRMZM2G073401	maize1
GRMZM2G073427	maize1
GRMZM2G073429	maize1
GRMZM2G073433	maize1
GRMZM2G073510	maize1
GRMZM2G073535	maize1
GRMZM2G073591	maize1
GRMZM2G073628	maize1
GRMZM2G073743	maize1
GRMZM2G073754	maize1
GRMZM2G073913	maize1
GRMZM2G073950	maize1
GRMZM2G073979	maize1
GRMZM2G073982	maize1
GRMZM2G074017	maize1
GRMZM2G074040	maize1
GRMZM2G074053	maize1
GRMZM2G074099	maize1
GRMZM2G074158	maize1
GRMZM2G074211	maize1
GRMZM2G074262	maize1
GRMZM2G074270	maize1
GRMZM2G074323	maize1
GRMZM2G074395	maize1
GRMZM2G074427	maize1
GRMZM2G074572	maize1
GRMZM2G074634	maize1
GRMZM2G074742	maize1
GRMZM2G074790	maize1
GRMZM2G074792	maize1
GRMZM2G074805	maize1
GRMZM2G074821	maize1
GRMZM2G074908	maize1
GRMZM2G074946	maize1
GRMZM2G074956	maize1
GRMZM2G074987	maize1
GRMZM2G075003	maize1
GRMZM2G075132	maize1
GRMZM2G075245	maize1
GRMZM2G075257	maize1
GRMZM2G075265	maize1
GRMZM2G075268	maize1
GRMZM2G075290	maize1
GRMZM2G075488	maize1
GRMZM2G075622	maize1
GRMZM2G075901	maize1
GRMZM2G075988	maize1
GRMZM2G076034	maize1
GRMZM2G076225	maize1
GRMZM2G076272	maize1
GRMZM2G076303	maize1
GRMZM2G076387	maize1
GRMZM2G076484	maize1
GRMZM2G076539	maize1
GRMZM2G076584	maize1
GRMZM2G076617	maize1
GRMZM2G076673	maize1
GRMZM2G076771	maize1
GRMZM2G076962	maize1
GRMZM2G076981	maize1
GRMZM2G077124	maize1
GRMZM2G077131	maize1
GRMZM2G077181	maize1
GRMZM2G077197	maize1
GRMZM2G077307	maize1
GRMZM2G077333	maize1
GRMZM2G077375	maize1
GRMZM2G077401	maize1
GRMZM2G077406	maize1
GRMZM2G077436	maize1
GRMZM2G077460	maize1
GRMZM2G077486	maize1
GRMZM2G077525	maize1
GRMZM2G077541	maize1
GRMZM2G077607	maize1
GRMZM2G077755	maize1
GRMZM2G077769	maize1
GRMZM2G077780	maize1
GRMZM2G077784	maize1
GRMZM2G077981	maize1
GRMZM2G078052	maize1
GRMZM2G078164	maize1
GRMZM2G078198	maize1
GRMZM2G078210	maize1
GRMZM2G078275	maize1
GRMZM2G078279	maize1
GRMZM2G078324	maize1
GRMZM2G078362	maize1
GRMZM2G078569	maize1
GRMZM2G078650	maize1
GRMZM2G078754	maize1
GRMZM2G078887	maize1
GRMZM2G079013	maize1
GRMZM2G079112	maize1
GRMZM2G079226	maize1
GRMZM2G079293	maize1
GRMZM2G079583	maize1
GRMZM2G079613	maize1
GRMZM2G079625	maize1
GRMZM2G079629	maize1
GRMZM2G079658	maize1
GRMZM2G079661	maize1
GRMZM2G079772	maize1
GRMZM2G079807	maize1
GRMZM2G079823	maize1
GRMZM2G080034	maize1
GRMZM2G080045	maize1
GRMZM2G080176	maize1
GRMZM2G080314	maize1
GRMZM2G080354	maize1
GRMZM2G080512	maize1
GRMZM2G080537	maize1
GRMZM2G080549	maize1
GRMZM2G080725	maize1
GRMZM2G080772	maize1
GRMZM2G080912	maize1
GRMZM2G080940	maize1
GRMZM2G081013	maize1
GRMZM2G081048	maize1
GRMZM2G081053	maize1
GRMZM2G081077	maize1
GRMZM2G081105	maize1
GRMZM2G081144	maize1
GRMZM2G081445	maize1
GRMZM2G081515	maize1
GRMZM2G081521	maize1
GRMZM2G081722	maize1
GRMZM2G081745	maize1
GRMZM2G081782	maize1
GRMZM2G081803	maize1
GRMZM2G081841	maize1
GRMZM2G081888	maize1
GRMZM2G081919	maize1
GRMZM2G081970	maize1
GRMZM2G082019	maize1
GRMZM2G082032	maize1
GRMZM2G082097	maize1
GRMZM2G082149	maize1
GRMZM2G082181	maize1
GRMZM2G082199	maize1
GRMZM2G082205	maize1
GRMZM2G082249	maize1
GRMZM2G082260	maize1
GRMZM2G082264	maize1
GRMZM2G082312	maize1
GRMZM2G082365	maize1
GRMZM2G082581	maize1
GRMZM2G082633	maize1
GRMZM2G082683	maize1
GRMZM2G082780	maize1
GRMZM2G082836	maize1
GRMZM2G082855	maize1
GRMZM2G082962	maize1
GRMZM2G083012	maize1
GRMZM2G083102	maize1
GRMZM2G083195	maize1
GRMZM2G083374	maize1
GRMZM2G083437	maize1
GRMZM2G083474	maize1
GRMZM2G083526	maize1
GRMZM2G083555	maize1
GRMZM2G083580	maize1
GRMZM2G083655	maize1
GRMZM2G083677	maize1
GRMZM2G083717	maize1
GRMZM2G083763	maize1
GRMZM2G083886	maize1
GRMZM2G083932	maize1
GRMZM2G083950	maize1
GRMZM2G083964	maize1
GRMZM2G084014	maize1
GRMZM2G084125	maize1
GRMZM2G084181	maize1
GRMZM2G084252	maize1
GRMZM2G084389	maize1
GRMZM2G084587	maize1
GRMZM2G084783	maize1
GRMZM2G084935	maize1
GRMZM2G084940	maize1
GRMZM2G084947	maize1
GRMZM2G084958	maize1
GRMZM2G084968	maize1
GRMZM2G085113	maize1
GRMZM2G085116	maize1
GRMZM2G085469	maize1
GRMZM2G085513	maize1
GRMZM2G085577	maize1
GRMZM2G085587	maize1
GRMZM2G085604	maize1
GRMZM2G085926	maize1
GRMZM2G085932	maize1
GRMZM2G085941	maize1
GRMZM2G086003	maize1
GRMZM2G086132	maize1
GRMZM2G086210	maize1
GRMZM2G086267	maize1
GRMZM2G086389	maize1
GRMZM2G086486	maize1
GRMZM2G086496	maize1
GRMZM2G086628	maize1
GRMZM2G086714	maize1
GRMZM2G086750	maize1
GRMZM2G086757	maize1
GRMZM2G086841	maize1
GRMZM2G086869	maize1
GRMZM2G086940	maize1
GRMZM2G087201	maize1
GRMZM2G087267	maize1
GRMZM2G087395	maize1
GRMZM2G087416	maize1
GRMZM2G087459	maize1
GRMZM2G087495	maize1
GRMZM2G087600	maize1
GRMZM2G087622	maize1
GRMZM2G087675	maize1
GRMZM2G087678	maize1
GRMZM2G087692	maize1
GRMZM2G087712	maize1
GRMZM2G087714	maize1
GRMZM2G087753	maize1
GRMZM2G087851	maize1
GRMZM2G087920	maize1
GRMZM2G088083	maize1
GRMZM2G088114	maize1
GRMZM2G088162	maize1
GRMZM2G088189	maize1
GRMZM2G088212	maize1
GRMZM2G088235	maize1
GRMZM2G088312	maize1
GRMZM2G088396	maize1
GRMZM2G088397	maize1
GRMZM2G088436	maize1
GRMZM2G088443	maize1
GRMZM2G088469	maize1
GRMZM2G088482	maize1
GRMZM2G088565	maize1
GRMZM2G088601	maize1
GRMZM2G088627	maize1
GRMZM2G088689	maize1
GRMZM2G088727	maize1
GRMZM2G088843	maize1
GRMZM2G088849	maize1
GRMZM2G088921	maize1
GRMZM2G089050	maize1
GRMZM2G089056	maize1
GRMZM2G089058	maize1
GRMZM2G089119	maize1
GRMZM2G089132	maize1
GRMZM2G089149	maize1
GRMZM2G089163	maize1
GRMZM2G089193	maize1
GRMZM2G089231	maize1
GRMZM2G089282	maize1
GRMZM2G089484	maize1
GRMZM2G089507	maize1
GRMZM2G089684	maize1
GRMZM2G089688	maize1
GRMZM2G089767	maize1
GRMZM2G089806	maize1
GRMZM2G089812	maize1
GRMZM2G089854	maize1
GRMZM2G089948	maize1
GRMZM2G089949	maize1
GRMZM2G089962	maize1
GRMZM2G089976	maize1
GRMZM2G090104	maize1
GRMZM2G090112	maize1
GRMZM2G090213	maize1
GRMZM2G090338	maize1
GRMZM2G090374	maize1
GRMZM2G090480	maize1
GRMZM2G090542	maize1
GRMZM2G090568	maize1
GRMZM2G090824	maize1
GRMZM2G090905	maize1
GRMZM2G091031	maize1
GRMZM2G091047	maize1
GRMZM2G091058	maize1
GRMZM2G091088	maize1
GRMZM2G091124	maize1
GRMZM2G091232	maize1
GRMZM2G091320	maize1
GRMZM2G091383	maize1
GRMZM2G091449	maize1
GRMZM2G091511	maize1
GRMZM2G091560	maize1
GRMZM2G091578	maize1
GRMZM2G091717	maize1
GRMZM2G091839	maize1
GRMZM2G091845	maize1
GRMZM2G091900	maize1
GRMZM2G091916	maize1
GRMZM2G092129	maize1
GRMZM2G092137	maize1
GRMZM2G092152	maize1
GRMZM2G092165	maize1
GRMZM2G092190	maize1
GRMZM2G092198	maize1
GRMZM2G092256	maize1
GRMZM2G092296	maize1
GRMZM2G092379	maize1
GRMZM2G092447	maize1
GRMZM2G092517	maize1
GRMZM2G092525	maize1
GRMZM2G092595	maize1
GRMZM2G092604	maize1
GRMZM2G092661	maize1
GRMZM2G092669	maize1
GRMZM2G092739	maize1
GRMZM2G092797	maize1
GRMZM2G092834	maize1
GRMZM2G092867	maize1
GRMZM2G092923	maize1
GRMZM2G092959	maize1
GRMZM2G092988	maize1
GRMZM2G093101	maize1
GRMZM2G093195	maize1
GRMZM2G093217	maize1
GRMZM2G093239	maize1
GRMZM2G093272	maize1
GRMZM2G093276	maize1
GRMZM2G093278	maize1
GRMZM2G093286	maize1
GRMZM2G093291	maize1
GRMZM2G093305	maize1
GRMZM2G093666	maize1
GRMZM2G093736	maize1
GRMZM2G093815	maize1
GRMZM2G093828	maize1
GRMZM2G093849	maize1
GRMZM2G093947	maize1
GRMZM2G093950	maize1
GRMZM2G094255	maize1
GRMZM2G094328	maize1
GRMZM2G094444	maize1
GRMZM2G094563	maize1
GRMZM2G094712	maize1
GRMZM2G094771	maize1
GRMZM2G095082	maize1
GRMZM2G095144	maize1
GRMZM2G095287	maize1
GRMZM2G095333	maize1
GRMZM2G095452	maize1
GRMZM2G095556	maize1
GRMZM2G095798	maize1
GRMZM2G095839	maize1
GRMZM2G095898	maize1
GRMZM2G096020	maize1
GRMZM2G096037	maize1
GRMZM2G096100	maize1
GRMZM2G096391	maize1
GRMZM2G096409	maize1
GRMZM2G096470	maize1
GRMZM2G096475	maize1
GRMZM2G096548	maize1
GRMZM2G096585	maize1
GRMZM2G096682	maize1
GRMZM2G096802	maize1
GRMZM2G096806	maize1
GRMZM2G096909	maize1
GRMZM2G096972	maize1
GRMZM2G097015	maize1
GRMZM2G097040	maize1
GRMZM2G097182	maize1
GRMZM2G097258	maize1
GRMZM2G097283	maize1
GRMZM2G097342	maize1
GRMZM2G097404	maize1
GRMZM2G097605	maize1
GRMZM2G097640	maize1
GRMZM2G097704	maize1
GRMZM2G097726	maize1
GRMZM2G097747	maize1
GRMZM2G097821	maize1
GRMZM2G097935	maize1
GRMZM2G097977	maize1
GRMZM2G097989	maize1
GRMZM2G098167	maize1
GRMZM2G098187	maize1
GRMZM2G098239	maize1
GRMZM2G098305	maize1
GRMZM2G098370	maize1
GRMZM2G098420	maize1
GRMZM2G098423	maize1
GRMZM2G098474	maize1
GRMZM2G098751	maize1
GRMZM2G098764	maize1
GRMZM2G098900	maize1
GRMZM2G098904	maize1
GRMZM2G099002	maize1
GRMZM2G099023	maize1
GRMZM2G099034	maize1
GRMZM2G099056	maize1
GRMZM2G099066	maize1
GRMZM2G099183	maize1
GRMZM2G099207	maize1
GRMZM2G099253	maize1
GRMZM2G099305	maize1
GRMZM2G099328	maize1
GRMZM2G099413	maize1
GRMZM2G099434	maize1
GRMZM2G099461	maize1
GRMZM2G099467	maize1
GRMZM2G099481	maize1
GRMZM2G099542	maize1
GRMZM2G099767	maize1
GRMZM2G099891	maize1
GRMZM2G100020	maize1
GRMZM2G100043	maize1
GRMZM2G100058	maize1
GRMZM2G100067	maize1
GRMZM2G100086	maize1
GRMZM2G100133	maize1
GRMZM2G100260	maize1
GRMZM2G100315	maize1
GRMZM2G100344	maize1
GRMZM2G100452	maize1
GRMZM2G100593	maize1
GRMZM2G100629	maize1
GRMZM2G100714	maize1
GRMZM2G100732	maize1
GRMZM2G100815	maize1
GRMZM2G100889	maize1
GRMZM2G101217	maize1
GRMZM2G101270	maize1
GRMZM2G101282	maize1
GRMZM2G101290	maize1
GRMZM2G101408	maize1
GRMZM2G101438	maize1
GRMZM2G101457	maize1
GRMZM2G101460	maize1
GRMZM2G101519	maize1
GRMZM2G101547	maize1
GRMZM2G101617	maize1
GRMZM2G101682	maize1
GRMZM2G101760	maize1
GRMZM2G101875	maize1
GRMZM2G102021	maize1
GRMZM2G102041	maize1
GRMZM2G102056	maize1
GRMZM2G102167	maize1
GRMZM2G102183	maize1
GRMZM2G102231	maize1
GRMZM2G102356	maize1
GRMZM2G102471	maize1
GRMZM2G102521	maize1
GRMZM2G102596	maize1
GRMZM2G102605	maize1
GRMZM2G102779	maize1
GRMZM2G102845	maize1
GRMZM2G102912	maize1
GRMZM2G102968	maize1
GRMZM2G103070	maize1
GRMZM2G103116	maize1
GRMZM2G103137	maize1
GRMZM2G103214	maize1
GRMZM2G103357	maize1
GRMZM2G103458	maize1
GRMZM2G103647	maize1
GRMZM2G103666	maize1
GRMZM2G103740	maize1
GRMZM2G103771	maize1
GRMZM2G103843	maize1
GRMZM2G103864	maize1
GRMZM2G103897	maize1
GRMZM2G103909	maize1
GRMZM2G103929	maize1
GRMZM2G104028	maize1
GRMZM2G104081	maize1
GRMZM2G104125	maize1
GRMZM2G104347	maize1
GRMZM2G104375	maize1
GRMZM2G104443	maize1
GRMZM2G104464	maize1
GRMZM2G104504	maize1
GRMZM2G104516	maize1
GRMZM2G104538	maize1
GRMZM2G104622	maize1
GRMZM2G104769	maize1
GRMZM2G104833	maize1
GRMZM2G104847	maize1
GRMZM2G104866	maize1
GRMZM2G105184	maize1
GRMZM2G105219	maize1
GRMZM2G105229	maize1
GRMZM2G105283	maize1
GRMZM2G105330	maize1
GRMZM2G105364	maize1
GRMZM2G105391	maize1
GRMZM2G105415	maize1
GRMZM2G105473	maize1
GRMZM2G105494	maize1
GRMZM2G105539	maize1
GRMZM2G105682	maize1
GRMZM2G105844	maize1
GRMZM2G105957	maize1
GRMZM2G105971	maize1
GRMZM2G106056	maize1
GRMZM2G106204	maize1
GRMZM2G106216	maize1
GRMZM2G106218	maize1
GRMZM2G106222	maize1
GRMZM2G106283	maize1
GRMZM2G106293	maize1
GRMZM2G106412	maize1
GRMZM2G106515	maize1
GRMZM2G106548	maize1
GRMZM2G106578	maize1
GRMZM2G106600	maize1
GRMZM2G106683	maize1
GRMZM2G106881	maize1
GRMZM2G106903	maize1
GRMZM2G106921	maize1
GRMZM2G106928	maize1
GRMZM2G107003	maize1
GRMZM2G107089	maize1
GRMZM2G107111	maize1
GRMZM2G107142	maize1
GRMZM2G107199	maize1
GRMZM2G107377	maize1
GRMZM2G107380	maize1
GRMZM2G107388	maize1
GRMZM2G107408	maize1
GRMZM2G107457	maize1
GRMZM2G107532	maize1
GRMZM2G107571	maize1
GRMZM2G107597	maize1
GRMZM2G107629	maize1
GRMZM2G107665	maize1
GRMZM2G107686	maize1
GRMZM2G107737	maize1
GRMZM2G107815	maize1
GRMZM2G107838	maize1
GRMZM2G107867	maize1
GRMZM2G107987	maize1
GRMZM2G108032	maize1
GRMZM2G108087	maize1
GRMZM2G108138	maize1
GRMZM2G108228	maize1
GRMZM2G108523	maize1
GRMZM2G108530	maize1
GRMZM2G108581	maize1
GRMZM2G108624	maize1
GRMZM2G108723	maize1
GRMZM2G108737	maize1
GRMZM2G108775	maize1
GRMZM2G108898	maize1
GRMZM2G108959	maize1
GRMZM2G108976	maize1
GRMZM2G108997	maize1
GRMZM2G109032	maize1
GRMZM2G109262	maize1
GRMZM2G109352	maize1
GRMZM2G109405	maize1
GRMZM2G109429	maize1
GRMZM2G109431	maize1
GRMZM2G109783	maize1
GRMZM2G109805	maize1
GRMZM2G109976	maize1
GRMZM2G110000	maize1
GRMZM2G110027	maize1
GRMZM2G110175	maize1
GRMZM2G110220	maize1
GRMZM2G110294	maize1
GRMZM2G110298	maize1
GRMZM2G110398	maize1
GRMZM2G110681	maize1
GRMZM2G110822	maize1
GRMZM2G110832	maize1
GRMZM2G110993	maize1
GRMZM2G111014	maize1
GRMZM2G111022	maize1
GRMZM2G111164	maize1
GRMZM2G111191	maize1
GRMZM2G111208	maize1
GRMZM2G111216	maize1
GRMZM2G111529	maize1
GRMZM2G111593	maize1
GRMZM2G111672	maize1
GRMZM2G111697	maize1
GRMZM2G111713	maize1
GRMZM2G112039	maize1
GRMZM2G112222	maize1
GRMZM2G112244	maize1
GRMZM2G112247	maize1
GRMZM2G112352	maize1
GRMZM2G112377	maize1
GRMZM2G112392	maize1
GRMZM2G112594	maize1
GRMZM2G112626	maize1
GRMZM2G112666	maize1
GRMZM2G112782	maize1
GRMZM2G112830	maize1
GRMZM2G112895	maize1
GRMZM2G113064	maize1
GRMZM2G113099	maize1
GRMZM2G113137	maize1
GRMZM2G113177	maize1
GRMZM2G113229	maize1
GRMZM2G113241	maize1
GRMZM2G113351	maize1
GRMZM2G113409	maize1
GRMZM2G113414	maize1
GRMZM2G113418	maize1
GRMZM2G113439	maize1
GRMZM2G113480	maize1
GRMZM2G113532	maize1
GRMZM2G113613	maize1
GRMZM2G113682	maize1
GRMZM2G113775	maize1
GRMZM2G113796	maize1
GRMZM2G113821	maize1
GRMZM2G113899	maize1
GRMZM2G114048	maize1
GRMZM2G114131	maize1
GRMZM2G114184	maize1
GRMZM2G114186	maize1
GRMZM2G114192	maize1
GRMZM2G114220	maize1
GRMZM2G114234	maize1
GRMZM2G114371	maize1
GRMZM2G114380	maize1
GRMZM2G114423	maize1
GRMZM2G114469	maize1
GRMZM2G114513	maize1
GRMZM2G114619	maize1
GRMZM2G114639	maize1
GRMZM2G114642	maize1
GRMZM2G114673	maize1
GRMZM2G114680	maize1
GRMZM2G114739	maize1
GRMZM2G114775	maize1
GRMZM2G114816	maize1
GRMZM2G114873	maize1
GRMZM2G114888	maize1
GRMZM2G114992	maize1
GRMZM2G115131	maize1
GRMZM2G115156	maize1
GRMZM2G115198	maize1
GRMZM2G115372	maize1
GRMZM2G115442	maize1
GRMZM2G115491	maize1
GRMZM2G115504	maize1
GRMZM2G115564	maize1
GRMZM2G115574	maize1
GRMZM2G115635	maize1
GRMZM2G115646	maize1
GRMZM2G115660	maize1
GRMZM2G115721	maize1
GRMZM2G115875	maize1
GRMZM2G115975	maize1
GRMZM2G116126	maize1
GRMZM2G116151	maize1
GRMZM2G116167	maize1
GRMZM2G116185	maize1
GRMZM2G116360	maize1
GRMZM2G116517	maize1
GRMZM2G116584	maize1
GRMZM2G116632	maize1
GRMZM2G116658	maize1
GRMZM2G116689	maize1
GRMZM2G116700	maize1
GRMZM2G116760	maize1
GRMZM2G116952	maize1
GRMZM2G117028	maize1
GRMZM2G117060	maize1
GRMZM2G117222	maize1
GRMZM2G117230	maize1
GRMZM2G117344	maize1
GRMZM2G117347	maize1
GRMZM2G117357	maize1
GRMZM2G117369	maize1
GRMZM2G117410	maize1
GRMZM2G117544	maize1
GRMZM2G117558	maize1
GRMZM2G117614	maize1
GRMZM2G117615	maize1
GRMZM2G117642	maize1
GRMZM2G117763	maize1
GRMZM2G117851	maize1
GRMZM2G118005	maize1
GRMZM2G118037	maize1
GRMZM2G118208	maize1
GRMZM2G118316	maize1
GRMZM2G118355	maize1
GRMZM2G118363	maize1
GRMZM2G118378	maize1
GRMZM2G118385	maize1
GRMZM2G118403	maize1
GRMZM2G118433	maize1
GRMZM2G118459	maize1
GRMZM2G118497	maize1
GRMZM2G118646	maize1
GRMZM2G118690	maize1
GRMZM2G118825	maize1
GRMZM2G119104	maize1
GRMZM2G119261	maize1
GRMZM2G119272	maize1
GRMZM2G119273	maize1
GRMZM2G119286	maize1
GRMZM2G119287	maize1
GRMZM2G119322	maize1
GRMZM2G119471	maize1
GRMZM2G119494	maize1
GRMZM2G119517	maize1
GRMZM2G119566	maize1
GRMZM2G119583	maize1
GRMZM2G119691	maize1
GRMZM2G119703	maize1
GRMZM2G119740	maize1
GRMZM2G119749	maize1
GRMZM2G119759	maize1
GRMZM2G119769	maize1
GRMZM2G119782	maize1
GRMZM2G119791	maize1
GRMZM2G119850	maize1
GRMZM2G119852	maize1
GRMZM2G119970	maize1
GRMZM2G120035	maize1
GRMZM2G120041	maize1
GRMZM2G120175	maize1
GRMZM2G120225	maize1
GRMZM2G120271	maize1
GRMZM2G120484	maize1
GRMZM2G120530	maize1
GRMZM2G120539	maize1
GRMZM2G120572	maize1
GRMZM2G120596	maize1
GRMZM2G120674	maize1
GRMZM2G120870	maize1
GRMZM2G120942	maize1
GRMZM2G120954	maize1
GRMZM2G121063	maize1
GRMZM2G121074	maize1
GRMZM2G121096	maize1
GRMZM2G121200	maize1
GRMZM2G121309	maize1
GRMZM2G121486	maize1
GRMZM2G121514	maize1
GRMZM2G121516	maize1
GRMZM2G121621	maize1
GRMZM2G121700	maize1
GRMZM2G121706	maize1
GRMZM2G122061	maize1
GRMZM2G122108	maize1
GRMZM2G122139	maize1
GRMZM2G122148	maize1
GRMZM2G122187	maize1
GRMZM2G122324	maize1
GRMZM2G122357	maize1
GRMZM2G122476	maize1
GRMZM2G122631	maize1
GRMZM2G122762	maize1
GRMZM2G122787	maize1
GRMZM2G122935	maize1
GRMZM2G123094	maize1
GRMZM2G123122	maize1
GRMZM2G123128	maize1
GRMZM2G123159	maize1
GRMZM2G123204	maize1
GRMZM2G123227	maize1
GRMZM2G123407	maize1
GRMZM2G123428	maize1
GRMZM2G123452	maize1
GRMZM2G123876	maize1
GRMZM2G123940	maize1
GRMZM2G123977	maize1
GRMZM2G124070	maize1
GRMZM2G124136	maize1
GRMZM2G124209	maize1
GRMZM2G124281	maize1
GRMZM2G124307	maize1
GRMZM2G124353	maize1
GRMZM2G124371	maize1
GRMZM2G124377	maize1
GRMZM2G124416	maize1
GRMZM2G124417	maize1
GRMZM2G124434	maize1
GRMZM2G124460	maize1
GRMZM2G124563	maize1
GRMZM2G125081	maize1
GRMZM2G125420	maize1
GRMZM2G125494	maize1
GRMZM2G125531	maize1
GRMZM2G125557	maize1
GRMZM2G125617	maize1
GRMZM2G125728	maize1
GRMZM2G125969	maize1
GRMZM2G126077	maize1
GRMZM2G126199	maize1
GRMZM2G126218	maize1
GRMZM2G126239	maize1
GRMZM2G126260	maize1
GRMZM2G126266	maize1
GRMZM2G126290	maize1
GRMZM2G126338	maize1
GRMZM2G126397	maize1
GRMZM2G126435	maize1
GRMZM2G126453	maize1
GRMZM2G126468	maize1
GRMZM2G126582	maize1
GRMZM2G126774	maize1
GRMZM2G126900	maize1
GRMZM2G127031	maize1
GRMZM2G127053	maize1
GRMZM2G127067	maize1
GRMZM2G127121	maize1
GRMZM2G127123	maize1
GRMZM2G127180	maize1
GRMZM2G127299	maize1
GRMZM2G127421	maize1
GRMZM2G127431	maize1
GRMZM2G127562	maize1
GRMZM2G127581	maize1
GRMZM2G127591	maize1
GRMZM2G127608	maize1
GRMZM2G127635	maize1
GRMZM2G127656	maize1
GRMZM2G127739	maize1
GRMZM2G127893	maize1
GRMZM2G127949	maize1
GRMZM2G128012	maize1
GRMZM2G128056	maize1
GRMZM2G128171	maize1
GRMZM2G128176	maize1
GRMZM2G128189	maize1
GRMZM2G128206	maize1
GRMZM2G128214	maize1
GRMZM2G128256	maize1
GRMZM2G128358	maize1
GRMZM2G128444	maize1
GRMZM2G128564	maize1
GRMZM2G128665	maize1
GRMZM2G128969	maize1
GRMZM2G129189	maize1
GRMZM2G129234	maize1
GRMZM2G129246	maize1
GRMZM2G129354	maize1
GRMZM2G129361	maize1
GRMZM2G129399	maize1
GRMZM2G129457	maize1
GRMZM2G129879	maize1
GRMZM2G130034	maize1
GRMZM2G130095	maize1
GRMZM2G130213	maize1
GRMZM2G130230	maize1
GRMZM2G130348	maize1
GRMZM2G130358	maize1
GRMZM2G130375	maize1
GRMZM2G130432	maize1
GRMZM2G130746	maize1
GRMZM2G130950	maize1
GRMZM2G131177	maize1
GRMZM2G131202	maize1
GRMZM2G131266	maize1
GRMZM2G131305	maize1
GRMZM2G131321	maize1
GRMZM2G131434	maize1
GRMZM2G131448	maize1
GRMZM2G131482	maize1
GRMZM2G131597	maize1
GRMZM2G131988	maize1
GRMZM2G132101	maize1
GRMZM2G132140	maize1
GRMZM2G132465	maize1
GRMZM2G132640	maize1
GRMZM2G132704	maize1
GRMZM2G132748	maize1
GRMZM2G132774	maize1
GRMZM2G132847	maize1
GRMZM2G132958	maize1
GRMZM2G133012	maize1
GRMZM2G133048	maize1
GRMZM2G133050	maize1
GRMZM2G133057	maize1
GRMZM2G133121	maize1
GRMZM2G133275	maize1
GRMZM2G133291	maize1
GRMZM2G133359	maize1
GRMZM2G133396	maize1
GRMZM2G133398	maize1
GRMZM2G133512	maize1
GRMZM2G133573	maize1
GRMZM2G133613	maize1
GRMZM2G133675	maize1
GRMZM2G133819	maize1
GRMZM2G133978	maize1
GRMZM2G133986	maize1
GRMZM2G134067	maize1
GRMZM2G134235	maize1
GRMZM2G134251	maize1
GRMZM2G134284	maize1
GRMZM2G134313	maize1
GRMZM2G134341	maize1
GRMZM2G134367	maize1
GRMZM2G134382	maize1
GRMZM2G134396	maize1
GRMZM2G134671	maize1
GRMZM2G134747	maize1
GRMZM2G134825	maize1
GRMZM2G134982	maize1
GRMZM2G135019	maize1
GRMZM2G135029	maize1
GRMZM2G135044	maize1
GRMZM2G135052	maize1
GRMZM2G135175	maize1
GRMZM2G135283	maize1
GRMZM2G135337	maize1
GRMZM2G135385	maize1
GRMZM2G135400	maize1
GRMZM2G135410	maize1
GRMZM2G135444	maize1
GRMZM2G135476	maize1
GRMZM2G135501	maize1
GRMZM2G135651	maize1
GRMZM2G135739	maize1
GRMZM2G135763	maize1
GRMZM2G135808	maize1
GRMZM2G135839	maize1
GRMZM2G135877	maize1
GRMZM2G135935	maize1
GRMZM2G135968	maize1
GRMZM2G136081	maize1
GRMZM2G136268	maize1
GRMZM2G136347	maize1
GRMZM2G136366	maize1
GRMZM2G136486	maize1
GRMZM2G136522	maize1
GRMZM2G136563	maize1
GRMZM2G136635	maize1
GRMZM2G136710	maize1
GRMZM2G136794	maize1
GRMZM2G136831	maize1
GRMZM2G136857	maize1
GRMZM2G136884	maize1
GRMZM2G136918	maize1
GRMZM2G137037	maize1
GRMZM2G137046	maize1
GRMZM2G137064	maize1
GRMZM2G137077	maize1
GRMZM2G137118	maize1
GRMZM2G137139	maize1
GRMZM2G137151	maize1
GRMZM2G137174	maize1
GRMZM2G137211	maize1
GRMZM2G137312	maize1
GRMZM2G137329	maize1
GRMZM2G137352	maize1
GRMZM2G137358	maize1
GRMZM2G137375	maize1
GRMZM2G137409	maize1
GRMZM2G137426	maize1
GRMZM2G137441	maize1
GRMZM2G137510	maize1
GRMZM2G137566	maize1
GRMZM2G137574	maize1
GRMZM2G137961	maize1
GRMZM2G137968	maize1
GRMZM2G138041	maize1
GRMZM2G138067	maize1
GRMZM2G138076	maize1
GRMZM2G138097	maize1
GRMZM2G138152	maize1
GRMZM2G138161	maize1
GRMZM2G138258	maize1
GRMZM2G138370	maize1
GRMZM2G138410	maize1
GRMZM2G138425	maize1
GRMZM2G138455	maize1
GRMZM2G138475	maize1
GRMZM2G138527	maize1
GRMZM2G138907	maize1
GRMZM2G138943	maize1
GRMZM2G138997	maize1
GRMZM2G139035	maize1
GRMZM2G139077	maize1
GRMZM2G139085	maize1
GRMZM2G139166	maize1
GRMZM2G139355	maize1
GRMZM2G139360	maize1
GRMZM2G139614	maize1
GRMZM2G139617	maize1
GRMZM2G139650	maize1
GRMZM2G139710	maize1
GRMZM2G139773	maize1
GRMZM2G139811	maize1
GRMZM2G139828	maize1
GRMZM2G139834	maize1
GRMZM2G139846	maize1
GRMZM2G139852	maize1
GRMZM2G139931	maize1
GRMZM2G139973	maize1
GRMZM2G140070	maize1
GRMZM2G140082	maize1
GRMZM2G140179	maize1
GRMZM2G140201	maize1
GRMZM2G140432	maize1
GRMZM2G140443	maize1
GRMZM2G140559	maize1
GRMZM2G140669	maize1
GRMZM2G140763	maize1
GRMZM2G140817	maize1
GRMZM2G140976	maize1
GRMZM2G140991	maize1
GRMZM2G141002	maize1
GRMZM2G141202	maize1
GRMZM2G141208	maize1
GRMZM2G141214	maize1
GRMZM2G141219	maize1
GRMZM2G141241	maize1
GRMZM2G141289	maize1
GRMZM2G141379	maize1
GRMZM2G141399	maize1
GRMZM2G141472	maize1
GRMZM2G141600	maize1
GRMZM2G141607	maize1
GRMZM2G141632	maize1
GRMZM2G141634	maize1
GRMZM2G141638	maize1
GRMZM2G141679	maize1
GRMZM2G141707	maize1
GRMZM2G141762	maize1
GRMZM2G141776	maize1
GRMZM2G141941	maize1
GRMZM2G142111	maize1
GRMZM2G142336	maize1
GRMZM2G142664	maize1
GRMZM2G142690	maize1
GRMZM2G142721	maize1
GRMZM2G142740	maize1
GRMZM2G142873	maize1
GRMZM2G142875	maize1
GRMZM2G142938	maize1
GRMZM2G143160	maize1
GRMZM2G143165	maize1
GRMZM2G143235	maize1
GRMZM2G143246	maize1
GRMZM2G143253	maize1
GRMZM2G143328	maize1
GRMZM2G143502	maize1
GRMZM2G143588	maize1
GRMZM2G143627	maize1
GRMZM2G143651	maize1
GRMZM2G143688	maize1
GRMZM2G143714	maize1
GRMZM2G143718	maize1
GRMZM2G143788	maize1
GRMZM2G143858	maize1
GRMZM2G144081	maize1
GRMZM2G144097	maize1
GRMZM2G144197	maize1
GRMZM2G144421	maize1
GRMZM2G144615	maize1
GRMZM2G144782	maize1
GRMZM2G144813	maize1
GRMZM2G144868	maize1
GRMZM2G144873	maize1
GRMZM2G144950	maize1
GRMZM2G144960	maize1
GRMZM2G144997	maize1
GRMZM2G145008	maize1
GRMZM2G145024	maize1
GRMZM2G145041	maize1
GRMZM2G145063	maize1
GRMZM2G145107	maize1
GRMZM2G145112	maize1
GRMZM2G145130	maize1
GRMZM2G145152	maize1
GRMZM2G145407	maize1
GRMZM2G145444	maize1
GRMZM2G145449	maize1
GRMZM2G145473	maize1
GRMZM2G145482	maize1
GRMZM2G145504	maize1
GRMZM2G145578	maize1
GRMZM2G145633	maize1
GRMZM2G145698	maize1
GRMZM2G145699	maize1
GRMZM2G145775	maize1
GRMZM2G145814	maize1
GRMZM2G145825	maize1
GRMZM2G145840	maize1
GRMZM2G145890	maize1
GRMZM2G145958	maize1
GRMZM2G145968	maize1
GRMZM2G145974	maize1
GRMZM2G146015	maize1
GRMZM2G146130	maize1
GRMZM2G146161	maize1
GRMZM2G146192	maize1
GRMZM2G146219	maize1
GRMZM2G146225	maize1
GRMZM2G146246	maize1
GRMZM2G146278	maize1
GRMZM2G146354	maize1
GRMZM2G146380	maize1
GRMZM2G146486	maize1
GRMZM2G146490	maize1
GRMZM2G146616	maize1
GRMZM2G146665	maize1
GRMZM2G146673	maize1
GRMZM2G146750	maize1
GRMZM2G146819	maize1
GRMZM2G146866	maize1
GRMZM2G146878	maize1
GRMZM2G147158	maize1
GRMZM2G147241	maize1
GRMZM2G147418	maize1
GRMZM2G147579	maize1
GRMZM2G147619	maize1
GRMZM2G147667	maize1
GRMZM2G147685	maize1
GRMZM2G147698	maize1
GRMZM2G147856	maize1
GRMZM2G147884	maize1
GRMZM2G147900	maize1
GRMZM2G147917	maize1
GRMZM2G147920	maize1
GRMZM2G147942	maize1
GRMZM2G147966	maize1
GRMZM2G148106	maize1
GRMZM2G148158	maize1
GRMZM2G148211	maize1
GRMZM2G148249	maize1
GRMZM2G148323	maize1
GRMZM2G148864	maize1
GRMZM2G148872	maize1
GRMZM2G148908	maize1
GRMZM2G149024	maize1
GRMZM2G149108	maize1
GRMZM2G149189	maize1
GRMZM2G149315	maize1
GRMZM2G149347	maize1
GRMZM2G149392	maize1
GRMZM2G149414	maize1
GRMZM2G149442	maize1
GRMZM2G149452	maize1
GRMZM2G149480	maize1
GRMZM2G149481	maize1
GRMZM2G149576	maize1
GRMZM2G149617	maize1
GRMZM2G149647	maize1
GRMZM2G149681	maize1
GRMZM2G149837	maize1
GRMZM2G149865	maize1
GRMZM2G150280	maize1
GRMZM2G150295	maize1
GRMZM2G150406	maize1
GRMZM2G150468	maize1
GRMZM2G150656	maize1
GRMZM2G150674	maize1
GRMZM2G150683	maize1
GRMZM2G150688	maize1
GRMZM2G150697	maize1
GRMZM2G150791	maize1
GRMZM2G150841	maize1
GRMZM2G150844	maize1
GRMZM2G150864	maize1
GRMZM2G150906	maize1
GRMZM2G150925	maize1
GRMZM2G150941	maize1
GRMZM2G151204	maize1
GRMZM2G151319	maize1
GRMZM2G151414	maize1
GRMZM2G151580	maize1
GRMZM2G151734	maize1
GRMZM2G151887	maize1
GRMZM2G151923	maize1
GRMZM2G151967	maize1
GRMZM2G152057	maize1
GRMZM2G152059	maize1
GRMZM2G152111	maize1
GRMZM2G152126	maize1
GRMZM2G152127	maize1
GRMZM2G152141	maize1
GRMZM2G152175	maize1
GRMZM2G152177	maize1
GRMZM2G152360	maize1
GRMZM2G152370	maize1
GRMZM2G152373	maize1
GRMZM2G152451	maize1
GRMZM2G152457	maize1
GRMZM2G152485	maize1
GRMZM2G152599	maize1
GRMZM2G152686	maize1
GRMZM2G152732	maize1
GRMZM2G152877	maize1
GRMZM2G152901	maize1
GRMZM2G152921	maize1
GRMZM2G152925	maize1
GRMZM2G152929	maize1
GRMZM2G153103	maize1
GRMZM2G153119	maize1
GRMZM2G153127	maize1
GRMZM2G153359	maize1
GRMZM2G153536	maize1
GRMZM2G153706	maize1
GRMZM2G153754	maize1
GRMZM2G153987	maize1
GRMZM2G154063	maize1
GRMZM2G154078	maize1
GRMZM2G154093	maize1
GRMZM2G154209	maize1
GRMZM2G154211	maize1
GRMZM2G154223	maize1
GRMZM2G154301	maize1
GRMZM2G154460	maize1
GRMZM2G154487	maize1
GRMZM2G154595	maize1
GRMZM2G154641	maize1
GRMZM2G154664	maize1
GRMZM2G154789	maize1
GRMZM2G154839	maize1
GRMZM2G154958	maize1
GRMZM2G154987	maize1
GRMZM2G155220	maize1
GRMZM2G155285	maize1
GRMZM2G155312	maize1
GRMZM2G155340	maize1
GRMZM2G155348	maize1
GRMZM2G155357	maize1
GRMZM2G155580	maize1
GRMZM2G155593	maize1
GRMZM2G155729	maize1
GRMZM2G155816	maize1
GRMZM2G155868	maize1
GRMZM2G155935	maize1
GRMZM2G155954	maize1
GRMZM2G156012	maize1
GRMZM2G156227	maize1
GRMZM2G156365	maize1
GRMZM2G156377	maize1
GRMZM2G156516	maize1
GRMZM2G156543	maize1
GRMZM2G156630	maize1
GRMZM2G156648	maize1
GRMZM2G156684	maize1
GRMZM2G156729	maize1
GRMZM2G156739	maize1
GRMZM2G156765	maize1
GRMZM2G156905	maize1
GRMZM2G156937	maize1
GRMZM2G156956	maize1
GRMZM2G157068	maize1
GRMZM2G157102	maize1
GRMZM2G157196	maize1
GRMZM2G157218	maize1
GRMZM2G157219	maize1
GRMZM2G157263	maize1
GRMZM2G157269	maize1
GRMZM2G157316	maize1
GRMZM2G157379	maize1
GRMZM2G157536	maize1
GRMZM2G157574	maize1
GRMZM2G157580	maize1
GRMZM2G157605	maize1
GRMZM2G157679	maize1
GRMZM2G157817	maize1
GRMZM2G157875	maize1
GRMZM2G157913	maize1
GRMZM2G157953	maize1
GRMZM2G158009	maize1
GRMZM2G158013	maize1
GRMZM2G158083	maize1
GRMZM2G158103	maize1
GRMZM2G158131	maize1
GRMZM2G158147	maize1
GRMZM2G158194	maize1
GRMZM2G158237	maize1
GRMZM2G158274	maize1
GRMZM2G158429	maize1
GRMZM2G158489	maize1
GRMZM2G158496	maize1
GRMZM2G158562	maize1
GRMZM2G158595	maize1
GRMZM2G158645	maize1
GRMZM2G158676	maize1
GRMZM2G158831	maize1
GRMZM2G158835	maize1
GRMZM2G158976	maize1
GRMZM2G159034	maize1
GRMZM2G159082	maize1
GRMZM2G159149	maize1
GRMZM2G159160	maize1
GRMZM2G159161	maize1
GRMZM2G159221	maize1
GRMZM2G159295	maize1
GRMZM2G159369	maize1
GRMZM2G159535	maize1
GRMZM2G159542	maize1
GRMZM2G159581	maize1
GRMZM2G159660	maize1
GRMZM2G159724	maize1
GRMZM2G159741	maize1
GRMZM2G159849	maize1
GRMZM2G159975	maize1
GRMZM2G159996	maize1
GRMZM2G160032	maize1
GRMZM2G160304	maize1
GRMZM2G160452	maize1
GRMZM2G160454	maize1
GRMZM2G160466	maize1
GRMZM2G160506	maize1
GRMZM2G160563	maize1
GRMZM2G160569	maize1
GRMZM2G160585	maize1
GRMZM2G160730	maize1
GRMZM2G160770	maize1
GRMZM2G160927	maize1
GRMZM2G160983	maize1
GRMZM2G161004	maize1
GRMZM2G161212	maize1
GRMZM2G161274	maize1
GRMZM2G161295	maize1
GRMZM2G161299	maize1
GRMZM2G161302	maize1
GRMZM2G161337	maize1
GRMZM2G161377	maize1
GRMZM2G161380	maize1
GRMZM2G161534	maize1
GRMZM2G161587	maize1
GRMZM2G161619	maize1
GRMZM2G161641	maize1
GRMZM2G161780	maize1
GRMZM2G161852	maize1
GRMZM2G161932	maize1
GRMZM2G162065	maize1
GRMZM2G162082	maize1
GRMZM2G162233	maize1
GRMZM2G162251	maize1
GRMZM2G162290	maize1
GRMZM2G162292	maize1
GRMZM2G162305	maize1
GRMZM2G162333	maize1
GRMZM2G162356	maize1
GRMZM2G162382	maize1
GRMZM2G162409	maize1
GRMZM2G162616	maize1
GRMZM2G162699	maize1
GRMZM2G162764	maize1
GRMZM2G162768	maize1
GRMZM2G163015	maize1
GRMZM2G163043	maize1
GRMZM2G163116	maize1
GRMZM2G163136	maize1
GRMZM2G163138	maize1
GRMZM2G163283	maize1
GRMZM2G163296	maize1
GRMZM2G163440	maize1
GRMZM2G163494	maize1
GRMZM2G163544	maize1
GRMZM2G163578	maize1
GRMZM2G163713	maize1
GRMZM2G164141	maize1
GRMZM2G164202	maize1
GRMZM2G164242	maize1
GRMZM2G164277	maize1
GRMZM2G164340	maize1
GRMZM2G164378	maize1
GRMZM2G164413	maize1
GRMZM2G164493	maize1
GRMZM2G164558	maize1
GRMZM2G164580	maize1
GRMZM2G164654	maize1
GRMZM2G164696	maize1
GRMZM2G164787	maize1
GRMZM2G164912	maize1
GRMZM2G164948	maize1
GRMZM2G164965	maize1
GRMZM2G165005	maize1
GRMZM2G165011	maize1
GRMZM2G165042	maize1
GRMZM2G165195	maize1
GRMZM2G165234	maize1
GRMZM2G165290	maize1
GRMZM2G165301	maize1
GRMZM2G165351	maize1
GRMZM2G165390	maize1
GRMZM2G165413	maize1
GRMZM2G165418	maize1
GRMZM2G165530	maize1
GRMZM2G165535	maize1
GRMZM2G165619	maize1
GRMZM2G165755	maize1
GRMZM2G165757	maize1
GRMZM2G165844	maize1
GRMZM2G165945	maize1
GRMZM2G165972	maize1
GRMZM2G165998	maize1
GRMZM2G166166	maize1
GRMZM2G166642	maize1
GRMZM2G166738	maize1
GRMZM2G166906	maize1
GRMZM2G166931	maize1
GRMZM2G166976	maize1
GRMZM2G167216	maize1
GRMZM2G167243	maize1
GRMZM2G167247	maize1
GRMZM2G167356	maize1
GRMZM2G167438	maize1
GRMZM2G167548	maize1
GRMZM2G167568	maize1
GRMZM2G167637	maize1
GRMZM2G167651	maize1
GRMZM2G167669	maize1
GRMZM2G167673	maize1
GRMZM2G167694	maize1
GRMZM2G167728	maize1
GRMZM2G167809	maize1
GRMZM2G167812	maize1
GRMZM2G167836	maize1
GRMZM2G167892	maize1
GRMZM2G167966	maize1
GRMZM2G168108	maize1
GRMZM2G168364	maize1
GRMZM2G168441	maize1
GRMZM2G168588	maize1
GRMZM2G168674	maize1
GRMZM2G168707	maize1
GRMZM2G168747	maize1
GRMZM2G168858	maize1
GRMZM2G168898	maize1
GRMZM2G168909	maize1
GRMZM2G168980	maize1
GRMZM2G169000	maize1
GRMZM2G169064	maize1
GRMZM2G169198	maize1
GRMZM2G169280	maize1
GRMZM2G169320	maize1
GRMZM2G169326	maize1
GRMZM2G169449	maize1
GRMZM2G169486	maize1
GRMZM2G169747	maize1
GRMZM2G169773	maize1
GRMZM2G169820	maize1
GRMZM2G169929	maize1
GRMZM2G169943	maize1
GRMZM2G169951	maize1
GRMZM2G169967	maize1
GRMZM2G169973	maize1
GRMZM2G169994	maize1
GRMZM2G170013	maize1
GRMZM2G170016	maize1
GRMZM2G170044	maize1
GRMZM2G170099	maize1
GRMZM2G170101	maize1
GRMZM2G170120	maize1
GRMZM2G170152	maize1
GRMZM2G170382	maize1
GRMZM2G170400	maize1
GRMZM2G170516	maize1
GRMZM2G170532	maize1
GRMZM2G170595	maize1
GRMZM2G170612	maize1
GRMZM2G170625	maize1
GRMZM2G170805	maize1
GRMZM2G170927	maize1
GRMZM2G170958	maize1
GRMZM2G171022	maize1
GRMZM2G171096	maize1
GRMZM2G171179	maize1
GRMZM2G171187	maize1
GRMZM2G171248	maize1
GRMZM2G171324	maize1
GRMZM2G171373	maize1
GRMZM2G171408	maize1
GRMZM2G171430	maize1
GRMZM2G171478	maize1
GRMZM2G171556	maize1
GRMZM2G171662	maize1
GRMZM2G171677	maize1
GRMZM2G171752	maize1
GRMZM2G171871	maize1
GRMZM2G171884	maize1
GRMZM2G172183	maize1
GRMZM2G172322	maize1
GRMZM2G172410	maize1
GRMZM2G172420	maize1
GRMZM2G172537	maize1
GRMZM2G172574	maize1
GRMZM2G172695	maize1
GRMZM2G172751	maize1
GRMZM2G172900	maize1
GRMZM2G172997	maize1
GRMZM2G173090	maize1
GRMZM2G173309	maize1
GRMZM2G173341	maize1
GRMZM2G173358	maize1
GRMZM2G173372	maize1
GRMZM2G173387	maize1
GRMZM2G173425	maize1
GRMZM2G173647	maize1
GRMZM2G173654	maize1
GRMZM2G173693	maize1
GRMZM2G173729	maize1
GRMZM2G173759	maize1
GRMZM2G173910	maize1
GRMZM2G173967	maize1
GRMZM2G174005	maize1
GRMZM2G174048	maize1
GRMZM2G174236	maize1
GRMZM2G174444	maize1
GRMZM2G174479	maize1
GRMZM2G174549	maize1
GRMZM2G174572	maize1
GRMZM2G174610	maize1
GRMZM2G174708	maize1
GRMZM2G174757	maize1
GRMZM2G174782	maize1
GRMZM2G174807	maize1
GRMZM2G174855	maize1
GRMZM2G174949	maize1
GRMZM2G175038	maize1
GRMZM2G175218	maize1
GRMZM2G175444	maize1
GRMZM2G175574	maize1
GRMZM2G175799	maize1
GRMZM2G175860	maize1
GRMZM2G175989	maize1
GRMZM2G175995	maize1
GRMZM2G176175	maize1
GRMZM2G176209	maize1
GRMZM2G176396	maize1
GRMZM2G176419	maize1
GRMZM2G176465	maize1
GRMZM2G176495	maize1
GRMZM2G176499	maize1
GRMZM2G176506	maize1
GRMZM2G176542	maize1
GRMZM2G177070	maize1
GRMZM2G177084	maize1
GRMZM2G177198	maize1
GRMZM2G177229	maize1
GRMZM2G177242	maize1
GRMZM2G177259	maize1
GRMZM2G177298	maize1
GRMZM2G177356	maize1
GRMZM2G177532	maize1
GRMZM2G177539	maize1
GRMZM2G177659	maize1
GRMZM2G177812	maize1
GRMZM2G177845	maize1
GRMZM2G177906	maize1
GRMZM2G177928	maize1
GRMZM2G177937	maize1
GRMZM2G177947	maize1
GRMZM2G177970	maize1
GRMZM2G178014	maize1
GRMZM2G178192	maize1
GRMZM2G178341	maize1
GRMZM2G178460	maize1
GRMZM2G178497	maize1
GRMZM2G178681	maize1
GRMZM2G178704	maize1
GRMZM2G178709	maize1
GRMZM2G178887	maize1
GRMZM2G178892	maize1
GRMZM2G178894	maize1
GRMZM2G178913	maize1
GRMZM2G178998	maize1
GRMZM2G179281	maize1
GRMZM2G179294	maize1
GRMZM2G179346	maize1
GRMZM2G179351	maize1
GRMZM2G179354	maize1
GRMZM2G179411	maize1
GRMZM2G179429	maize1
GRMZM2G179454	maize1
GRMZM2G179462	maize1
GRMZM2G179465	maize1
GRMZM2G179689	maize1
GRMZM2G179715	maize1
GRMZM2G179732	maize1
GRMZM2G179761	maize1
GRMZM2G179793	maize1
GRMZM2G180168	maize1
GRMZM2G180509	maize1
GRMZM2G180612	maize1
GRMZM2G180815	maize1
GRMZM2G180863	maize1
GRMZM2G180916	maize1
GRMZM2G180983	maize1
GRMZM2G181273	maize1
GRMZM2G181322	maize1
GRMZM2G181390	maize1
GRMZM2G181607	maize1
GRMZM2G181637	maize1
GRMZM2G300135	maize1
GRMZM2G300709	maize1
GRMZM2G300866	maize1
GRMZM2G300965	maize1
GRMZM2G301071	maize1
GRMZM2G301089	maize1
GRMZM2G301325	maize1
GRMZM2G301334	maize1
GRMZM2G301803	maize1
GRMZM2G301823	maize1
GRMZM2G302171	maize1
GRMZM2G302778	maize1
GRMZM2G303007	maize1
GRMZM2G303132	maize1
GRMZM2G303431	maize1
GRMZM2G304010	maize1
GRMZM2G304132	maize1
GRMZM2G305007	maize1
GRMZM2G305124	maize1
GRMZM2G305526	maize1
GRMZM2G305851	maize1
GRMZM2G306357	maize1
GRMZM2G306732	maize1
GRMZM2G306741	maize1
GRMZM2G306935	maize1
GRMZM2G307992	maize1
GRMZM2G308106	maize1
GRMZM2G308189	maize1
GRMZM2G308203	maize1
GRMZM2G308503	maize1
GRMZM2G308619	maize1
GRMZM2G308707	maize1
GRMZM2G309063	maize1
GRMZM2G309152	maize1
GRMZM2G309512	maize1
GRMZM2G309660	maize1
GRMZM2G309933	maize1
GRMZM2G310069	maize1
GRMZM2G310283	maize1
GRMZM2G311003	maize1
GRMZM2G311665	maize1
GRMZM2G312075	maize1
GRMZM2G312091	maize1
GRMZM2G312438	maize1
GRMZM2G312839	maize1
GRMZM2G312910	maize1
GRMZM2G312970	maize1
GRMZM2G313020	maize1
GRMZM2G313058	maize1
GRMZM2G313068	maize1
GRMZM2G313078	maize1
GRMZM2G313101	maize1
GRMZM2G313184	maize1
GRMZM2G313553	maize1
GRMZM2G313867	maize1
GRMZM2G314386	maize1
GRMZM2G314520	maize1
GRMZM2G314554	maize1
GRMZM2G314593	maize1
GRMZM2G314660	maize1
GRMZM2G314667	maize1
GRMZM2G315127	maize1
GRMZM2G315176	maize1
GRMZM2G315375	maize1
GRMZM2G317160	maize1
GRMZM2G317285	maize1
GRMZM2G317770	maize1
GRMZM2G317900	maize1
GRMZM2G318319	maize1
GRMZM2G318527	maize1
GRMZM2G318633	maize1
GRMZM2G318772	maize1
GRMZM2G318849	maize1
GRMZM2G319109	maize1
GRMZM2G319169	maize1
GRMZM2G319262	maize1
GRMZM2G319781	maize1
GRMZM2G319798	maize1
GRMZM2G320099	maize1
GRMZM2G320325	maize1
GRMZM2G320399	maize1
GRMZM2G320703	maize1
GRMZM2G320708	maize1
GRMZM2G320960	maize1
GRMZM2G321010	maize1
GRMZM2G321053	maize1
GRMZM2G321778	maize1
GRMZM2G321839	maize1
GRMZM2G321870	maize1
GRMZM2G322129	maize1
GRMZM2G322413	maize1
GRMZM2G322819	maize1
GRMZM2G323309	maize1
GRMZM2G323943	maize1
GRMZM2G324292	maize1
GRMZM2G324297	maize1
GRMZM2G325019	maize1
GRMZM2G325038	maize1
GRMZM2G325118	maize1
GRMZM2G326328	maize1
GRMZM2G326545	maize1
GRMZM2G327042	maize1
GRMZM2G327059	maize1
GRMZM2G327354	maize1
GRMZM2G328612	maize1
GRMZM2G328795	maize1
GRMZM2G329177	maize1
GRMZM2G329750	maize1
GRMZM2G331015	maize1
GRMZM2G331032	maize1
GRMZM2G331374	maize1
GRMZM2G331720	maize1
GRMZM2G331782	maize1
GRMZM2G331797	maize1
GRMZM2G332654	maize1
GRMZM2G333042	maize1
GRMZM2G333833	maize1
GRMZM2G334181	maize1
GRMZM2G334722	maize1
GRMZM2G335242	maize1
GRMZM2G335272	maize1
GRMZM2G335280	maize1
GRMZM2G335407	maize1
GRMZM2G335989	maize1
GRMZM2G336583	maize1
GRMZM2G337792	maize1
GRMZM2G338483	maize1
GRMZM2G338809	maize1
GRMZM2G339563	maize1
GRMZM2G339943	maize1
GRMZM2G340286	maize1
GRMZM2G340656	maize1
GRMZM2G341366	maize1
GRMZM2G341479	maize1
GRMZM2G341658	maize1
GRMZM2G341712	maize1
GRMZM2G343080	maize1
GRMZM2G344212	maize1
GRMZM2G344634	maize1
GRMZM2G344974	maize1
GRMZM2G345991	maize1
GRMZM2G346133	maize1
GRMZM2G346138	maize1
GRMZM2G346263	maize1
GRMZM2G346466	maize1
GRMZM2G347190	maize1
GRMZM2G347808	maize1
GRMZM2G347956	maize1
GRMZM2G348238	maize1
GRMZM2G348578	maize1
GRMZM2G348914	maize1
GRMZM2G348956	maize1
GRMZM2G349407	maize1
GRMZM2G350205	maize1
GRMZM2G351758	maize1
GRMZM2G351832	maize1
GRMZM2G352234	maize1
GRMZM2G352431	maize1
GRMZM2G352607	maize1
GRMZM2G352678	maize1
GRMZM2G352883	maize1
GRMZM2G353195	maize1
GRMZM2G355381	maize1
GRMZM2G355450	maize1
GRMZM2G356198	maize1
GRMZM2G357040	maize1
GRMZM2G357636	maize1
GRMZM2G357688	maize1
GRMZM2G358279	maize1
GRMZM2G358311	maize1
GRMZM2G358386	maize1
GRMZM2G358772	maize1
GRMZM2G358989	maize1
GRMZM2G359038	maize1
GRMZM2G359127	maize1
GRMZM2G359505	maize1
GRMZM2G359670	maize1
GRMZM2G360455	maize1
GRMZM2G360681	maize1
GRMZM2G361100	maize1
GRMZM2G361388	maize1
GRMZM2G361518	maize1
GRMZM2G361593	maize1
GRMZM2G361615	maize1
GRMZM2G361847	maize1
GRMZM2G362131	maize1
GRMZM2G362281	maize1
GRMZM2G362793	maize1
GRMZM2G362807	maize1
GRMZM2G362848	maize1
GRMZM2G362850	maize1
GRMZM2G363813	maize1
GRMZM2G364566	maize1
GRMZM2G364597	maize1
GRMZM2G364901	maize1
GRMZM2G364973	maize1
GRMZM2G364982	maize1
GRMZM2G365240	maize1
GRMZM2G366150	maize1
GRMZM2G366434	maize1
GRMZM2G366584	maize1
GRMZM2G366607	maize1
GRMZM2G366792	maize1
GRMZM2G367092	maize1
GRMZM2G367355	maize1
GRMZM2G367638	maize1
GRMZM2G367650	maize1
GRMZM2G368410	maize1
GRMZM2G368662	maize1
GRMZM2G368827	maize1
GRMZM2G369432	maize1
GRMZM2G369792	maize1
GRMZM2G370081	maize1
GRMZM2G370143	maize1
GRMZM2G370155	maize1
GRMZM2G370405	maize1
GRMZM2G370780	maize1
GRMZM2G371167	maize1
GRMZM2G371721	maize1
GRMZM2G372297	maize1
GRMZM2G372475	maize1
GRMZM2G373175	maize1
GRMZM2G373420	maize1
GRMZM2G373607	maize1
GRMZM2G374475	maize1
GRMZM2G374779	maize1
GRMZM2G374827	maize1
GRMZM2G375064	maize1
GRMZM2G375904	maize1
GRMZM2G376085	maize1
GRMZM2G376595	maize1
GRMZM2G376632	maize1
GRMZM2G377168	maize1
GRMZM2G377553	maize1
GRMZM2G377589	maize1
GRMZM2G377613	maize1
GRMZM2G377694	maize1
GRMZM2G377761	maize1
GRMZM2G377780	maize1
GRMZM2G378442	maize1
GRMZM2G378452	maize1
GRMZM2G378490	maize1
GRMZM2G378580	maize1
GRMZM2G378907	maize1
GRMZM2G379002	maize1
GRMZM2G379021	maize1
GRMZM2G379044	maize1
GRMZM2G379804	maize1
GRMZM2G380088	maize1
GRMZM2G380177	maize1
GRMZM2G380184	maize1
GRMZM2G380195	maize1
GRMZM2G380738	maize1
GRMZM2G380754	maize1
GRMZM2G381378	maize1
GRMZM2G381386	maize1
GRMZM2G381441	maize1
GRMZM2G382077	maize1
GRMZM2G382557	maize1
GRMZM2G382717	maize1
GRMZM2G382747	maize1
GRMZM2G382914	maize1
GRMZM2G383408	maize1
GRMZM2G383854	maize1
GRMZM2G385050	maize1
GRMZM2G385979	maize1
GRMZM2G386113	maize1
GRMZM2G386245	maize1
GRMZM2G386276	maize1
GRMZM2G386991	maize1
GRMZM2G387419	maize1
GRMZM2G387485	maize1
GRMZM2G387837	maize1
GRMZM2G388045	maize1
GRMZM2G388420	maize1
GRMZM2G388585	maize1
GRMZM2G388855	maize1
GRMZM2G388915	maize1
GRMZM2G389019	maize1
GRMZM2G389462	maize1
GRMZM2G389769	maize1
GRMZM2G389881	maize1
GRMZM2G390013	maize1
GRMZM2G390221	maize1
GRMZM2G390876	maize1
GRMZM2G392320	maize1
GRMZM2G392524	maize1
GRMZM2G392649	maize1
GRMZM2G392863	maize1
GRMZM2G393002	maize1
GRMZM2G393146	maize1
GRMZM2G394450	maize1
GRMZM2G395114	maize1
GRMZM2G395121	maize1
GRMZM2G395354	maize1
GRMZM2G395983	maize1
GRMZM2G396212	maize1
GRMZM2G396231	maize1
GRMZM2G396553	maize1
GRMZM2G396562	maize1
GRMZM2G397281	maize1
GRMZM2G397518	maize1
GRMZM2G397927	maize1
GRMZM2G397948	maize1
GRMZM2G398736	maize1
GRMZM2G399072	maize1
GRMZM2G399320	maize1
GRMZM2G399641	maize1
GRMZM2G399700	maize1
GRMZM2G399858	maize1
GRMZM2G399890	maize1
GRMZM2G399952	maize1
GRMZM2G399970	maize1
GRMZM2G400167	maize1
GRMZM2G400268	maize1
GRMZM2G400470	maize1
GRMZM2G400604	maize1
GRMZM2G400837	maize1
GRMZM2G400938	maize1
GRMZM2G401308	maize1
GRMZM2G402242	maize1
GRMZM2G402309	maize1
GRMZM2G402564	maize1
GRMZM2G403181	maize1
GRMZM2G403371	maize1
GRMZM2G403636	maize1
GRMZM2G404126	maize1
GRMZM2G404443	maize1
GRMZM2G404965	maize1
GRMZM2G405567	maize1
GRMZM2G405760	maize1
GRMZM2G406672	maize1
GRMZM2G406830	maize1
GRMZM2G406859	maize1
GRMZM2G406977	maize1
GRMZM2G407146	maize1
GRMZM2G407495	maize1
GRMZM2G408174	maize1
GRMZM2G408242	maize1
GRMZM2G408305	maize1
GRMZM2G408359	maize1
GRMZM2G408428	maize1
GRMZM2G408430	maize1
GRMZM2G408598	maize1
GRMZM2G408967	maize1
GRMZM2G409093	maize1
GRMZM2G409372	maize1
GRMZM2G409638	maize1
GRMZM2G409658	maize1
GRMZM2G409881	maize1
GRMZM2G409934	maize1
GRMZM2G410033	maize1
GRMZM2G410134	maize1
GRMZM2G410479	maize1
GRMZM2G410710	maize1
GRMZM2G410757	maize1
GRMZM2G410990	maize1
GRMZM2G410991	maize1
GRMZM2G411041	maize1
GRMZM2G411899	maize1
GRMZM2G411956	maize1
GRMZM2G412085	maize1
GRMZM2G412436	maize1
GRMZM2G412470	maize1
GRMZM2G413044	maize1
GRMZM2G413829	maize1
GRMZM2G413853	maize1
GRMZM2G414141	maize1
GRMZM2G414537	maize1
GRMZM2G414569	maize1
GRMZM2G414620	maize1
GRMZM2G414621	maize1
GRMZM2G414791	maize1
GRMZM2G414813	maize1
GRMZM2G414827	maize1
GRMZM2G414879	maize1
GRMZM2G415312	maize1
GRMZM2G415343	maize1
GRMZM2G415359	maize1
GRMZM2G415433	maize1
GRMZM2G415529	maize1
GRMZM2G415846	maize1
GRMZM2G416082	maize1
GRMZM2G416388	maize1
GRMZM2G416887	maize1
GRMZM2G417072	maize1
GRMZM2G417107	maize1
GRMZM2G417525	maize1
GRMZM2G417963	maize1
GRMZM2G418752	maize1
GRMZM2G419085	maize1
GRMZM2G419111	maize1
GRMZM2G420436	maize1
GRMZM2G420856	maize1
GRMZM2G421463	maize1
GRMZM2G421541	maize1
GRMZM2G421604	maize1
GRMZM2G422259	maize1
GRMZM2G422373	maize1
GRMZM2G422510	maize1
GRMZM2G422671	maize1
GRMZM2G423337	maize1
GRMZM2G423472	maize1
GRMZM2G423476	maize1
GRMZM2G423851	maize1
GRMZM2G423884	maize1
GRMZM2G424088	maize1
GRMZM2G424509	maize1
GRMZM2G425629	maize1
GRMZM2G425729	maize1
GRMZM2G425863	maize1
GRMZM2G426336	maize1
GRMZM2G426511	maize1
GRMZM2G426802	maize1
GRMZM2G426922	maize1
GRMZM2G426953	maize1
GRMZM2G427438	maize1
GRMZM2G427672	maize1
GRMZM2G428216	maize1
GRMZM2G428386	maize1
GRMZM2G428410	maize1
GRMZM2G429118	maize1
GRMZM2G429396	maize1
GRMZM2G429493	maize1
GRMZM2G429842	maize1
GRMZM2G429857	maize1
GRMZM2G429899	maize1
GRMZM2G429982	maize1
GRMZM2G430392	maize1
GRMZM2G430411	maize1
GRMZM2G430623	maize1
GRMZM2G431030	maize1
GRMZM2G432390	maize1
GRMZM2G432480	maize1
GRMZM2G433002	maize1
GRMZM2G434669	maize1
GRMZM2G434696	maize1
GRMZM2G434792	maize1
GRMZM2G435001	maize1
GRMZM2G435589	maize1
GRMZM2G435627	maize1
GRMZM2G435986	maize1
GRMZM2G436020	maize1
GRMZM2G436429	maize1
GRMZM2G438386	maize1
GRMZM2G438524	maize1
GRMZM2G438652	maize1
GRMZM2G438895	maize1
GRMZM2G439201	maize1
GRMZM2G439203	maize1
GRMZM2G439400	maize1
GRMZM2G439860	maize1
GRMZM2G440313	maize1
GRMZM2G440529	maize1
GRMZM2G440614	maize1
GRMZM2G440831	maize1
GRMZM2G441115	maize1
GRMZM2G441656	maize1
GRMZM2G441888	maize1
GRMZM2G441903	maize1
GRMZM2G442763	maize1
GRMZM2G442920	maize1
GRMZM2G443287	maize1
GRMZM2G443715	maize1
GRMZM2G444029	maize1
GRMZM2G444801	maize1
GRMZM2G445944	maize1
GRMZM2G445958	maize1
GRMZM2G446047	maize1
GRMZM2G447717	maize1
GRMZM2G447857	maize1
GRMZM2G448185	maize1
GRMZM2G448258	maize1
GRMZM2G448368	maize1
GRMZM2G448607	maize1
GRMZM2G448656	maize1
GRMZM2G448701	maize1
GRMZM2G448925	maize1
GRMZM2G449033	maize1
GRMZM2G449094	maize1
GRMZM2G449875	maize1
GRMZM2G449893	maize1
GRMZM2G449944	maize1
GRMZM2G450128	maize1
GRMZM2G450488	maize1
GRMZM2G450920	maize1
GRMZM2G452016	maize1
GRMZM2G452564	maize1
GRMZM2G453139	maize1
GRMZM2G453805	maize1
GRMZM2G454889	maize1
GRMZM2G454952	maize1
GRMZM2G455440	maize1
GRMZM2G455687	maize1
GRMZM2G455749	maize1
GRMZM2G456059	maize1
GRMZM2G456123	maize1
GRMZM2G456132	maize1
GRMZM2G456603	maize1
GRMZM2G456626	maize1
GRMZM2G457178	maize1
GRMZM2G457201	maize1
GRMZM2G457697	maize1
GRMZM2G458095	maize1
GRMZM2G458159	maize1
GRMZM2G458164	maize1
GRMZM2G458349	maize1
GRMZM2G458448	maize1
GRMZM2G458533	maize1
GRMZM2G458549	maize1
GRMZM2G459063	maize1
GRMZM2G459642	maize1
GRMZM2G459663	maize1
GRMZM2G459820	maize1
GRMZM2G460012	maize1
GRMZM2G460078	maize1
GRMZM2G460594	maize1
GRMZM2G461791	maize1
GRMZM2G463280	maize1
GRMZM2G463525	maize1
GRMZM2G464575	maize1
GRMZM2G465046	maize1
GRMZM2G465188	maize1
GRMZM2G466309	maize1
GRMZM2G466394	maize1
GRMZM2G467159	maize1
GRMZM2G467339	maize1
GRMZM2G467356	maize1
GRMZM2G467717	maize1
GRMZM2G468682	maize1
GRMZM2G469111	maize1
GRMZM2G470048	maize1
GRMZM2G470307	maize1
GRMZM2G470452	maize1
GRMZM2G470461	maize1
GRMZM2G470756	maize1
GRMZM2G471517	maize1
GRMZM2G472060	maize1
GRMZM2G472146	maize1
GRMZM2G472167	maize1
GRMZM2G472171	maize1
GRMZM2G472236	maize1
GRMZM2G472266	maize1
GRMZM2G472278	maize1
GRMZM2G472346	maize1
GRMZM2G472382	maize1
GRMZM2G472428	maize1
GRMZM2G472610	maize1
GRMZM2G472643	maize1
GRMZM2G472852	maize1
GRMZM2G473001	maize1
GRMZM2G473811	maize1
GRMZM2G473976	maize1
GRMZM2G474332	maize1
GRMZM2G474798	maize1
GRMZM2G475263	maize1
GRMZM2G475305	maize1
GRMZM2G475743	maize1
GRMZM2G476040	maize1
GRMZM2G476230	maize1
GRMZM2G476523	maize1
GRMZM2G476538	maize1
GRMZM2G476685	maize1
GRMZM2G477146	maize1
GRMZM2G477200	maize1
GRMZM2G477609	maize1
GRMZM2G477743	maize1
GRMZM2G477879	maize1
GRMZM2G478664	maize1
GRMZM2G479110	maize1
GRMZM2G479112	maize1
GRMZM2G479249	maize1
GRMZM2G479665	maize1
GRMZM2G480002	maize1
GRMZM2G480074	maize1
GRMZM2G480480	maize1
GRMZM2G480551	maize1
GRMZM2G480903	maize1
GRMZM2G481194	maize1
GRMZM2G481261	maize1
GRMZM2G481740	maize1
GRMZM2G481755	maize1
GRMZM2G481964	maize1
GRMZM2G482256	maize1
GRMZM2G484344	maize1
GRMZM2G484452	maize1
GRMZM2G485559	maize1
GRMZM2G493549	maize1
GRMZM2G494514	maize1
GRMZM2G504595	maize1
GRMZM2G516421	maize1
GRMZM2G520811	maize1
GRMZM2G536238	maize1
GRMZM2G540772	maize1
GRMZM2G542227	maize1
GRMZM2G550861	maize1
GRMZM2G555108	maize1
GRMZM2G556845	maize1
GRMZM2G583779	maize1
GRMZM2G700200	maize1
GRMZM2G701513	maize1
GRMZM2G703858	maize1
GRMZM2G703928	maize1
GRMZM2G704005	maize1
GRMZM2G704277	maize1
GRMZM2G704285	maize1